{
    "name": "A220-100",
    "arrangement": {
        "body_type": ["fuselage", "string", "Type of main body, 'fuselage' or 'blended'"],
        "wing_type": ["classic", "string", "Type of lifting body, 'classic' or 'blended'"],
        "wing_attachment": ["low", "string", "Position of wing attachment, 'low' or 'high'"],
        "stab_architecture": ["classic", "string", "Type of stabilizers, 'classic', 't_tail' or 'h_tail'"],
        "tank_architecture": ["rear", "string", "Type of tank, 'wing_box', 'piggy_back' or 'pods'"],
        "gear_architecture": ["retractable", "string", "Type of landing gears, 'retractable', 'bare_fixed'"],
        "number_of_engine": ["twin", "string", "Number of engine, 'twin' or 'quadri'"],
        "nacelle_attachment": ["wing", "string", "Position of nacelle attachment, 'wing', 'pod' or 'rear'"],
        "power_architecture": ["tf", "string", "Propulsive architecture, 'tf', 'extf', 'ef'"],
        "power_source": ["fuel", "string", "Type power source, 'fuel', 'battery' or 'fuel_cell"],
        "fuel_type": ["liquid_h2", "string", "Type energy source, 'kerosene', 'methane', 'liquid_h2' or 'battery'"]
    },
    "requirement": {
        "cruise_altp": [35000, "ft", "Mean cruise altitude for design"],
        "cruise_mach": [0.78, "mach", "Cruise Mach number for design"],
        "design_range": [600, "NM", "Design range"],
        "n_pax_ref": [135, "int", "Reference number of passenger for design"],
        "model_config": {
            "model_config": {
                "Cabin": {
                    "n_pax_front": ["function", "int", "Number of front seats in economic class (function)"],
                    "n_aisle": ["function", "int", "Number of aisle in economic class (function)"],
                    "m_pax_nominal": ["function", "kg", "Reference mass allowance per passenger for design (function)"],
                    "m_pax_max": ["function", "kg", "Maximum mass allowance per passenger for design (function)"],
                    "m_pax_cabin": [80, "kg", "Mean passenger mass in the cabin including its hand luggage"],
                    "seat_width": [20, "inch", "Seat width in economic class"],
                    "seat_pitch": [32, "inch", "Seat pitch in economic class"],
                    "aisle_width": [20, "inch", "Aisle width"]
                },
                "Fuselage": {
                    "forward_ratio": [1.1, "no_dim", "Distance between fuselage nose and forward cabin wall over fuselage diameter"],
                    "wall_thickness": [0.2, "m", "Fuselage wall total tchickness"],
                    "nose_cone_ratio": [2, "no_dim", "Fuselage nose cone length (evolutive part) over fuselage diameter"],
                    "tail_cone_ratio": [3.45, "no_dim", "Fuselage tail cone length (evolutive part) over fuselage diameter"],
                    "section_type": ["ellipse", "string", "Fuselage cross section 'ellipse' or 'square'"],
                    "rear_bulkhead_ratio": [1.5, "no_dim", "Distance from rear pressure bulkhead to fuselage cone end over fuselage diameter"],
                    "mass_correction_factor": [1, "no_dim", "Correction factor on mass estimation"]
                },
                "Wing": {
                    "wing_morphing": ["aspect_ratio_driven", "no_dim", "Wing deformation mode, 'aspect_ratio_driven' or 'span_driven'"],
                    "aspect_ratio": ["function", "no_dim", "Wing aspect ratio (function)"],
                    "taper_ratio": ["function", "no_dim", "Wing taper ratio (function)"],
                    "sweep25": ["function", "deg", "Wing sweep angle at 25% of the chords of outboard trapezoid (function)"],
                    "dihedral": [5, "deg", "Wing dihedral"],
                    "front_spar_ratio": [0.15, "no_dim", "Relative chord position of front spar"],
                    "rear_spar_ratio": [0.7, "no_dim", "Relative chord position of rear spar"],
                    "hld_type": ["function", "int", "Type of high lift device, from 0 to 10, (function)"],
                    "mass_correction_factor": [1, "no_dim", "Correction factor on mass estimation"]
                },
                "VtpClassic": {
                    "aspect_ratio": [1.7, "no_dim", "Vertical tail aspect ratio"],
                    "taper_ratio": [0.4, "no_dim", "Vertical tail taper ratio"],
                    "sweep25": ["function", "deg", "Vertical tail sweep angle at 25% of the chords (function)"],
                    "toc": [0.1, "no_dim", "Thickness to chord ratio of the vertical tail"],
                    "thrust_volume_factor": [0.4, "no_dim", "Volume coefficient of the vertical stabilizer according to engine failure"],
                    "wing_volume_factor": [0.07, "no_dim", "Volume coefficient of the vertical stabilizer according to wing"],
                    "anchor_ratio": [0.85, "no_dim", "Relative position of the reference point of the stabilization surface"],
                    "mass_correction_factor": [1, "no_dim", "Correction factor on mass estimation"]
                },
                "VtpTtail": {
                    "aspect_ratio": [1.2, "no_dim", "Vertical tail aspect ratio"],
                    "taper_ratio": [0.8, "no_dim", "Vertical tail taper ratio"],
                    "sweep25": ["function", "deg", "Vertical tail sweep angle at 25% of the chords (function)"],
                    "toc": [0.1, "no_dim", "Thickness to chord ratio of the vertical tail"],
                    "thrust_volume_factor": [0.4, "no_dim", "Volume coefficient of the vertical stabilizer according to engine failure"],
                    "wing_volume_factor": [0.07, "no_dim", "Volume coefficient of the vertical stabilizer according to wing"],
                    "anchor_ratio": [0.85, "no_dim", "Relative position of the reference point of the stabilization surface"],
                    "mass_correction_factor": [1, "no_dim", "Correction factor on mass estimation"]
                },
                "VtpHtail": {
                    "aspect_ratio": [1.5, "no_dim", "Vertical tail aspect ratio"],
                    "taper_ratio": [0.4, "no_dim", "Vertical tail taper ratio"],
                    "sweep25": ["function", "deg", "Vertical tail sweep angle at 25% of the chords (function)"],
                    "toc": [0.1, "no_dim", "Thickness to chord ratio of the vertical tail"],
                    "thrust_volume_factor": [0.4, "no_dim", "Volume coefficient of the vertical stabilizer according to engine failure"],
                    "wing_volume_factor": [0.07, "no_dim", "Volume coefficient of the vertical stabilizer according to wing"],
                    "mass_correction_factor": [1, "no_dim", "Correction factor on mass estimation"]
                },
                "HtpClassic": {
                    "aspect_ratio": [5, "no_dim", "Horizontal tail aspect ratio"],
                    "taper_ratio": [0.35, "no_dim", "Horizontal tail taper ratio"],
                    "sweep25": ["function", "deg", "Horizontal tail sweep angle at 25% of the chords (function)"],
                    "toc": [0.1, "no_dim", "Thickness to chord ratio of the Horizontal tail"],
                    "dihedral": [5, "deg", "Dihedral angle of the horizontal tail"],
                    "volume_factor": [0.94, "no_dim", "Volume coefficient of the vertical stabilizer according to engine failure"],
                    "mass_correction_factor": [1, "no_dim", "Correction factor on mass estimation"]
                },
                "HtpTtail": {
                    "aspect_ratio": [5, "no_dim", "Horizontal tail aspect ratio"],
                    "taper_ratio": [0.35, "no_dim", "Horizontal tail taper ratio"],
                    "height_ratio": [1, "no_dim", "Horizontal tail height ratio versus vertical tail height"],
                    "sweep25": ["function", "deg", "Horizontal tail sweep angle at 25% of the chords (function)"],
                    "toc": [0.1, "no_dim", "Thickness to chord ratio of the Horizontal tail"],
                    "dihedral": [5, "deg", "Dihedral angle of the horizontal tail"],
                    "volume_factor": [0.94, "no_dim", "Volume coefficient of the vertical stabilizer according to engine failure"],
                    "mass_correction_factor": [1, "no_dim", "Correction factor on mass estimation"]
                },
                "HtpHtail": {
                    "aspect_ratio": [5, "no_dim", "Horizontal tail aspect ratio"],
                    "taper_ratio": [0.8, "no_dim", "Horizontal tail taper ratio"],
                    "sweep25": ["function", "deg", "Horizontal tail sweep angle at 25% of the chords (function)"],
                    "toc": [0.1, "no_dim", "Thickness to chord ratio of the Horizontal tail"],
                    "dihedral": [5, "deg", "Dihedral angle of the horizontal tail"],
                    "volume_factor": [0.94, "no_dim", "Volume coefficient of the vertical stabilizer according to engine failure"],
                    "mass_correction_factor": [1, "no_dim", "Correction factor on mass estimation"]
                },
                "TankWingBox": {
                    "gravimetric_index": [0.3, "no_dim", "Ratio Hydrogen_mass / (Hydrogen_mass + Tank_mass)"],
                    "volumetric_index": [0.85, "no_dim", "Ratio Hydrogen_volume / Total_tank_volume"],
                    "fuel_pressure": ["function", "bar", "Maximum over pressure of the fuel in the tank (function)"]
                },
                "TankRearFuselage": {
                    "ref_length": [10, "m", "Initial length of the tank"],
                    "width_rear_factor": [0.75, "m", "Diameter of the rear pressure bulkhead over fuselage diameter"],
                    "gravimetric_index": [0.3, "no_dim", "Ratio Hydrogen_mass / (Hydrogen_mass + Tank_mass)"],
                    "volumetric_index": [0.85, "no_dim", "Ratio Hydrogen_volume / Total_tank_volume"],
                    "fuel_pressure": ["function", "bar", "Maximum over pressure of the fuel in the tank (function)"]
                },
                "Pod": {
                    "structure_shell_surface_mass": [15, "kg/m2", "Surface mass of the surrounding support structure"],
                    "structure_shell_thickness": [0.08, "m", "Thickness of the support structure"],
                    "gravimetric_index": [0.3, "no_dim", "Ratio Hydrogen_mass / (Hydrogen_mass + Tank_mass)"],
                    "volumetric_index": [0.85, "no_dim", "Ratio Hydrogen_volume / Total_tank_volume"]
                },
                "TankWingPod": {
                    "width": [2.5, "m", "diameter of the pod"],
                    "ref_length": [8, "m", "length of the pod"],
                    "span_ratio": [0.65, "no_dim", "Relative span wise position of the tank"],
                    "x_loc_ratio": [0.45, "no_dim", "Fraction of the tank length before the wing"],
                    "z_loc_ratio": [0, "no_dim", "Fraction of the tank diameter between the wing and the tank"],
                    "dry_bay_length": [0, "m", "Length of an eventual dry bay"],
                    "fuel_pressure": ["function", "bar", "Maximum over pressure of the fuel in the tank (function)"]
                },
                "TankPiggyBack": {
                    "width": [3.5, "m", "diameter of the pod"],
                    "ref_length": [24, "m", "length of the pod"],
                    "x_loc_ratio": [0.4, "no_dim", "Fraction of the tank length behind the wing"],
                    "z_loc_ratio": [0.85, "no_dim", "Fraction of the tank diameter between the fuselage and the tank axis"],
                    "dry_bay_length": [2, "m", "Length of an eventual dry bay"],
                    "fuel_pressure": ["function", "bar", "Maximum over pressure of the fuel in the tank (function)"]
                },
                "RetractableLandingGear": {
                    "mass_correction_factor": [1, "no_dim", "Correction factor on mass estimation"]
                },
                "BareFixedLandingGear": {
                    "wheel_count": [2, "int", "Number of main landing gear"],
                    "wheel_drag_area_factor": [1, "no_dim", "Drag area over (dynamic pressure x frontal area"],
                    "mass_correction_factor": [0.5, "no_dim", "Correction factor on mass estimation"]
                },
                "InboardWingMountedNacelle": {},
                "OutboardWingMountedNacelle": {},
                "RearFuselageMountedNacelle": {},
                "PowerSystem": {
                    "sfc_correction": [1, "no_dim", "Factor on specific fuel consumption (fuel only)"]
                },
                "System": {},
                "SystemWithBattery": {
                    "wiring_efficiency": [0.995, "no_dim", "Electric wiring efficiency"],
                    "wiring_pw_density": [20, "kW/kg", "Electric wiring power density"],
                    "cooling_efficiency": [0.995, "no_dim", "Cooling efficiency, ex: 0.99 means that 1% of the power is used by cooling system"],
                    "cooling_pw_density": [5, "kW/kg", "Cooling power density"],
                    "battery_density": [2800, "kg/m3", "Battery density"],
                    "battery_energy_density": [0.4, "kWh/kg", "Battery energy density"]
                },
                "SystemWithFuelCell": {
                    "wiring_efficiency": [0.995, "no_dim", "Electric wiring efficiency"],
                    "wiring_pw_density": [10, "kW/kg", "Electric wiring power density"],
                    "compressor_over_pressure": [100, "kPa", "Compressor over pressure"],
                    "compressor_efficiency": [0.8, "no_dim", "Compressor efficiency, power delivered to the air flow over input power"],
                    "compressor_pw_density": [2, "kW/kg", "Compressor total power density"],
                    "cooling_power_index": [0.005, "no_dim", "Cooling efficiency, ex: 0.01 means that the required power to cool the system is 1% of the dissipated power"],
                    "cooling_gravimetric_index": [5, "kW/kg", "Cooling power density, the ratio of the dissipated power over the required system mass to dissipate it"],
                    "fuel_cell_pw_density": [2, "kW/kg", "Fuell cell power density"],
                    "fuel_cell_efficiency": [0.5, "no_dim", "Fuell cell conversion efficiency"]
                },
                "SystemWithLaplaceFuelCell": {
                    "over_power_factor": [2, "no_dim", "Electric wiring efficiency"],
                    "wiring_efficiency": [0.995, "no_dim", "Electric wiring efficiency"],
                    "wiring_pw_density": [10, "kW/kg", "Electric wiring power density"],
                    "max_power_time": [15, "min", "Max power endurance on battery"],
                    "battery_energy_density": [0.4, "kWh/kg", "Battery energy density"]
                },
                "SystemPartialTurboElectric": {
                    "chain_power_pod": ["function", "kW", "Electric shaft power of the wing tank tail electric fan"],
                    "chain_power_body": ["function", "kW", "Electric shaft power of the main body tail electric fan"],
                    "chain_power_piggyback": ["function", "kW", "Electric shaft power of piggyback body tail electric fan"],
                    "chain_power": ["function", "kW", "Total electric shaft power"],
                    "battery": ["no", "string", "Use of battery, 'yes', 'no'"],
                    "battery_density": [2800, "kg/m3", "Battery density"],
                    "battery_energy_density": [0.4, "kWh/kg", "Battery energy density"],
                    "lto_power": [0, "kW", "Battery power reserve for take off and landing"],
                    "lto_time": [0, "min", "Duration of availability of the power reserve"],
                    "cruise_energy": [0, "kWh", "Energy booked for cruise"],
                    "generator_efficiency": [0.95, "no_dim", "Electric generator efficiency"],
                    "generator_pw_density": [5, "kW/kg", "Electric generator power density"],
                    "rectifier_efficiency": [0.99, "no_dim", "Rectifier efficiency"],
                    "rectifier_pw_density": [15, "kW/kg", "Rectifier power density"],
                    "wiring_efficiency": [0.995, "no_dim", "Electric wiring efficiency"],
                    "wiring_pw_density": [20, "kW/kg", "Electric wiring power density"],
                    "cooling_efficiency": [0.995, "no_dim", "Cooling efficiency, ex: 0.99 means that 1% of the power is used by cooling system"],
                    "cooling_pw_density": [5, "kW/kg", "Cooling power density"]
                },
                "SemiEmpiricTf0Nacelle": {
                    "eis_date": [2020, "year", "Entry into service date"],
                    "lateral_margin": [1, "no_dim", "Lateral margin as a fraction of nacelle width"],
                    "vertical_margin": [1, "no_dim", "vertical margin as a fraction of nacelle width"],
                    "engine_bpr": ["function", "no_dim", "Reference By Pass Ratio of the engine (function)"],
                    "engine_opr": [50, "no_dim", "Reference Overall Pressure Ratio of the engine"],
                    "core_thrust_ratio": [0.13, "no_dim", "Reference ratio of the total thrust delivered by the core"],
                    "propeller_efficiency": [0.82, "no_dim", "Propeller like fan efficiency Thrust.Speed/shaft_power"]
                },
                "SemiEmpiricTfNacelle": {
                    "eis_date": [2020, "year", "Entry into service date"],
                    "lateral_margin": [1, "no_dim", "Lateral margin as a fraction of nacelle width"],
                    "vertical_margin": [1, "no_dim", "vertical margin as a fraction of nacelle width"],
                    "engine_bpr": ["function", "no_dim", "Reference By Pass Ratio of the engine (function)"],
                    "engine_opr": [50, "no_dim", "Reference Overall Pressure Ratio of the engine"],
                    "engine_fpr": [1.5, "no_dim", "Reference Fan Pressure Ratio of the engine"],
                    "core_thrust_ratio": [0.13, "no_dim", "Reference ratio of the total thrust delivered by the core"],
                    "hub_width": [0.4, "m", "Fan hub diameter"],
                    "propeller_efficiency": [0.82, "no_dim", "Propeller like fan efficiency Thrust.Speed/shaft_power"],
                    "fan_efficiency": [0.9, "no_dim", "Classical fan efficiency"]
                },
                "ExergeticTfNacelle": {
                    "eis_date": [2020, "year", "Entry into service date"],
                    "engine_bpr": [14, "no_dim", "Reference By Pass Ratio of the engine"],
                    "engine_fpr": [1.15, "no_dim", "Reference Fan Pressure Ratio of the engine"],
                    "engine_lpc_pr": [3, "no_dim", "Reference Low Pressure Compressor Ratio of the engine"],
                    "engine_hpc_pr": [14, "no_dim", "Reference High  Pressure Compressor Ratio of the engine"],
                    "engine_T4_max": [1700, "K", "Entry turbine maximum temperature"],
                    "cooling_flow": [0.1, "kg/s", "Reference cooling flow"],
                    "lateral_margin": [1, "no_dim", "Lateral margin as a fraction of nacelle width"],
                    "vertical_margin": [1, "no_dim", "vertical margin as a fraction of nacelle width"],
                    "hub_width": [0.4, "m", "Fan hub diameter"]
                },
                "SemiEmpiricTpNacelle": {
                    "eis_date": [2020, "year", "Entry into service date"],
                    "lateral_margin": [1, "no_dim", "Lateral margin as a fraction of nacelle width"],
                    "hub_width": [0.2, "m", "Propeller hub diameter"],
                    "propeller_efficiency": [0.82, "no_dim", "Propeller efficiency Thrust.Speed/shaft_power"],
                    "propeller_disk_load": [3000, "N/m2", "Propeller disk load"],
                    "psfc_reference": [0.4, "lb/shp/h", "Power related Spesific Fuel Consumption"]
                },
                "SemiEmpiricEpNacelle": {
                    "eis_date": [2020, "year", "Entry into service date"],
                    "lateral_margin": [1, "no_dim", "Lateral margin as a fraction of nacelle width"],
                    "propeller_efficiency": [0.82, "no_dim", "Propeller efficiency Thrust.Speed/shaft_power"],
                    "propeller_disk_load": [3000, "N/m2", "Propeller disk load"],
                    "hub_width": [0.2, "m", "Propeller hub diameter"],
                    "motor_efficiency": [0.95, "no_dim", "Electric motor efficiency"],
                    "motor_pw_density": [5, "kW/kg", "Electric motor power density"],
                    "nacelle_pw_density": [10, "kW/kg", "Electric nacelle power density"],
                    "controller_efficiency": [0.99, "no_dim", "Electric controller efficiency"],
                    "controller_pw_density": [15, "kW/kg", "Electric controller power density"]
                },
                "SemiEmpiricEfNacelle": {
                    "eis_date": [2020, "year", "Entry into service date"],
                    "lateral_margin": [1, "no_dim", "Lateral margin as a fraction of nacelle width"],
                    "vertical_margin": [1, "no_dim", "vertical margin as a fraction of nacelle width"],
                    "propeller_efficiency": [0.82, "no_dim", "Propeller like fan efficiency Thrust.Speed/shaft_power"],
                    "fan_efficiency": [0.95, "no_dim", "Classical fan efficiency"],
                    "engine_fpr": [1.3, "no_dim", "Reference Fan Pressure Ratio of the engine"],
                    "hub_width": [0.2, "m", "Fan hub diameter"],
                    "motor_efficiency": [0.95, "no_dim", "Electric motor efficiency"],
                    "motor_pw_density": [5, "kW/kg", "Electric motor power density"],
                    "controller_efficiency": [0.99, "no_dim", "Electric controller efficiency"],
                    "controller_pw_density": [15, "kW/kg", "Electric controller power density"],
                    "nacelle_pw_density": [10, "kW/kg", "Electric nacelle power density"]
                },
                "PodTailConeMountedNacelle": {
                    "bli_effect": ["yes", "string", "Taking into account boundary layer ingestion, 'yes' or 'no'"],
                    "hub_width": [0.4, "m", "Fan hub diameter"],
                    "lateral_margin": [1.5, "no_dim", "Lateral margin as a fraction of nacelle width"],
                    "x_loc_ratio": [0.35, "no_dim", "Fraction of the tank length behind the wing"],
                    "z_loc_ratio": [-0.2, "no_dim", "Fraction of the tank diameter under the wing"],
                    "specific_nacelle_cost": [0.05, "$/kg", "Specific maintenance cost per trip for tail cone mounted nacelle"]
                },
                "PiggyBackTailConeMountedNacelle": {
                    "bli_effect": ["yes", "string", "Taking into account boundary layer ingestion, 'yes' or 'no'"],
                    "hub_width": [0.4, "m", "Fan hub diameter"],
                    "specific_nacelle_cost": [0.05, "$/kg", "Specific maintenance cost per trip for tail cone mounted nacelle"]
                },
                "BodyTailConeMountedNacelle": {
                    "bli_effect": ["yes", "string", "Taking into account boundary layer ingestion, 'yes' or 'no'"],
                    "hub_width": [0.4, "m", "Fan hub diameter"],
                    "tail_cone_height_ratio": [0.87, "no_dim", "Relative vertical position of the body tail cone"],
                    "specific_nacelle_cost": [0.05, "$/kg", "Specific maintenance cost per trip for tail cone mounted nacelle"]
                },
                "AllMissionVarMass": {
                    "ktow": [0.9, "no_dim", "Ratio of TOW defining the aircraft weight for mission breguet range"]
                },
                "MissionVarMassGeneric": {
                    "holding_time": [30, "min", "Holding duration for reserve fuel evaluation"],
                    "reserve_fuel_ratio": ["function", "no_dim", "Fraction of mission fuel for reserve fuel evaluation (function)"],
                    "diversion_range": ["function", "NM", "Range of diversion mission for reserve fuel evaluation (function)"]
                },
                "AllMissionIsoMass": {},
                "MissionIsoMassGeneric": {
                    "holding_time": [30, "min", "Holding duration for reserve fuel evaluation"],
                    "reserve_enrg_ratio": ["function", "no_dim", "Fraction of mission fuel for reserve fuel evaluation (function)"],
                    "diversion_range": ["function", "NM", "Range of diversion mission for reserve fuel evaluation (function)"]
                },
                "Requirement": {
                    "cost_range": ["function", "NM", "Reference range for cost evaluation (function)"],
                    "max_fuel_range_factor": [1.25, "no_dim", "Ratio max_fuel_mission_range / nominal_mission_range, used only with mda_plus"],
                    "max_body_aspect_ratio": [13.3617, "no_dim", "Ratio body length / body height, maximum ratio comming from A340-600"]
                },
                "Aerodynamics": {
                    "kcx_correction": [1, "no_dim", "Drag FACTCOR on cx coefficient"],
                    "dcx_correction": [0, "no_dim", "Drag SHIFT on cx coefficient"],
                    "cruise_lodmax": [16, "no_dim", "Assumption on L/D max for some initializations"],
                    "hld_conf_clean": [0, "no_dim", "High lift device setting for clean wing, must be 0."],
                    "hld_conf_to": [0.3, "no_dim", "High lift device setting for take off, between 0. and 0.5"],
                    "hld_conf_ld": [1, "no_dim", "High lift device setting for landing, typically 1. for full deflection"]
                },
                "HandlingQuality": {
                    "static_stab_margin": [0.05, "no_dim", "CG margin to neutral point"]
                },
                "TakeOffReq": {
                    "disa": [15, "degK", "Temperature shift for take off evaluation"],
                    "altp": [0, "ft", "Altitude for take off evaluation"],
                    "kmtow": [1, "no_dim", "Ratio of MTOW defining the aircraft weight"],
                    "kvs1g": [1.13, "no_dim", "Ratio of MTOW defining the aircraft weight"],
                    "s2_min_path": ["function", "%", "Minimum trajectory slope at 35ft for take off (function)"],
                    "tofl_req": ["function", "m", "Maximum take off field length required in given conditions (function)"]
                },
                "ApproachReq": {
                    "disa": [15, "degK", "Temperature shift for approach speed evaluation"],
                    "altp": [0, "ft", "Altitude for approach speed evaluation"],
                    "kmlw": [1, "no_dim", "Ratio of MLW defining the aircraft weight"],
                    "kvs1g": [1.23, "no_dim", "Ratio of MTOW defining the aircraft weight"],
                    "app_speed_req": ["function", "kt", "Maximum approach speed required in given conditions (function)"]
                },
                "OeiCeilingReq": {
                    "disa": [15, "degK", "Temperature shift for one engine performance evaluation"],
                    "altp": ["function", "ft", "Altitude for one engine performance evaluation (function)"],
                    "kmtow": [1, "no_dim", "Ratio of MTOW defining the aircraft weight"],
                    "rating": ["MCN", "string", "Engine rating for one engine performance evaluation"],
                    "speed_mode": ["cas", "string", "Speed mode for one engine performance evaluation, 'cas':constant CAS or 'mach':constant Mach"],
                    "path_req": ["function", "%", "Minimum trajectory slope required in given conditions (function)"]
                },
                "MclCeilingReq": {
                    "disa": [15, "degK", "Temperature shift for approach speed evaluation"],
                    "altp": ["function", "ft", "Altitude for approach speed evaluation (function)"],
                    "mach": ["function", "ft", "Speed defined by a Mach number (function)"],
                    "kmtow": [0.97, "no_dim", "Ratio of MTOW defining the aircraft weight"],
                    "rating": ["MCL", "string", "Engine rating for one engine performance evaluation"],
                    "speed_mode": ["cas", "string", "Speed mode for one engine performance evaluation, 'cas':constant CAS or 'mach':constant Mach"],
                    "vz_req": ["function", "%", "Minimum vertical speed required in given conditions (function)"]
                },
                "McrCeilingReq": {
                    "disa": [15, "degK", "Temperature shift for approach speed evaluation"],
                    "altp": ["function", "ft", "Altitude for approach speed evaluation (function)"],
                    "mach": ["function", "ft", "Speed defined by a Mach number (function)"],
                    "kmtow": [0.97, "no_dim", "Ratio of MTOW defining the aircraft weight"],
                    "rating": ["MCR", "string", "Engine rating for one engine performance evaluation"],
                    "speed_mode": ["mach", "string", "Speed mode for one engine performance evaluation, 'cas':constant CAS or 'mach':constant Mach"],
                    "vz_req": ["function", "%", "Minimum vertical speed required in given conditions (function)"]
                },
                "TtcReq": {
                    "disa": [15, "degK", "Temperature shift for approach speed evaluation"],
                    "altp": ["function", "ft", "Targetted climb altitude (function)"],
                    "mach": ["function", "ft", "Speed defined by a Mach number (function)"],
                    "kmtow": [0.97, "no_dim", "Ratio of MTOW defining the aircraft weight"],
                    "altp1": [1500, "ft", "Starting pressure altitude for climb trajectory, typically 1500ft"],
                    "cas1": ["function", "kt", "Calibrated Air Speed below altp1 during climb trajectory (function)"],
                    "altp2": [10000, "ft", "Transtion pressure altitude from cas1 to cas2, typically 10000ft"],
                    "cas2": ["function", "kt", "Calibrated Air Speed above altp2 (function)"],
                    "ttc_req": [25, "min", "Maximum time to climb required in given conditions"]
                },
                "Economics": {
                    "irp": [10, "year", "Interest recovery period"],
                    "period": [15, "year", "Utilization period"],
                    "interest_rate": [4, "%", "Interest rate"],
                    "labor_cost": [120, "$/h", "Labor cost"],
                    "utilization": ["function", "int", "Number of flights per year (function)"],
                    "fuel_price": [2, "$/gal", "Fuel price"],
                    "energy_price": [0.1, "$/kWh", "Energy price"],
                    "battery_price": [20, "$/kg", "Battery price"]
                }
            }
        },
        "cruise_disa": [0, "degK", "Temperature shift versus ISA in cruise for design"],
        "cost_range": [200, "NM", "Reference range for cost evaluation"],
        "max_fuel_range_factor": [1.25, "no_dim", "Ratio max_fuel_range over design range in MDO_plus mode"],
        "max_body_aspect_ratio": [13.3617, "no_dim", "Maximum ratio of fuselage length over fuselage height"],
        "take_off": {
            "disa": [15, "degK", "Temperature shift versus ISA conditions"],
            "altp": [0, "ft", "Target pressure altitude"],
            "kmtow": [1, "no_dim", "Ratio of MTOW defining the aircraft weight"],
            "kvs1g": [1.13, "no_dim", "Applicable ratio of stalling speed at 1g"],
            "s2_min_path": [2.4, "%", "Minimum trajectory slope at 35ft for take off"],
            "tofl_req": [2000, "m", "Maximum take off field length required in given conditions"]
        },
        "approach": {
            "disa": [0, "degK", "Temperature shift versus ISA conditions"],
            "altp": [0, "ft", "Target pressure altitude"],
            "kmlw": [1, "no_dim", "Ratio of MLW defining the aircraft weight"],
            "kvs1g": [1.23, "no_dim", "Applicable ratio of stalling speed at 1g"],
            "app_speed_req": [135, "kt", "Maximum approach speed required in given conditions"]
        },
        "oei_ceiling": {
            "disa": [15, "degK", "Temperature shift versus ISA conditions"],
            "altp": [14000, "ft", "Target pressure altitude"],
            "kmtow": [1, "no_dim", "Ratio of MTOW defining the aircraft weight"],
            "rating": ["MCN", "string", "Engine rating name ('MTO','MCN','MCL','MCR','FID'"],
            "speed_mode": ["cas", "string", "Constant CAS : 'cas' or constant Mach : 'mach'"],
            "path_req": [1.1, "%", "Minimum trajectory slope required in given conditions"]
        },
        "mcl_ceiling": {
            "disa": [15, "degK", "Temperature shift versus ISA conditions"],
            "altp": [35000, "ft", "Target pressure altitude"],
            "mach": [0.78, "mach", "Mach number"],
            "kmtow": [0.97, "no_dim", "Ratio of MTOW defining the aircraft weight"],
            "rating": ["MCL", "string", "Engine rating name ('MTO','MCN','MCL','MCR','FID'"],
            "speed_mode": ["cas", "string", "Constant CAS : 'cas' or constant Mach : 'mach'"],
            "vz_req": [300, "ft/min", "Minimum vertical speed required in given conditions"]
        },
        "mcr_ceiling": {
            "disa": [15, "degK", "Temperature shift versus ISA conditions"],
            "altp": [35000, "ft", "Target pressure altitude"],
            "mach": [0.78, "mach", "Mach number"],
            "kmtow": [0.97, "no_dim", "Ratio of MTOW defining the aircraft weight"],
            "rating": ["MCR", "string", "Engine rating name ('MTO','MCN','MCL','MCR','FID'"],
            "speed_mode": ["mach", "string", "Constant CAS : 'cas' or constant Mach : 'mach'"],
            "vz_req": [0, "ft/min", "Minimum vertical speed required in given conditions"]
        },
        "time_to_climb": {
            "disa": [15, "degK", "Temperature shift versus ISA conditions"],
            "altp": [35000, "ft", "Target pressure altitude"],
            "mach": [0.78, "mach", "Mach number"],
            "kmtow": [0.97, "no_dim", "Ratio of MTOW defining the aircraft weight"],
            "cas1": [180, "kt", "Calibrated Air Speed below altp1 during climb trajectory"],
            "altp1": [1500, "ft", "Starting pressure altitude for climb trajectory, typically 1500ft"],
            "cas2": [250, "kt", "Calibrated Air Speed above altp2"],
            "altp2": [10000, "ft", "Transtion pressure altitude from cas1 to cas2, typically 10000ft"],
            "ttc_req": [25, "min", "Maximum time to climb required in given conditions"]
        }
    },
    "airframe": {
        "engine_analysis_order": [["nacelle", "other_nacelle"], "string", "Gives the engine component list"],
        "mass_analysis_order": [["cabin", "body", "wing", "landing_gear", "cargo", "nacelle", "other_nacelle", "vertical_stab", "horizontal_stab", "tank", "system"], "string", "Gives the component order to perform the mass analysis"],
        "cabin": {
            "frame_origin": [[4.2416, 0, 0], "m", "Position of the reference point of the component in the assembly"],
            "mass": [3245.84, "kg", "Masse of the component"],
            "cg": [[18.4866, 0, 0], "m", "Position of the center of gravity of the component in the assembly"],
            "inertia_tensor": [[[null, null, null], [null, null, null], [null, null, null]], "kg.m2", "Inertia tensor of the component in its reference point"],
            "gross_wet_area": [0, "m2", "Gross wetted area of the component"],
            "net_wet_area": [0, "m2", "Net wetted area of the component"],
            "aero_length": [1, "m", "Characteristic length of the component for friction drag estimation"],
            "form_factor": [0, "no_dim", "Form factor of the conponent for form and friction drag estimation"],
            "n_pax_ref": [135, "int", "Reference number of passenger for design"],
            "n_pax_front": [6, "int", "Number of front seats in economy class"],
            "n_aisle": [1, "int", "Number of aisle in economy class"],
            "seat_width": [0.508, "m", "Seat width in economy class"],
            "seat_pitch": [0.8128, "m", "Seat pitch in economy class"],
            "aisle_width": [0.508, "m", "Aisle width in economy class"],
            "width": [3.656, "no_dim", "Tank front diameter for rear fuselage tank"],
            "length": [25.9, "m", "Length of the component"],
            "co2_metric_area": [null, "m2", "Refernce cabin area for Fuel Efficiency Metric estimation"],
            "m_pax_nominal": [105, "int", "Reference mass allowance per passenger for design"],
            "m_pax_max": [110, "int", "Maximum mass allowance per passenger for design"],
            "m_pax_cabin": [80, "int", "Reference mass allowance per passenger inside the cabin, passenger + hand luggage"],
            "m_furnishing": [2465.77, "kg", "Furnishing mass (seats, monuments, toilets, ...)"],
            "m_op_item": [780.062, "kg", "Operator items mass (crews, water, food, ...)"],
            "nominal_payload": [14175, "kg", "Reference payload for design"],
            "maximum_payload": [14850, "kg", "Maximum payload for design"],
            "cg_furnishing": [[18.4866, 0, 0], "m", "Position of the CG of furnishing in the assembly"],
            "cg_op_item": [[18.4866, 0, 0], "m", "Position of the CG of operator items in the assembly"],
            "pax_max_fwd_cg": [[13.2273, 0, 0], "m", "Maximum forward position of the passengers"],
            "pax_max_fwd_mass": [7493.89, "kg", "Mass corresponding to maximum forward position of the passengers"],
            "pax_max_bwd_cg": [[28.2982, 0, 0], "m", "Maximum backward position of the passengers"],
            "pax_max_bwd_mass": [5074.8, "kg", "Mass corresponding to maximum backward position of the passengers"],
            "projected_area": [89.956, "m2", "Cabin efficiency parameter ~ cabin length times fuselage width"]
        },
        "body": {
            "frame_origin": [[0, 0, 0], "m", "Position of the reference point of the component in the assembly"],
            "mass": [10274.9, "kg", "Masse of the component"],
            "cg": [[22.9548, 0, 1.61952], "m", "Position of the center of gravity of the component in the assembly"],
            "inertia_tensor": [[[null, null, null], [null, null, null], [null, null, null]], "kg.m2", "Inertia tensor of the component in its reference point"],
            "gross_wet_area": [489.779, "m2", "Gross wetted area of the component"],
            "net_wet_area": [489.779, "m2", "Net wetted area of the component"],
            "aero_length": [45.9097, "m", "Characteristic length of the component for friction drag estimation"],
            "form_factor": [1.05, "no_dim", "Form factor of the conponent for form and friction drag estimation"],
            "forward_ratio": [1.1, "no_dim", "Distance from fuselage nose to cabinwall over fuselage diameter"],
            "wall_thickness": [0.2, "m", "Fuselage wall total tchickness"],
            "rear_bulkhead_ratio": [1.5, "no_dim", "Distance from rear pressure bulkhead to fuselage end over fuselage diameter"],
            "nose_cone_ratio": [2, "no_dim", "Fuselage nose cone length over fuselage diameter"],
            "tail_cone_ratio": [3.45, "no_dim", "Fuselage tail cone length over fuselage diameter"],
            "section_type": ["ellipse", "string", "Type body section shape, 'elipse', 'square'"],
            "width": [3.856, "no_dim", "Tank front diameter for rear fuselage tank"],
            "height": [4.0488, "m", "Height of the component"],
            "length": [45.9097, "m", "Length of the component"],
            "aspect_ratio": [11.3391, "no_dim", "Aspect ratio of the lifting surface"],
            "nose_cone_length": [7.712, "m", "Length of the tapered forward part of the main body"],
            "tail_cone_length": [13.3032, "m", "Length of the tapered rear part of the main body"],
            "mass_correction_factor": [1, "no_dim", "Factor on all component mass except engines and systems"]
        },
        "wing": {
            "frame_origin": [[17.389, 0, 0], "m", "Position of the reference point of the component in the assembly"],
            "mass": [14273.3, "kg", "Masse of the component"],
            "cg": [[22.6725, 8.15597, 0.544877], "m", "Position of the center of gravity of the component in the assembly"],
            "inertia_tensor": [[[null, null, null], [null, null, null], [null, null, null]], "kg.m2", "Inertia tensor of the component in its reference point"],
            "gross_wet_area": [311.842, "m2", "Gross wetted area of the component"],
            "net_wet_area": [311.842, "m2", "Net wetted area of the component"],
            "aero_length": [4.79766, "m", "Characteristic length of the component for friction drag estimation"],
            "form_factor": [1.4, "no_dim", "Form factor of the conponent for form and friction drag estimation"],
            "wing_morphing": ["aspect_ratio_driven", "string", "Design of the wings : 'aspect_ratio_driven' or 'span_driven'"],
            "area": [183.5, "m2", "Geometric reference area of the lifting surface"],
            "span": [44.9277, "m", "Spanwise dimension of the lifting surface"],
            "aspect_ratio": [11, "no_dim", "Aspect ratio of the lifting surface"],
            "taper_ratio": [0.2, "no_dim", "Taper ratio of the lifting surface"],
            "dihedral": [5, "deg", "Dihedral angle of the lifting surface"],
            "sweep0": [null, "deg", "Leading edge sweep angle of the lifting surface"],
            "sweep25": [25.6685, "deg", "Sweep angle at 25% of the chords of the lifting surface"],
            "sweep100": [null, "deg", "Trailing edge sweep angle of the lifting surface"],
            "setting": [0.991012, "deg", "Setting angle of the lifting surface"],
            "hld_type": [9, "int", "Type of high lift devices (0,1,2,....,10)"],
            "front_spar_ratio": [0.15, "no_dim", "Relative chord position of front spar"],
            "rear_spar_ratio": [0.7, "no_dim", "Relative chord position of rear spar"],
            "x_root": [17.389, "m", "X wise position of the root chord of the wing"],
            "root_loc": [[17.389, 1.928, 0], "m", "Position of the root chord of the lifting surface"],
            "root_toc": [0.14, "no_dim", "Thickness to chord ratio of the root chord of the lifting surface"],
            "root_c": [7.1523, "m", "Root chord length of the lifting surface"],
            "kink_loc": [[19.4536, 5.784, 0.337356], "m", "Position of the kink chord of the lifting surface"],
            "kink_toc": [0.11, "no_dim", "Thickness to chord ratio of the kink chord of the lifting surface"],
            "kink_c": [5.08777, "m", "Kink chord length of the lifting surface"],
            "tip_loc": [[28.3841, 22.4639, 1.79666], "m", "Position of the tip chord of the lifting surface"],
            "tip_toc": [0.1, "no_dim", "Thickness to chord ratio of the tip chord of the lifting surface"],
            "tip_c": [1.43046, "m", "Tip chord length of the lifting surface"],
            "mac_loc": [[21.0137, 8.55299, null], "m", "Position of the mean aerodynamic chord of the lifting surface"],
            "mac": [4.79766, "m", "Mean aerodynamic chord length of the lifting surface"],
            "mass_correction_factor": [1, "no_dim", "Factor on all component mass except engines and systems"]
        },
        "cargo": {
            "frame_origin": [[4.2416, 0, 0], "m", "Position of the reference point of the component in the assembly"],
            "mass": [771.841, "kg", "Masse of the component"],
            "cg": [[15.7363, 0, 0], "m", "Position of the center of gravity of the component in the assembly"],
            "inertia_tensor": [[[null, null, null], [null, null, null], [null, null, null]], "kg.m2", "Inertia tensor of the component in its reference point"],
            "gross_wet_area": [0, "m2", "Gross wetted area of the component"],
            "net_wet_area": [0, "m2", "Net wetted area of the component"],
            "aero_length": [1, "m", "Characteristic length of the component for friction drag estimation"],
            "form_factor": [0, "no_dim", "Form factor of the conponent for form and friction drag estimation"],
            "container_pallet_mass": [771.841, "kg", "Container & pallet mass if any"],
            "freight_max_fwd_cg": [[13.2273, 0, 0], "m", "Maximum forward position of the freight"],
            "freight_max_fwd_mass": [3882.31, "kg", "Mass corresponding to maximum forward position of the freight"],
            "freight_max_bwd_cg": [[24.722, 0, 0], "m", "Maximum backward position of the freight"],
            "freight_max_bwd_mass": [1083.99, "kg", "Mass corresponding to maximum backward position of the freight"]
        },
        "vertical_stab": {
            "frame_origin": [[37.9394, 0, 4.0488], "m", "Position of the reference point of the component in the assembly"],
            "mass": [743.409, "kg", "Masse of the component"],
            "cg": [[41.3983, 0, 7.50565], "m", "Position of the center of gravity of the component in the assembly"],
            "inertia_tensor": [[[null, null, null], [null, null, null], [null, null, null]], "kg.m2", "Inertia tensor of the component in its reference point"],
            "gross_wet_area": [59.7701, "m2", "Gross wetted area of the component"],
            "net_wet_area": [59.7701, "m2", "Net wetted area of the component"],
            "aero_length": [4.4384, "m", "Characteristic length of the component for friction drag estimation"],
            "form_factor": [1.4, "no_dim", "Form factor of the conponent for form and friction drag estimation"],
            "area": [29.7364, "m2", "Geometric reference area of the lifting surface"],
            "height": [7.10998, "m", "Height of the component"],
            "aspect_ratio": [1.7, "no_dim", "Aspect ratio of the lifting surface"],
            "taper_ratio": [0.4, "no_dim", "Taper ratio of the lifting surface"],
            "toc": [0.1, "no_dim", "Thickness to chord ratio of the lifting surface"],
            "sweep25": [35.6685, "deg", "Sweep angle at 25% of the chords of the lifting surface"],
            "thrust_volume_factor": [0.4, "no_dim", "Volume coefficient of the vertical stabilizer according to engine failure"],
            "wing_volume_factor": [0.07, "no_dim", "Volume coefficient of the vertical stabilizer according to wing"],
            "anchor_ratio": [0.85, "no_dim", "Relative position of the reference point of the stabilization surface"],
            "lever_arm": [19.4071, "m", "Lever arm of the stabilization surface, 25%cma wing to 25% cma surface"],
            "root_loc": [[37.9394, 0, 4.0488], "m", "Position of the root chord of the lifting surface"],
            "root_c": [5.97477, "m", "Root chord length of the lifting surface"],
            "tip_loc": [[43.9388, 0, 11.1588], "m", "Position of the tip chord of the lifting surface"],
            "tip_c": [2.38991, "m", "Tip chord length of the lifting surface"],
            "mac_loc": [[40.5106, 0, 7.50565], "m", "Position of the mean aerodynamic chord of the lifting surface"],
            "mac": [4.4384, "m", "Mean aerodynamic chord length of the lifting surface"],
            "mass_correction_factor": [1, "no_dim", "Factor on all component mass except engines and systems"]
        },
        "horizontal_stab": {
            "frame_origin": [[40.0887, 0, 3.23904], "m", "Position of the reference point of the component in the assembly"],
            "mass": [880.216, "kg", "Masse of the component"],
            "cg": [[42.7443, 2.96847, 0.883334], "m", "Position of the center of gravity of the component in the assembly"],
            "inertia_tensor": [[[null, null, null], [null, null, null], [null, null, null]], "kg.m2", "Inertia tensor of the component in its reference point"],
            "gross_wet_area": [65.216, "m2", "Gross wetted area of the component"],
            "net_wet_area": [65.216, "m2", "Net wetted area of the component"],
            "aero_length": [3.04737, "m", "Characteristic length of the component for friction drag estimation"],
            "form_factor": [1.4, "no_dim", "Form factor of the conponent for form and friction drag estimation"],
            "area": [40.0098, "m2", "Geometric reference area of the lifting surface"],
            "span": [14.1439, "m", "Spanwise dimension of the lifting surface"],
            "aspect_ratio": [5, "no_dim", "Aspect ratio of the lifting surface"],
            "taper_ratio": [0.35, "no_dim", "Taper ratio of the lifting surface"],
            "toc": [0.1, "no_dim", "Thickness to chord ratio of the lifting surface"],
            "sweep25": [30.6685, "deg", "Sweep angle at 25% of the chords of the lifting surface"],
            "dihedral": [5, "deg", "Dihedral angle of the lifting surface"],
            "volume_factor": [0.94, "no_dim", "Volume coefficient of the horizontal stabilizer"],
            "lever_arm": [20.6836, "m", "Lever arm of the stabilization surface, 25%cma wing to 25% cma surface"],
            "axe_loc": [[40.0887, 0, 3.23904], "m", "Position of the central chord of the lifting surface"],
            "axe_c": [4.19078, "m", "Central chord length of the lifting surface"],
            "tip_loc": [[44.9634, 7.07194, 3.85775], "m", "Position of the tip chord of the lifting surface"],
            "tip_c": [1.46677, "m", "Tip chord length of the lifting surface"],
            "mac_loc": [[42.1349, 2.96847, 0.883334], "m", "Position of the mean aerodynamic chord of the lifting surface"],
            "mac": [3.04737, "m", "Mean aerodynamic chord length of the lifting surface"],
            "mass_correction_factor": [1, "no_dim", "Factor on all component mass except engines and systems"]
        },
        "tank": {
            "frame_origin": [[22.6224, 0, 2.3136], "m", "Position of the reference point of the component in the assembly"],
            "mass": [26931.3, "kg", "Masse of the component"],
            "cg": [24.1038, "m", "Position of the center of gravity of the component in the assembly"],
            "inertia_tensor": [[[null, null, null], [null, null, null], [null, null, null]], "kg.m2", "Inertia tensor of the component in its reference point"],
            "gross_wet_area": [0, "m2", "Gross wetted area of the component"],
            "net_wet_area": [0, "m2", "Net wetted area of the component"],
            "aero_length": [1, "m", "Characteristic length of the component for friction drag estimation"],
            "form_factor": [0, "no_dim", "Form factor of the conponent for form and friction drag estimation"],
            "mfw_factor": [0.665605, "no_dim", "Driver of MFW in MDA_plus mode"],
            "gravimetric_index": [0.1, "no_dim", "Tank gravimetric index, kg-LH2 / kg-LH2+Tank"],
            "volumetric_index": [0.606, "no_dim", "Tank volumetric index, m3-LH2 / m3-LH2+Tank"],
            "ref_length": [15, "m", "Reference length of the component"],
            "length": [9.98407, "m", "Length of the component"],
            "width_rear_factor": [0.75, "no_dim", "Diameter of the rear pressure bulkhead over fuselage diameter"],
            "width_rear": [2.592, "m", "Tank rear diameter for rear fuselage tank"],
            "width": [3.456, "no_dim", "Tank front diameter for rear fuselage tank"],
            "fuel_pressure": [10, "bar", "Maximum over pressure of the fuel in the tank"],
            "fuel_density": [70.8, "kg/m3", "Density of the used storage medium"],
            "cylindric_gross_volume": null,
            "cone_gross_volume": null,
            "gross_volume": [69.7443, "m3", "Gross volume of the component"],
            "cylindric_volume": [12.6109, "m3", "Rear tank fuel volume in the cylindrical part"],
            "cone_volume": [29.6541, "m3", "Rear tank fuel volume in the conic part"],
            "shell_specific_volume": [27.4792, "m3", "Tank insulation volume"],
            "shell_specific_mass": [26931.3, "kg", "Tank insulation mass"],
            "max_volume": [42.265, "m3", "Total available volume for fuel"],
            "mfw_volume_limited": [2992.36, "kg", "Maximum fuel mass according to available volume"],
            "fuel_max_fwd_cg": [24.1038, "m", "Maximum forward position of the fuel"],
            "fuel_max_fwd_mass": [2992.36, "kg", "Fuel mass corresponding to mximum forward position"],
            "fuel_max_bwd_cg": [24.1038, "m", "Maximum backward position of the fuel"],
            "fuel_max_bwd_mass": [2992.36, "kg", "Fuel mass corresponding to mximum backward position"],
            "gross_cylindric_volume": [20.8101, "m3", "Available volume for tank in the rear fuselage cylindrical part"],
            "gross_cone_volume": [48.9341, "m3", "Available volume for tank in the rear fuselage conic part"]
        },
        "tank_analysis_order": [["tank"], "string", "Gives the tank component list"],
        "landing_gear": {
            "frame_origin": [23.4685, "m", "Position of the reference point of the component in the assembly"],
            "mass": [3040.11, "kg", "Masse of the component"],
            "cg": [23.4685, "m", "Position of the center of gravity of the component in the assembly"],
            "inertia_tensor": [[[null, null, null], [null, null, null], [null, null, null]], "kg.m2", "Inertia tensor of the component in its reference point"],
            "gross_wet_area": [0, "m2", "Gross wetted area of the component"],
            "net_wet_area": [0, "m2", "Net wetted area of the component"],
            "aero_length": [1, "m", "Characteristic length of the component for friction drag estimation"],
            "form_factor": [0, "no_dim", "Form factor of the conponent for form and friction drag estimation"],
            "mass_correction_factor": [1, "no_dim", "Factor on all component mass except engines and systems"]
        },
        "system": {
            "frame_origin": [[0, 0, 0], "m", "Position of the reference point of the component in the assembly"],
            "mass": [5089.92, "kg", "Masse of the component"],
            "cg": [[24.5754, 4.82473, 3.61772], "m", "Position of the center of gravity of the component in the assembly"],
            "inertia_tensor": [[[null, null, null], [null, null, null], [null, null, null]], "kg.m2", "Inertia tensor of the component in its reference point"],
            "gross_wet_area": [0, "m2", "Gross wetted area of the component"],
            "net_wet_area": [0, "m2", "Net wetted area of the component"],
            "aero_length": [1, "m", "Characteristic length of the component for friction drag estimation"],
            "form_factor": [0, "no_dim", "Form factor of the conponent for form and friction drag estimation"]
        },
        "nacelle": {
            "frame_origin": [[17.6441, 6.98263, -0.673082], "m", "Position of the reference point of the component in the assembly"],
            "mass": [4875.93, "kg", "Masse of the component"],
            "cg": [[20.0953, 6.98263, -0.673082], "m", "Position of the center of gravity of the component in the assembly"],
            "inertia_tensor": [[[null, null, null], [null, null, null], [null, null, null]], "kg.m2", "Inertia tensor of the component in its reference point"],
            "gross_wet_area": [25.6823, "m2", "Gross wetted area of the component"],
            "net_wet_area": [25.6823, "m2", "Net wetted area of the component"],
            "aero_length": [3.50177, "m", "Characteristic length of the component for friction drag estimation"],
            "form_factor": [1.15, "no_dim", "Form factor of the conponent for form and friction drag estimation"],
            "eis_date": [6.37464e+10, "int", "Entry into service date"],
            "rating_factor": {
                "MTO": [1, "no_dim", "Max Takeoff rating factor"],
                "MCN": [0.9, "no_dim", "Maxi Continuous rating factor"],
                "MCL": [0.85, "no_dim", "Max Climb rating factor"],
                "MCR": [0.57, "no_dim", "Max Cruise rating factor"],
                "FID": [0.05, "no_dim", "Flight idle rating factor"]
            },
            "reference_offtake": [0, "kW", "Refrence power offtake for design"],
            "engine_bpr": [9, "no_dim", "Reference By Pass Ratio of the engine"],
            "engine_opr": [50, "no_dim", "Reference Overall Pressure Ratio of the engine"],
            "engine_fpr": [1.5, "no_dim", "Reference Fan Pressure Ratio of the engine"],
            "core_thrust_ratio": [0.13, "no_dim", "Reference ratio of the total thrust delivered by the core"],
            "propeller_efficiency": [0.82, "no_dim", "Propeller like fan efficiency Thrust.Speed/shaft_power"],
            "fan_efficiency": [0.9, "no_dim", "Fan efficiency, Kinetic power delivered to the air flow devided by shaft power"],
            "lateral_margin": [1, "no_dim", "Lateral margin as a fraction of nacelle width"],
            "vertical_margin": [1, "no_dim", "vertical margin as a fraction of nacelle width"],
            "hub_width": [0.4, "m", "Fan hub diameter"],
            "fan_width": [2.03451, "m", "Fan diameter"],
            "nozzle_width": [1.59356, "m", "Nozzle diameter"],
            "nozzle_area": [1.86879, "m2", "Nozzle area"],
            "sea_level_static_thrust": [12503.2, "daN", "Engine max thrust at sea level zero speed"],
            "width": [2.33451, "no_dim", "Tank front diameter for rear fuselage tank"],
            "length": [3.50177, "m", "Length of the component"],
            "propeller_mass": [0, "kg", "Propeller mass if any"],
            "engine_mass": [4375.8, "kg", "Engine mass"],
            "pylon_mass": [500.128, "kg", "Pylon mass if any"],
            "airplane_side": ["right", "string", "mounting side of the component, 'right' or 'left'"],
            "nacelle_wing_chord": [4.82495, "m", "Wing chord at nacelle Y wise position, wing engine only"],
            "nacelle_wing_chord_loc": [[20.0953, 6.98263, 0.442223], "m", "Wing chord position at nacelle Y wise position, wing engine only"]
        },
        "other_nacelle": {
            "frame_origin": [[17.6441, -6.98263, -0.673082], "m", "Position of the reference point of the component in the assembly"],
            "mass": [4875.93, "kg", "Masse of the component"],
            "cg": [[20.0953, -6.98263, -0.673082], "m", "Position of the center of gravity of the component in the assembly"],
            "inertia_tensor": [[[null, null, null], [null, null, null], [null, null, null]], "kg.m2", "Inertia tensor of the component in its reference point"],
            "gross_wet_area": [25.6823, "m2", "Gross wetted area of the component"],
            "net_wet_area": [25.6823, "m2", "Net wetted area of the component"],
            "aero_length": [3.50177, "m", "Characteristic length of the component for friction drag estimation"],
            "form_factor": [1.15, "no_dim", "Form factor of the conponent for form and friction drag estimation"],
            "eis_date": [6.37464e+10, "int", "Entry into service date"],
            "rating_factor": {
                "MTO": [1, "no_dim", "Max Takeoff rating factor"],
                "MCN": [0.9, "no_dim", "Maxi Continuous rating factor"],
                "MCL": [0.85, "no_dim", "Max Climb rating factor"],
                "MCR": [0.57, "no_dim", "Max Cruise rating factor"],
                "FID": [0.05, "no_dim", "Flight idle rating factor"]
            },
            "reference_offtake": [0, "kW", "Refrence power offtake for design"],
            "engine_bpr": [9, "no_dim", "Reference By Pass Ratio of the engine"],
            "engine_opr": [50, "no_dim", "Reference Overall Pressure Ratio of the engine"],
            "engine_fpr": [1.5, "no_dim", "Reference Fan Pressure Ratio of the engine"],
            "core_thrust_ratio": [0.13, "no_dim", "Reference ratio of the total thrust delivered by the core"],
            "propeller_efficiency": [0.82, "no_dim", "Propeller like fan efficiency Thrust.Speed/shaft_power"],
            "fan_efficiency": [0.9, "no_dim", "Fan efficiency, Kinetic power delivered to the air flow devided by shaft power"],
            "lateral_margin": [1, "no_dim", "Lateral margin as a fraction of nacelle width"],
            "vertical_margin": [1, "no_dim", "vertical margin as a fraction of nacelle width"],
            "hub_width": [0.4, "m", "Fan hub diameter"],
            "fan_width": [2.03451, "m", "Fan diameter"],
            "nozzle_width": [1.59356, "m", "Nozzle diameter"],
            "nozzle_area": [1.86879, "m2", "Nozzle area"],
            "sea_level_static_thrust": [12503.2, "daN", "Engine max thrust at sea level zero speed"],
            "width": [2.33451, "no_dim", "Tank front diameter for rear fuselage tank"],
            "length": [3.50177, "m", "Length of the component"],
            "propeller_mass": [0, "kg", "Propeller mass if any"],
            "engine_mass": [4375.8, "kg", "Engine mass"],
            "pylon_mass": [500.128, "kg", "Pylon mass if any"],
            "airplane_side": ["left", "string", "mounting side of the component, 'right' or 'left'"],
            "nacelle_wing_chord": [4.82495, "m", "Wing chord at nacelle Y wise position, wing engine only"],
            "nacelle_wing_chord_loc": [[20.0953, 6.98263, 0.442223], "m", "Wing chord position at nacelle Y wise position, wing engine only"]
        }
    },
    "power_system": {
        "data": {
            "MTO": {
                "disa": [null, "degK", "Temperature shift versus ISA conditions"],
                "altp": [null, "ft", "Target pressure altitude"],
                "mach": [null, "mach", "Mach number"],
                "nei": [1, "int", "Number of engine inoperative, typically 0 or 1"],
                "kfn_opt": [null, "no_dim", "Ratio required thrust over effective engine thrust"],
                "thrust_opt": [null, "daN", "Required engine thrust"],
                "thrust": [null, "daN", "Engine thrust"],
                "fuel_flow": [null, "kg/s", "Fuel flow"],
                "tsfc": [null, "kg/daN/h", "Specific Fuel Consumption versus thrust"],
                "T41": [null, "Kelvin", "Temperature just after combustion chamber (turbine entry)"]
            },
            "MCN": {
                "disa": [null, "degK", "Temperature shift versus ISA conditions"],
                "altp": [null, "ft", "Target pressure altitude"],
                "mach": [null, "mach", "Mach number"],
                "nei": [1, "int", "Number of engine inoperative, typically 0 or 1"],
                "kfn_opt": [null, "no_dim", "Ratio required thrust over effective engine thrust"],
                "thrust_opt": [null, "daN", "Required engine thrust"],
                "thrust": [null, "daN", "Engine thrust"],
                "fuel_flow": [null, "kg/s", "Fuel flow"],
                "tsfc": [null, "kg/daN/h", "Specific Fuel Consumption versus thrust"],
                "T41": [null, "Kelvin", "Temperature just after combustion chamber (turbine entry)"]
            },
            "MCL": {
                "disa": [null, "degK", "Temperature shift versus ISA conditions"],
                "altp": [null, "ft", "Target pressure altitude"],
                "mach": [null, "mach", "Mach number"],
                "nei": [0, "int", "Number of engine inoperative, typically 0 or 1"],
                "kfn_opt": [null, "no_dim", "Ratio required thrust over effective engine thrust"],
                "thrust_opt": [null, "daN", "Required engine thrust"],
                "thrust": [null, "daN", "Engine thrust"],
                "fuel_flow": [null, "kg/s", "Fuel flow"],
                "tsfc": [null, "kg/daN/h", "Specific Fuel Consumption versus thrust"],
                "T41": [null, "Kelvin", "Temperature just after combustion chamber (turbine entry)"]
            },
            "MCR": {
                "disa": [null, "degK", "Temperature shift versus ISA conditions"],
                "altp": [null, "ft", "Target pressure altitude"],
                "mach": [null, "mach", "Mach number"],
                "nei": [0, "int", "Number of engine inoperative, typically 0 or 1"],
                "kfn_opt": [null, "no_dim", "Ratio required thrust over effective engine thrust"],
                "thrust_opt": [null, "daN", "Required engine thrust"],
                "thrust": [null, "daN", "Engine thrust"],
                "fuel_flow": [null, "kg/s", "Fuel flow"],
                "tsfc": [null, "kg/daN/h", "Specific Fuel Consumption versus thrust"],
                "T41": [null, "Kelvin", "Temperature just after combustion chamber (turbine entry)"]
            }
        },
        "sfc_correction": [1, "no_dim", "Factor on tsfc or psfc"],
        "n_engine": [2, "int", "Numeric number of engine"],
        "reference_thrust": [13980, "daN", "Engine reference thrust, thrust(sea level, ISA+15, Mach 0.25)/0.8"],
        "sfc_type": ["thrust", "string", "Type of Specific Fuel Consumption, 'thrust' or 'power'"]
    },
    "aerodynamics": {
        "kcx_correction": [1, "no_dim", "Factor on airplane total drag coefficient"],
        "dcx_correction": [0, "no_dim", "Additive correction on airplane total drag coefficient"],
        "cruise_lodmax": [21.0235, "no_dim", "Maximum lift over Drag ratio in cruise"],
        "cz_cruise_lodmax": [0.677822, "no_dim", "Lift coefficient for maximum lift over Drag ratio in cruise"],
        "hld_conf_clean": [0, "no_dim", "Deflection parameter corresponding to high lift devices retracted, typically 0"],
        "czmax_conf_clean": [1.25413, "no_dim", "Maximum lift coefficient with high lift devices retracted"],
        "hld_conf_to": [0.3, "no_dim", "Deflection parameter corresponding to high lift devices in take off configuration"],
        "czmax_conf_to": [1.96336, "no_dim", "Maximum lift coefficient with high lift devices in take off configuration"],
        "hld_conf_ld": [1, "no_dim", "Deflection parameter corresponding to high lift devices in landing configuration, typically 1"],
        "czmax_conf_ld": [2.50826, "no_dim", "Maximum lift coefficient with high lift devices in landing configuration"]
    },
    "weight_cg": {
        "mtow": [91810.7, "kg", "Maximum Take Off Weight"],
        "mzfw": [89852.7, "kg", "Maximum Zero Fuel Weight"],
        "mlw": [91649.8, "kg", "Maximum Landing Weight"],
        "owe": [75002.7, "kg", "Operational Weight Empty"],
        "mwe": [73450.8, "kg", "Manufacturer Weight Empty"],
        "mfw": [2992.36, "kg", "Maximum Fuel Weight"],
        "breakdown": {
            "owe": [75002.7, "kg", "Operational Weight Empty"],
            "op_item_mass": [780.062, "kg", "Operator items mass (crews, water, food, ...)"],
            "container_pallet_mass": [771.841, "kg", "Container & pallet mass if any"],
            "mwe": [73450.8, "kg", "Manufacturer Weight Empty"],
            "furnishing_mass": [2465.77, "kg", "Furnishing mass (seats, monuments, toilets, ...)"],
            "wing_mass": [14273.3, "kg", "Wing mass"],
            "body_mass": [10274.9, "kg", "Main body mass"],
            "htp_mass": [880.216, "kg", "Horizontal stabilizer mass"],
            "vtp_mass": [743.409, "kg", "Vertical stabilizer mass"],
            "tank_mass": [26931.3, "kg", "Tank mass"],
            "ldg_mass": [3040.11, "kg", "Landing gear mass"],
            "system_mass": [5089.92, "kg", "System mass"],
            "propeller_mass": [0, "kg", "Propeller mass if any"],
            "engine_mass": [8751.6, "kg", "Engine mass"],
            "pylon_mass": [1000.26, "kg", "Pylon mass if any"]
        },
        "owe_cg": [[23.2201, 11.5206, 10.1745], "m", "Center of gravity at Operational Weight Empty"]
    },
    "handling_quality": {
        "static_stab_margin": [0.05, "no_dim", "Minimal static margin in CMA ratio"],
        "forward_cg_mass": [89371.3, "kg", "Total mass corresponding to required max forward CG"],
        "forward_cg_req": [[21.9777, 10.4754, 9.34579], "m", "Required max forward CG position"],
        "forward_cg_stall": [21.0236, "m", "Allowable max forward CG position according to stall demonstration"],
        "backward_cg_mass": [84153.9, "kg", "Total mass corresponding to required max backward CG"],
        "backward_cg_req": [[23.5771, 11.1249, 9.92521], "m", "Required max backward CG position"],
        "backward_cg_stab": [24.5995, "m", "Allowable max backward CG position according to static stability"],
        "backward_cg_oei_trim": [33.9565, "m", "Allowable max backward CG position according to oei lateral trim demonstration"],
        "backward_cg_oei_mass": [83319.8, "kg", "Total mass corresponding to oei lateral trim demonstration"]
    },
    "performance": {
        "mission": {
            "max_payload": {
                "disa": [0, "degK", "Temperature shift versus ISA conditions"],
                "altp": [35000, "ft", "Target pressure altitude"],
                "mach": [0.78, "mach", "Mach number"],
                "range": [319.762, "NM", "Mission range"],
                "tow": [91810.7, "kg", "Mission take off weight"],
                "payload": [14850, "kg", "Mission payload"],
                "time_block": [1.11195, "h", "Mission block time"],
                "fuel_block": [838.949, "kg", "Mission block fuel"],
                "fuel_reserve": [1119.07, "kg", "Mission reserve fuel"],
                "fuel_total": [1958.02, "kg", "Mission total fuel"],
                "holding_time": [30, "min", "Holding duration for reserve fuel evaluation"],
                "reserve_fuel_ratio": [0.05, "no_dim", "Fraction of mission fuel for reserve fuel evaluation"],
                "diversion_range": [200, "NM", "Range of diversion mission for reserve fuel evaluation"]
            },
            "nominal": {
                "disa": [0, "degK", "Temperature shift versus ISA conditions"],
                "altp": [35000, "ft", "Target pressure altitude"],
                "mach": [0.78, "mach", "Mach number"],
                "range": [600, "NM", "Mission range"],
                "tow": [91810.7, "kg", "Mission take off weight"],
                "payload": [14175, "kg", "Mission payload"],
                "time_block": [1.79134, "h", "Mission block time"],
                "fuel_block": [1485.09, "kg", "Mission block fuel"],
                "fuel_reserve": [1147.93, "kg", "Mission reserve fuel"],
                "fuel_total": [2633.02, "kg", "Mission total fuel"],
                "holding_time": [30, "min", "Holding duration for reserve fuel evaluation"],
                "reserve_fuel_ratio": [0.05, "no_dim", "Fraction of mission fuel for reserve fuel evaluation"],
                "diversion_range": [200, "NM", "Range of diversion mission for reserve fuel evaluation"]
            },
            "max_fuel": {
                "disa": [0, "degK", "Temperature shift versus ISA conditions"],
                "altp": [35000, "ft", "Target pressure altitude"],
                "mach": [0.78, "mach", "Mach number"],
                "range": [750, "NM", "Mission range"],
                "tow": [91810.7, "kg", "Mission take off weight"],
                "payload": [13815.7, "kg", "Mission payload"],
                "time_block": [2.15499, "h", "Mission block time"],
                "fuel_block": [1829.05, "kg", "Mission block fuel"],
                "fuel_reserve": [1163.31, "kg", "Mission reserve fuel"],
                "fuel_total": [2992.36, "kg", "Mission total fuel"],
                "holding_time": [30, "min", "Holding duration for reserve fuel evaluation"],
                "reserve_fuel_ratio": [0.05, "no_dim", "Fraction of mission fuel for reserve fuel evaluation"],
                "diversion_range": [200, "NM", "Range of diversion mission for reserve fuel evaluation"]
            },
            "zero_payload": {
                "disa": [0, "degK", "Temperature shift versus ISA conditions"],
                "altp": [35000, "ft", "Target pressure altitude"],
                "mach": [0.78, "mach", "Mach number"],
                "range": [850.378, "NM", "Mission range"],
                "tow": [77995.1, "kg", "Mission take off weight"],
                "payload": [0, "kg", "Mission payload"],
                "time_block": [2.39532, "h", "Mission block time"],
                "fuel_block": [1893.01, "kg", "Mission block fuel"],
                "fuel_reserve": [1099.35, "kg", "Mission reserve fuel"],
                "fuel_total": [2992.36, "kg", "Mission total fuel"],
                "holding_time": [30, "min", "Holding duration for reserve fuel evaluation"],
                "reserve_fuel_ratio": [0.05, "no_dim", "Fraction of mission fuel for reserve fuel evaluation"],
                "diversion_range": [200, "NM", "Range of diversion mission for reserve fuel evaluation"]
            },
            "cost": {
                "disa": [0, "degK", "Temperature shift versus ISA conditions"],
                "altp": [35000, "ft", "Target pressure altitude"],
                "mach": [0.78, "mach", "Mach number"],
                "range": [200, "NM", "Mission range"],
                "tow": [90837.4, "kg", "Mission take off weight"],
                "payload": [14175, "kg", "Mission payload"],
                "time_block": [0.821389, "h", "Mission block time"],
                "fuel_block": [558.336, "kg", "Mission block fuel"],
                "fuel_reserve": [1101.35, "kg", "Mission reserve fuel"],
                "fuel_total": [1659.69, "kg", "Mission total fuel"],
                "holding_time": [30, "min", "Holding duration for reserve fuel evaluation"],
                "reserve_fuel_ratio": [0.05, "no_dim", "Fraction of mission fuel for reserve fuel evaluation"],
                "diversion_range": [200, "NM", "Range of diversion mission for reserve fuel evaluation"]
            },
            "toy": {
                "disa": [0, "degK", "Temperature shift versus ISA conditions"],
                "altp": [35000, "ft", "Target pressure altitude"],
                "mach": [0.78, "mach", "Mach number"],
                "range": [40, "NM", "Mission range"],
                "tow": [83319.8, "kg", "Mission take off weight"],
                "payload": [7087.5, "kg", "Mission payload"],
                "time_block": [0.431851, "h", "Mission block time"],
                "fuel_block": [183.249, "kg", "Mission block fuel"],
                "fuel_reserve": [1046.38, "kg", "Mission reserve fuel"],
                "fuel_total": [1229.62, "kg", "Mission total fuel"],
                "holding_time": [30, "min", "Holding duration for reserve fuel evaluation"],
                "reserve_fuel_ratio": [0.05, "no_dim", "Fraction of mission fuel for reserve fuel evaluation"],
                "diversion_range": [200, "NM", "Range of diversion mission for reserve fuel evaluation"]
            },
            "disa": [0, "degK", "Temperature shift versus ISA conditions"],
            "altp": [35000, "ft", "Target pressure altitude"],
            "mach": [0.78, "mach", "Mach number"],
            "mass": [82629.7, "kg", "Masse of the component"],
            "ktow": [0.9, "no_dim", "Ratio of TOW defining the aircraft weight for mission breguet range"],
            "crz_tas": [449.607, "kt", "Cruise true air speed"],
            "crz_sar": [0.476292, "NM/kg", "Cruise specific air range related to fuel"],
            "crz_cz": [0.434896, "no_dim", "Cruise lift coefficient"],
            "crz_wing_aoa": [3.40956, "deg", "Cruise wing angle of attack, pitch angle as well"],
            "crz_fuselage_aoa": [2.41855, "deg", "Cruise fuselage angle of attack, pitch angle as well"],
            "crz_lod": [18.8943, "no_dim", "Cruise lift to drag ratio"],
            "crz_thrust": [42.887, "kN", "Total cruise thrust"],
            "crz_throttle": [0.751474, "no_dim", "Cruise throttle versus MCR"],
            "crz_propulsive_power": [9.91966, "MW", "Total cruise propulsive power, total_thrust * true_air_speed"],
            "crz_tsfc": [0.220107, "kg/daN/h", "Cruise specific fuel consumption versus thrust"],
            "max_sar_altp": [41424.7, "ft", "Altitude of specific air range"],
            "max_sar": [0.498175, "NM/kg", "Maximum specific air range"],
            "max_sar_cz": [0.592081, "no_dim", "Lift coefficient for maximum specific air range"],
            "max_sar_lod": [20.3395, "no_dim", "Lift to drag ratio for maximum specific air range"],
            "max_sar_thrust": [39.8397, "kN", "Total thrust for maximum specific air range"],
            "max_sar_throttle": [0.894377, "no_dim", "Throttle versus MCR for maximum specific air range"],
            "max_sar_tsfc": [0.225414, "kg/daN/h", "Specific fuel consumption versus thrust for maximum specific air range"],
            "max_sar_tas": [447.384, "kt", "True air speed at specific air range"]
        },
        "take_off": {
            "disa": [15, "degK", "Temperature shift versus ISA conditions"],
            "altp": [0, "ft", "Target pressure altitude"],
            "kmtow": [1, "no_dim", "Ratio of MTOW defining the aircraft weight"],
            "kvs1g": [1.13, "no_dim", "Applicable ratio of stalling speed at 1g"],
            "s2_min_path": [2.4, "%", "Minimum trajectory slope at 35ft for take off"],
            "tofl_req": [2000, "m", "Maximum take off field length required in given conditions"],
            "tofl_eff": [2000.26, "m", "Effective take off field length in given conditions"],
            "hld_conf": [0.3, "no_dim", "Current deflection parameter corresponding to high lift devices configuration"],
            "kvs1g_eff": [1.13, "no_dim", "Effective ratio of stalling speed at 1g"],
            "v2": [140.304, "kt", "Airplane speed in CAS at 35ft during take off"],
            "mach2": [0.21211, "mach", "Airplane speed in Mach number at 35ft during take off"],
            "s2_path": [4.45697, "%", "Airplane trajectory slope at 35ft during take off"],
            "limit": ["fl", "string", "Active limit during take off, can be 'fl':field length, 's2':second segment path"],
            "aoa_wing": [15.6338, "deg", "Wing angle of attack"]
        },
        "approach": {
            "disa": [0, "degK", "Temperature shift versus ISA conditions"],
            "altp": [0, "ft", "Target pressure altitude"],
            "kmlw": [1, "no_dim", "Ratio of MLW defining the aircraft weight"],
            "kvs1g": [1.23, "no_dim", "Applicable ratio of stalling speed at 1g"],
            "app_speed_req": [135, "kt", "Maximum approach speed required in given conditions"],
            "app_speed_eff": [134.999, "kt", "Effective approach speed in given conditions"],
            "hld_conf": [1, "no_dim", "Current deflection parameter corresponding to high lift devices configuration"],
            "aoa_wing": [16.8769, "deg", "Wing angle of attack"]
        },
        "mcr_ceiling": {
            "disa": [15, "degK", "Temperature shift versus ISA conditions"],
            "altp": [35000, "ft", "Target pressure altitude"],
            "mach": [0.78, "mach", "Mach number"],
            "kmtow": [0.97, "no_dim", "Ratio of MTOW defining the aircraft weight"],
            "rating": ["MCR", "string", "Engine rating name ('MTO','MCN','MCL','MCR','FID'"],
            "speed_mode": ["mach", "string", "Constant CAS : 'cas' or constant Mach : 'mach'"],
            "vz_req": [0, "ft/min", "Minimum vertical speed required in given conditions"],
            "vz_eff": [466.631, "ft/min", "Effective vertical speed in given conditions"],
            "aoa_wing": [3.67475, "deg", "Wing angle of attack"]
        },
        "mcl_ceiling": {
            "disa": [15, "degK", "Temperature shift versus ISA conditions"],
            "altp": [35000, "ft", "Target pressure altitude"],
            "mach": [0.78, "mach", "Mach number"],
            "kmtow": [0.97, "no_dim", "Ratio of MTOW defining the aircraft weight"],
            "rating": ["MCL", "string", "Engine rating name ('MTO','MCN','MCL','MCR','FID'"],
            "speed_mode": ["cas", "string", "Constant CAS : 'cas' or constant Mach : 'mach'"],
            "vz_req": [300, "ft/min", "Minimum vertical speed required in given conditions"],
            "vz_eff": [1285.42, "ft/min", "Effective vertical speed in given conditions"],
            "aoa_wing": [3.67475, "deg", "Wing angle of attack"]
        },
        "oei_ceiling": {
            "disa": [15, "degK", "Temperature shift versus ISA conditions"],
            "altp": [14000, "ft", "Target pressure altitude"],
            "kmtow": [1, "no_dim", "Ratio of MTOW defining the aircraft weight"],
            "rating": ["MCN", "string", "Engine rating name ('MTO','MCN','MCL','MCR','FID'"],
            "speed_mode": ["cas", "string", "Constant CAS : 'cas' or constant Mach : 'mach'"],
            "path_req": [1.1, "%", "Minimum trajectory slope required in given conditions"],
            "path_eff": [2.3555, "%", "Effective trajectory slope in given conditions"],
            "mach_opt": [0.393995, "mach", "Optimal Mach number according to requirement"],
            "aoa_wing": [7.40658, "deg", "Wing angle of attack"]
        },
        "time_to_climb": {
            "disa": [15, "degK", "Temperature shift versus ISA conditions"],
            "altp": [35000, "ft", "Target pressure altitude"],
            "mach": [0.78, "mach", "Mach number"],
            "kmtow": [null, "no_dim", "Ratio of MTOW defining the aircraft weight"],
            "cas1": [180, "kt", "Calibrated Air Speed below altp1 during climb trajectory"],
            "altp1": [1500, "ft", "Starting pressure altitude for climb trajectory, typically 1500ft"],
            "cas2": [250, "kt", "Calibrated Air Speed above altp2"],
            "altp2": [10000, "ft", "Transtion pressure altitude from cas1 to cas2, typically 10000ft"],
            "ttc_req": [25, "min", "Maximum time to climb required in given conditions"],
            "ttc_eff": [16.3004, "min", "Effective time to climb in given conditions"]
        }
    },
    "economics": {
        "irp": [10, "year", "Interest recovery period"],
        "period": [15, "year", "Utilization period"],
        "interest_rate": [4, "%", "Interest rate"],
        "labor_cost": [120, "$/h", "Labor cost"],
        "utilization": [2300, "int", "Number of flights per year"],
        "fuel_price": [2, "$/gal", "Fuel price"],
        "energy_price": [0.1, "$/kWh", "Energy price"],
        "battery_price": [20, "$/kg", "Battery price"],
        "engine_price": [15.1568, "M$", "Price of one engine"],
        "gear_price": [2.18888, "M$", "Price of landing gears"],
        "frame_price": [100.215, "M$", "Price of the airframe"],
        "frame_cost": [731.838, "$/trip", "Airframe maintenance cost"],
        "engine_cost": [258.986, "$/trip", "Engine maintenance cost"],
        "cockpit_crew_cost": [642.583, "$/trip", "Cockpit crew cost"],
        "cabin_crew_cost": [295.7, "$/trip", "Cabin crew cost"],
        "landing_fees": [795.081, "$/trip", "Landing fees"],
        "navigation_fees": [154.478, "$/trip", "Navigation fees"],
        "catering_cost": [414.45, "$/trip", "Catering cost"],
        "pax_handling_cost": [270, "$/trip", "Passenger handling cost"],
        "ramp_handling_cost": [1174.5, "$/trip", "Ramp handling cost"],
        "std_op_cost": [2587.13, "$/trip", "Standard operating cost"],
        "cash_op_cost": [4741.78, "$/trip", "Cash operating cost"],
        "direct_op_cost": [9810.55, "$/trip", "Direct operating cost"],
        "fuel_cost": [4.16659, "$/trip", "Fuel cost"],
        "aircraft_price": [132.718, "M$", "Aircraft price"],
        "total_investment": [137.299, "M$", "Total investmenent"],
        "interest": [926.908, "$/trip", "Interest"],
        "insurance": [201.961, "$/trip", "Insurance"],
        "depreciation": [3939.9, "$/trip", "Depreciation"]
    },
    "environment": {
        "CO2_metric": [NaN, "kg/km/m0.48", "Fuel efficiency metric"],
        "CO2_index": [0, "g/kg", "Mass of carbon dioxide emitted per kg of fuel"],
        "H2O_index": [18, "g/kg", "Mass of water emitted per kg of fuel"],
        "SO2_index": [0, "g/kg", "Mass of sulfur dioxide emitted per kg of fuel"],
        "NOx_index": [0.014, "g/kg", "Mass of nitrogen oxide emitted per kg of fuel"],
        "CO_index": [0, "g/kg", "Mass of carbon monoxide emitted per kg of fuel"],
        "HC_index": [0, "g/kg", "Mass of unburnt hydrocarbon emitted per kg of fuel"],
        "sulfuric_acid_index": [0, "g/kg", "Mass of sulfuric acid emitted per kg of fuel"],
        "nitrous_acid_index": [0.0004, "g/kg", "Mass of nitrous acid emitted per kg of fuel"],
        "nitric_acid_index": [0.0002, "g/kg", "Mass of nitric acid emitted per kg of fuel"],
        "soot_index": [2e+12, "int", "Number of soot particles emitted per kg of fuel"]
    },
    "draw": {}
}