{
    "name": "A220-100",
    "arrangement": {
        "body_type": ["fuselage", "string", "Type of main body, 'fuselage' or 'blended'"],
        "wing_type": ["classic", "string", "Type of lifting body, 'classic' or 'blended'"],
        "wing_attachment": ["low", "string", "Position of wing attachment, 'low' or 'high'"],
        "stab_architecture": ["h_tail", "string", "Type of stabilizers, 'classic', 't_tail' or 'h_tail'"],
        "tank_architecture": ["piggy_back", "string", "Type of tank, 'wing_box', 'piggy_back' or 'pods'"],
        "gear_architecture": ["retractable", "string", "Type of landing gears, 'retractable', 'bare_fixed'"],
        "number_of_engine": ["twin", "string", "Number of engine, 'twin' or 'quadri'"],
        "nacelle_attachment": ["wing", "string", "Position of nacelle attachment, 'wing', 'pod' or 'rear'"],
        "power_architecture": ["pte_piggy", "string", "Propulsive architecture, 'tf', 'extf', 'ef'"],
        "power_source": ["fuel", "string", "Type power source, 'fuel', 'battery' or 'fuel_cell"],
        "fuel_type": ["liquid_h2", "string", "Type energy source, 'kerosene', 'methane', 'liquid_h2' or 'battery'"]
    },
    "requirement": {
        "cruise_altp": [35000, "ft", "Mean cruise altitude for design"],
        "cruise_mach": [0.78, "mach", "Cruise Mach number for design"],
        "design_range": [2100, "NM", "Design range"],
        "n_pax_ref": [135, "int", "Reference number of passenger for design"],
        "model_config": {
            "model_config": {
                "Cabin": {
                    "n_pax_front": ["function", "int", "Number of front seats in economic class (function)"],
                    "n_aisle": ["function", "int", "Number of aisle in economic class (function)"],
                    "m_pax_nominal": ["function", "kg", "Reference mass allowance per passenger for design (function)"],
                    "m_pax_max": ["function", "kg", "Maximum mass allowance per passenger for design (function)"],
                    "m_pax_cabin": [80, "kg", "Mean passenger mass in the cabin including its hand luggage"],
                    "seat_width": [20, "inch", "Seat width in economic class"],
                    "seat_pitch": [32, "inch", "Seat pitch in economic class"],
                    "aisle_width": [20, "inch", "Aisle width"]
                },
                "Fuselage": {
                    "forward_ratio": [1.1, "no_dim", "Distance between fuselage nose and forward cabin wall over fuselage diameter"],
                    "wall_thickness": [0.2, "m", "Fuselage wall total tchickness"],
                    "nose_cone_ratio": [2, "no_dim", "Fuselage nose cone length (evolutive part) over fuselage diameter"],
                    "tail_cone_ratio": [3.45, "no_dim", "Fuselage tail cone length (evolutive part) over fuselage diameter"],
                    "section_type": ["ellipse", "string", "Fuselage cross section 'ellipse' or 'square'"],
                    "rear_bulkhead_ratio": [1.5, "no_dim", "Distance from rear pressure bulkhead to fuselage cone end over fuselage diameter"],
                    "mass_correction_factor": [1, "no_dim", "Correction factor on mass estimation"]
                },
                "Wing": {
                    "wing_morphing": ["aspect_ratio_driven", "no_dim", "Wing deformation mode, 'aspect_ratio_driven' or 'span_driven'"],
                    "aspect_ratio": ["function", "no_dim", "Wing aspect ratio (function)"],
                    "taper_ratio": ["function", "no_dim", "Wing taper ratio (function)"],
                    "sweep25": ["function", "deg", "Wing sweep angle at 25% of the chords of outboard trapezoid (function)"],
                    "dihedral": [5, "deg", "Wing dihedral"],
                    "front_spar_ratio": [0.15, "no_dim", "Relative chord position of front spar"],
                    "rear_spar_ratio": [0.7, "no_dim", "Relative chord position of rear spar"],
                    "hld_type": ["function", "int", "Type of high lift device, from 0 to 10, (function)"],
                    "mass_correction_factor": [1, "no_dim", "Correction factor on mass estimation"]
                },
                "VtpClassic": {
                    "aspect_ratio": [1.7, "no_dim", "Vertical tail aspect ratio"],
                    "taper_ratio": [0.4, "no_dim", "Vertical tail taper ratio"],
                    "sweep25": ["function", "deg", "Vertical tail sweep angle at 25% of the chords (function)"],
                    "toc": [0.1, "no_dim", "Thickness to chord ratio of the vertical tail"],
                    "thrust_volume_factor": [0.4, "no_dim", "Volume coefficient of the vertical stabilizer according to engine failure"],
                    "wing_volume_factor": [0.07, "no_dim", "Volume coefficient of the vertical stabilizer according to wing"],
                    "anchor_ratio": [0.85, "no_dim", "Relative position of the reference point of the stabilization surface"],
                    "mass_correction_factor": [1, "no_dim", "Correction factor on mass estimation"]
                },
                "VtpTtail": {
                    "aspect_ratio": [1.2, "no_dim", "Vertical tail aspect ratio"],
                    "taper_ratio": [0.8, "no_dim", "Vertical tail taper ratio"],
                    "sweep25": ["function", "deg", "Vertical tail sweep angle at 25% of the chords (function)"],
                    "toc": [0.1, "no_dim", "Thickness to chord ratio of the vertical tail"],
                    "thrust_volume_factor": [0.4, "no_dim", "Volume coefficient of the vertical stabilizer according to engine failure"],
                    "wing_volume_factor": [0.07, "no_dim", "Volume coefficient of the vertical stabilizer according to wing"],
                    "anchor_ratio": [0.85, "no_dim", "Relative position of the reference point of the stabilization surface"],
                    "mass_correction_factor": [1, "no_dim", "Correction factor on mass estimation"]
                },
                "VtpHtail": {
                    "aspect_ratio": [1.5, "no_dim", "Vertical tail aspect ratio"],
                    "taper_ratio": [0.4, "no_dim", "Vertical tail taper ratio"],
                    "sweep25": ["function", "deg", "Vertical tail sweep angle at 25% of the chords (function)"],
                    "toc": [0.1, "no_dim", "Thickness to chord ratio of the vertical tail"],
                    "thrust_volume_factor": [0.4, "no_dim", "Volume coefficient of the vertical stabilizer according to engine failure"],
                    "wing_volume_factor": [0.07, "no_dim", "Volume coefficient of the vertical stabilizer according to wing"],
                    "mass_correction_factor": [1, "no_dim", "Correction factor on mass estimation"]
                },
                "HtpClassic": {
                    "aspect_ratio": [5, "no_dim", "Horizontal tail aspect ratio"],
                    "taper_ratio": [0.35, "no_dim", "Horizontal tail taper ratio"],
                    "sweep25": ["function", "deg", "Horizontal tail sweep angle at 25% of the chords (function)"],
                    "toc": [0.1, "no_dim", "Thickness to chord ratio of the Horizontal tail"],
                    "dihedral": [5, "deg", "Dihedral angle of the horizontal tail"],
                    "volume_factor": [0.94, "no_dim", "Volume coefficient of the vertical stabilizer according to engine failure"],
                    "mass_correction_factor": [1, "no_dim", "Correction factor on mass estimation"]
                },
                "HtpTtail": {
                    "aspect_ratio": [5, "no_dim", "Horizontal tail aspect ratio"],
                    "taper_ratio": [0.35, "no_dim", "Horizontal tail taper ratio"],
                    "height_ratio": [1, "no_dim", "Horizontal tail height ratio versus vertical tail height"],
                    "sweep25": ["function", "deg", "Horizontal tail sweep angle at 25% of the chords (function)"],
                    "toc": [0.1, "no_dim", "Thickness to chord ratio of the Horizontal tail"],
                    "dihedral": [5, "deg", "Dihedral angle of the horizontal tail"],
                    "volume_factor": [0.94, "no_dim", "Volume coefficient of the vertical stabilizer according to engine failure"],
                    "mass_correction_factor": [1, "no_dim", "Correction factor on mass estimation"]
                },
                "HtpHtail": {
                    "aspect_ratio": [5, "no_dim", "Horizontal tail aspect ratio"],
                    "taper_ratio": [0.8, "no_dim", "Horizontal tail taper ratio"],
                    "sweep25": ["function", "deg", "Horizontal tail sweep angle at 25% of the chords (function)"],
                    "toc": [0.1, "no_dim", "Thickness to chord ratio of the Horizontal tail"],
                    "dihedral": [5, "deg", "Dihedral angle of the horizontal tail"],
                    "volume_factor": [0.94, "no_dim", "Volume coefficient of the vertical stabilizer according to engine failure"],
                    "mass_correction_factor": [1, "no_dim", "Correction factor on mass estimation"]
                },
                "TankWingBox": {
                    "gravimetric_index": [0.3, "no_dim", "Ratio Hydrogen_mass / (Hydrogen_mass + Tank_mass)"],
                    "volumetric_index": [0.85, "no_dim", "Ratio Hydrogen_volume / Total_tank_volume"],
                    "fuel_pressure": ["function", "bar", "Maximum over pressure of the fuel in the tank (function)"]
                },
                "TankRearFuselage": {
                    "ref_length": [10, "m", "Initial length of the tank"],
                    "width_rear_factor": [0.75, "m", "Diameter of the rear pressure bulkhead over fuselage diameter"],
                    "gravimetric_index": [0.3, "no_dim", "Ratio Hydrogen_mass / (Hydrogen_mass + Tank_mass)"],
                    "volumetric_index": [0.85, "no_dim", "Ratio Hydrogen_volume / Total_tank_volume"],
                    "fuel_pressure": ["function", "bar", "Maximum over pressure of the fuel in the tank (function)"]
                },
                "Pod": {
                    "structure_shell_surface_mass": [15, "kg/m2", "Surface mass of the surrounding support structure"],
                    "structure_shell_thickness": [0.08, "m", "Thickness of the support structure"],
                    "gravimetric_index": [0.3, "no_dim", "Ratio Hydrogen_mass / (Hydrogen_mass + Tank_mass)"],
                    "volumetric_index": [0.85, "no_dim", "Ratio Hydrogen_volume / Total_tank_volume"]
                },
                "TankWingPod": {
                    "width": [2.5, "m", "diameter of the pod"],
                    "ref_length": [8, "m", "length of the pod"],
                    "span_ratio": [0.65, "no_dim", "Relative span wise position of the tank"],
                    "x_loc_ratio": [0.45, "no_dim", "Fraction of the tank length before the wing"],
                    "z_loc_ratio": [0, "no_dim", "Fraction of the tank diameter between the wing and the tank"],
                    "dry_bay_length": [0, "m", "Length of an eventual dry bay"],
                    "fuel_pressure": ["function", "bar", "Maximum over pressure of the fuel in the tank (function)"]
                },
                "TankPiggyBack": {
                    "width": [3.5, "m", "diameter of the pod"],
                    "ref_length": [24, "m", "length of the pod"],
                    "x_loc_ratio": [0.4, "no_dim", "Fraction of the tank length behind the wing"],
                    "z_loc_ratio": [0.85, "no_dim", "Fraction of the tank diameter between the fuselage and the tank axis"],
                    "dry_bay_length": [2, "m", "Length of an eventual dry bay"],
                    "fuel_pressure": ["function", "bar", "Maximum over pressure of the fuel in the tank (function)"]
                },
                "RetractableLandingGear": {
                    "mass_correction_factor": [1, "no_dim", "Correction factor on mass estimation"]
                },
                "BareFixedLandingGear": {
                    "wheel_count": [2, "int", "Number of main landing gear"],
                    "wheel_drag_area_factor": [1, "no_dim", "Drag area over (dynamic pressure x frontal area"],
                    "mass_correction_factor": [0.5, "no_dim", "Correction factor on mass estimation"]
                },
                "InboardWingMountedNacelle": {},
                "OutboardWingMountedNacelle": {},
                "RearFuselageMountedNacelle": {},
                "PowerSystem": {
                    "sfc_correction": [1, "no_dim", "Factor on specific fuel consumption (fuel only)"]
                },
                "System": {},
                "SystemWithBattery": {
                    "wiring_efficiency": [0.995, "no_dim", "Electric wiring efficiency"],
                    "wiring_pw_density": [20, "kW/kg", "Electric wiring power density"],
                    "cooling_efficiency": [0.995, "no_dim", "Cooling efficiency, ex: 0.99 means that 1% of the power is used by cooling system"],
                    "cooling_pw_density": [5, "kW/kg", "Cooling power density"],
                    "battery_density": [2800, "kg/m3", "Battery density"],
                    "battery_energy_density": [0.4, "kWh/kg", "Battery energy density"]
                },
                "SystemWithFuelCell": {
                    "wiring_efficiency": [0.995, "no_dim", "Electric wiring efficiency"],
                    "wiring_pw_density": [10, "kW/kg", "Electric wiring power density"],
                    "compressor_over_pressure": [100, "kPa", "Compressor over pressure"],
                    "compressor_efficiency": [0.8, "no_dim", "Compressor efficiency, power delivered to the air flow over input power"],
                    "compressor_pw_density": [2, "kW/kg", "Compressor total power density"],
                    "cooling_power_index": [0.005, "no_dim", "Cooling efficiency, ex: 0.01 means that the required power to cool the system is 1% of the dissipated power"],
                    "cooling_gravimetric_index": [5, "kW/kg", "Cooling power density, the ratio of the dissipated power over the required system mass to dissipate it"],
                    "fuel_cell_pw_density": [2, "kW/kg", "Fuell cell power density"],
                    "fuel_cell_efficiency": [0.5, "no_dim", "Fuell cell conversion efficiency"]
                },
                "SystemWithLaplaceFuelCell": {
                    "over_power_factor": [2, "no_dim", "Electric wiring efficiency"],
                    "wiring_efficiency": [0.995, "no_dim", "Electric wiring efficiency"],
                    "wiring_pw_density": [10, "kW/kg", "Electric wiring power density"],
                    "max_power_time": [15, "min", "Max power endurance on battery"],
                    "battery_energy_density": [0.4, "kWh/kg", "Battery energy density"]
                },
                "SystemPartialTurboElectric": {
                    "chain_power_pod": ["function", "kW", "Electric shaft power of the wing tank tail electric fan"],
                    "chain_power_body": ["function", "kW", "Electric shaft power of the main body tail electric fan"],
                    "chain_power_piggyback": ["function", "kW", "Electric shaft power of piggyback body tail electric fan"],
                    "chain_power": ["function", "kW", "Total electric shaft power"],
                    "battery": ["no", "string", "Use of battery, 'yes', 'no'"],
                    "battery_density": [2800, "kg/m3", "Battery density"],
                    "battery_energy_density": [0.4, "kWh/kg", "Battery energy density"],
                    "lto_power": [0, "kW", "Battery power reserve for take off and landing"],
                    "lto_time": [0, "min", "Duration of availability of the power reserve"],
                    "cruise_energy": [0, "kWh", "Energy booked for cruise"],
                    "generator_efficiency": [0.95, "no_dim", "Electric generator efficiency"],
                    "generator_pw_density": [5, "kW/kg", "Electric generator power density"],
                    "rectifier_efficiency": [0.99, "no_dim", "Rectifier efficiency"],
                    "rectifier_pw_density": [15, "kW/kg", "Rectifier power density"],
                    "wiring_efficiency": [0.995, "no_dim", "Electric wiring efficiency"],
                    "wiring_pw_density": [20, "kW/kg", "Electric wiring power density"],
                    "cooling_efficiency": [0.995, "no_dim", "Cooling efficiency, ex: 0.99 means that 1% of the power is used by cooling system"],
                    "cooling_pw_density": [5, "kW/kg", "Cooling power density"]
                },
                "SemiEmpiricTf0Nacelle": {
                    "eis_date": [2020, "year", "Entry into service date"],
                    "lateral_margin": [1, "no_dim", "Lateral margin as a fraction of nacelle width"],
                    "vertical_margin": [1, "no_dim", "vertical margin as a fraction of nacelle width"],
                    "engine_bpr": ["function", "no_dim", "Reference By Pass Ratio of the engine (function)"],
                    "engine_opr": [50, "no_dim", "Reference Overall Pressure Ratio of the engine"],
                    "core_thrust_ratio": [0.13, "no_dim", "Reference ratio of the total thrust delivered by the core"],
                    "propeller_efficiency": [0.82, "no_dim", "Propeller like fan efficiency Thrust.Speed/shaft_power"]
                },
                "SemiEmpiricTfNacelle": {
                    "eis_date": [2020, "year", "Entry into service date"],
                    "lateral_margin": [1, "no_dim", "Lateral margin as a fraction of nacelle width"],
                    "vertical_margin": [1, "no_dim", "vertical margin as a fraction of nacelle width"],
                    "engine_bpr": ["function", "no_dim", "Reference By Pass Ratio of the engine (function)"],
                    "engine_opr": [50, "no_dim", "Reference Overall Pressure Ratio of the engine"],
                    "engine_fpr": [1.5, "no_dim", "Reference Fan Pressure Ratio of the engine"],
                    "core_thrust_ratio": [0.13, "no_dim", "Reference ratio of the total thrust delivered by the core"],
                    "hub_width": [0.4, "m", "Fan hub diameter"],
                    "propeller_efficiency": [0.82, "no_dim", "Propeller like fan efficiency Thrust.Speed/shaft_power"],
                    "fan_efficiency": [0.9, "no_dim", "Classical fan efficiency"]
                },
                "ExergeticTfNacelle": {
                    "eis_date": [2020, "year", "Entry into service date"],
                    "engine_bpr": [14, "no_dim", "Reference By Pass Ratio of the engine"],
                    "engine_fpr": [1.15, "no_dim", "Reference Fan Pressure Ratio of the engine"],
                    "engine_lpc_pr": [3, "no_dim", "Reference Low Pressure Compressor Ratio of the engine"],
                    "engine_hpc_pr": [14, "no_dim", "Reference High  Pressure Compressor Ratio of the engine"],
                    "engine_T4_max": [1700, "K", "Entry turbine maximum temperature"],
                    "cooling_flow": [0.1, "kg/s", "Reference cooling flow"],
                    "lateral_margin": [1, "no_dim", "Lateral margin as a fraction of nacelle width"],
                    "vertical_margin": [1, "no_dim", "vertical margin as a fraction of nacelle width"],
                    "hub_width": [0.4, "m", "Fan hub diameter"]
                },
                "SemiEmpiricTpNacelle": {
                    "eis_date": [2020, "year", "Entry into service date"],
                    "lateral_margin": [1, "no_dim", "Lateral margin as a fraction of nacelle width"],
                    "hub_width": [0.2, "m", "Propeller hub diameter"],
                    "propeller_efficiency": [0.82, "no_dim", "Propeller efficiency Thrust.Speed/shaft_power"],
                    "propeller_disk_load": [3000, "N/m2", "Propeller disk load"],
                    "psfc_reference": [0.4, "lb/shp/h", "Power related Spesific Fuel Consumption"]
                },
                "SemiEmpiricEpNacelle": {
                    "eis_date": [2020, "year", "Entry into service date"],
                    "lateral_margin": [1, "no_dim", "Lateral margin as a fraction of nacelle width"],
                    "propeller_efficiency": [0.82, "no_dim", "Propeller efficiency Thrust.Speed/shaft_power"],
                    "propeller_disk_load": [3000, "N/m2", "Propeller disk load"],
                    "hub_width": [0.2, "m", "Propeller hub diameter"],
                    "motor_efficiency": [0.95, "no_dim", "Electric motor efficiency"],
                    "motor_pw_density": [5, "kW/kg", "Electric motor power density"],
                    "nacelle_pw_density": [10, "kW/kg", "Electric nacelle power density"],
                    "controller_efficiency": [0.99, "no_dim", "Electric controller efficiency"],
                    "controller_pw_density": [15, "kW/kg", "Electric controller power density"]
                },
                "SemiEmpiricEfNacelle": {
                    "eis_date": [2020, "year", "Entry into service date"],
                    "lateral_margin": [1, "no_dim", "Lateral margin as a fraction of nacelle width"],
                    "vertical_margin": [1, "no_dim", "vertical margin as a fraction of nacelle width"],
                    "propeller_efficiency": [0.82, "no_dim", "Propeller like fan efficiency Thrust.Speed/shaft_power"],
                    "fan_efficiency": [0.95, "no_dim", "Classical fan efficiency"],
                    "engine_fpr": [1.3, "no_dim", "Reference Fan Pressure Ratio of the engine"],
                    "hub_width": [0.2, "m", "Fan hub diameter"],
                    "motor_efficiency": [0.95, "no_dim", "Electric motor efficiency"],
                    "motor_pw_density": [5, "kW/kg", "Electric motor power density"],
                    "controller_efficiency": [0.99, "no_dim", "Electric controller efficiency"],
                    "controller_pw_density": [15, "kW/kg", "Electric controller power density"],
                    "nacelle_pw_density": [10, "kW/kg", "Electric nacelle power density"]
                },
                "PodTailConeMountedNacelle": {
                    "bli_effect": ["yes", "string", "Taking into account boundary layer ingestion, 'yes' or 'no'"],
                    "hub_width": [0.4, "m", "Fan hub diameter"],
                    "lateral_margin": [1.5, "no_dim", "Lateral margin as a fraction of nacelle width"],
                    "x_loc_ratio": [0.35, "no_dim", "Fraction of the tank length behind the wing"],
                    "z_loc_ratio": [-0.2, "no_dim", "Fraction of the tank diameter under the wing"],
                    "specific_nacelle_cost": [0.05, "$/kg", "Specific maintenance cost per trip for tail cone mounted nacelle"]
                },
                "PiggyBackTailConeMountedNacelle": {
                    "bli_effect": ["yes", "string", "Taking into account boundary layer ingestion, 'yes' or 'no'"],
                    "hub_width": [0.4, "m", "Fan hub diameter"],
                    "specific_nacelle_cost": [0.05, "$/kg", "Specific maintenance cost per trip for tail cone mounted nacelle"]
                },
                "BodyTailConeMountedNacelle": {
                    "bli_effect": ["yes", "string", "Taking into account boundary layer ingestion, 'yes' or 'no'"],
                    "hub_width": [0.4, "m", "Fan hub diameter"],
                    "tail_cone_height_ratio": [0.87, "no_dim", "Relative vertical position of the body tail cone"],
                    "specific_nacelle_cost": [0.05, "$/kg", "Specific maintenance cost per trip for tail cone mounted nacelle"]
                },
                "AllMissionVarMass": {
                    "ktow": [0.9, "no_dim", "Ratio of TOW defining the aircraft weight for mission breguet range"]
                },
                "MissionVarMassGeneric": {
                    "holding_time": [30, "min", "Holding duration for reserve fuel evaluation"],
                    "reserve_fuel_ratio": ["function", "no_dim", "Fraction of mission fuel for reserve fuel evaluation (function)"],
                    "diversion_range": ["function", "NM", "Range of diversion mission for reserve fuel evaluation (function)"]
                },
                "AllMissionIsoMass": {},
                "MissionIsoMassGeneric": {
                    "holding_time": [30, "min", "Holding duration for reserve fuel evaluation"],
                    "reserve_enrg_ratio": ["function", "no_dim", "Fraction of mission fuel for reserve fuel evaluation (function)"],
                    "diversion_range": ["function", "NM", "Range of diversion mission for reserve fuel evaluation (function)"]
                },
                "Requirement": {
                    "cost_range": ["function", "NM", "Reference range for cost evaluation (function)"],
                    "max_fuel_range_factor": [1.25, "no_dim", "Ratio max_fuel_mission_range / nominal_mission_range, used only with mda_plus"],
                    "max_body_aspect_ratio": [13.3617, "no_dim", "Ratio body length / body height, maximum ratio comming from A340-600"]
                },
                "Aerodynamics": {
                    "kcx_correction": [1, "no_dim", "Drag FACTCOR on cx coefficient"],
                    "dcx_correction": [0, "no_dim", "Drag SHIFT on cx coefficient"],
                    "cruise_lodmax": [16, "no_dim", "Assumption on L/D max for some initializations"],
                    "hld_conf_clean": [0, "no_dim", "High lift device setting for clean wing, must be 0."],
                    "hld_conf_to": [0.3, "no_dim", "High lift device setting for take off, between 0. and 0.5"],
                    "hld_conf_ld": [1, "no_dim", "High lift device setting for landing, typically 1. for full deflection"]
                },
                "HandlingQuality": {
                    "static_stab_margin": [0.05, "no_dim", "CG margin to neutral point"]
                },
                "TakeOffReq": {
                    "disa": [15, "degK", "Temperature shift for take off evaluation"],
                    "altp": [0, "ft", "Altitude for take off evaluation"],
                    "kmtow": [1, "no_dim", "Ratio of MTOW defining the aircraft weight"],
                    "kvs1g": [1.13, "no_dim", "Ratio of MTOW defining the aircraft weight"],
                    "s2_min_path": ["function", "%", "Minimum trajectory slope at 35ft for take off (function)"],
                    "tofl_req": ["function", "m", "Maximum take off field length required in given conditions (function)"]
                },
                "ApproachReq": {
                    "disa": [15, "degK", "Temperature shift for approach speed evaluation"],
                    "altp": [0, "ft", "Altitude for approach speed evaluation"],
                    "kmlw": [1, "no_dim", "Ratio of MLW defining the aircraft weight"],
                    "kvs1g": [1.23, "no_dim", "Ratio of MTOW defining the aircraft weight"],
                    "app_speed_req": ["function", "kt", "Maximum approach speed required in given conditions (function)"]
                },
                "OeiCeilingReq": {
                    "disa": [15, "degK", "Temperature shift for one engine performance evaluation"],
                    "altp": ["function", "ft", "Altitude for one engine performance evaluation (function)"],
                    "kmtow": [1, "no_dim", "Ratio of MTOW defining the aircraft weight"],
                    "rating": ["MCN", "string", "Engine rating for one engine performance evaluation"],
                    "speed_mode": ["cas", "string", "Speed mode for one engine performance evaluation, 'cas':constant CAS or 'mach':constant Mach"],
                    "path_req": ["function", "%", "Minimum trajectory slope required in given conditions (function)"]
                },
                "MclCeilingReq": {
                    "disa": [15, "degK", "Temperature shift for approach speed evaluation"],
                    "altp": ["function", "ft", "Altitude for approach speed evaluation (function)"],
                    "mach": ["function", "ft", "Speed defined by a Mach number (function)"],
                    "kmtow": [0.97, "no_dim", "Ratio of MTOW defining the aircraft weight"],
                    "rating": ["MCL", "string", "Engine rating for one engine performance evaluation"],
                    "speed_mode": ["cas", "string", "Speed mode for one engine performance evaluation, 'cas':constant CAS or 'mach':constant Mach"],
                    "vz_req": ["function", "%", "Minimum vertical speed required in given conditions (function)"]
                },
                "McrCeilingReq": {
                    "disa": [15, "degK", "Temperature shift for approach speed evaluation"],
                    "altp": ["function", "ft", "Altitude for approach speed evaluation (function)"],
                    "mach": ["function", "ft", "Speed defined by a Mach number (function)"],
                    "kmtow": [0.97, "no_dim", "Ratio of MTOW defining the aircraft weight"],
                    "rating": ["MCR", "string", "Engine rating for one engine performance evaluation"],
                    "speed_mode": ["mach", "string", "Speed mode for one engine performance evaluation, 'cas':constant CAS or 'mach':constant Mach"],
                    "vz_req": ["function", "%", "Minimum vertical speed required in given conditions (function)"]
                },
                "TtcReq": {
                    "disa": [15, "degK", "Temperature shift for approach speed evaluation"],
                    "altp": ["function", "ft", "Targetted climb altitude (function)"],
                    "mach": ["function", "ft", "Speed defined by a Mach number (function)"],
                    "kmtow": [0.97, "no_dim", "Ratio of MTOW defining the aircraft weight"],
                    "altp1": [1500, "ft", "Starting pressure altitude for climb trajectory, typically 1500ft"],
                    "cas1": ["function", "kt", "Calibrated Air Speed below altp1 during climb trajectory (function)"],
                    "altp2": [10000, "ft", "Transtion pressure altitude from cas1 to cas2, typically 10000ft"],
                    "cas2": ["function", "kt", "Calibrated Air Speed above altp2 (function)"],
                    "ttc_req": [25, "min", "Maximum time to climb required in given conditions"]
                },
                "Economics": {
                    "irp": [10, "year", "Interest recovery period"],
                    "period": [15, "year", "Utilization period"],
                    "interest_rate": [4, "%", "Interest rate"],
                    "labor_cost": [120, "$/h", "Labor cost"],
                    "utilization": ["function", "int", "Number of flights per year (function)"],
                    "fuel_price": [2, "$/gal", "Fuel price"],
                    "energy_price": [0.1, "$/kWh", "Energy price"],
                    "battery_price": [20, "$/kg", "Battery price"]
                }
            }
        },
        "cruise_disa": [0, "degK", "Temperature shift versus ISA in cruise for design"],
        "cost_range": [400, "NM", "Reference range for cost evaluation"],
        "max_fuel_range_factor": [1.25, "no_dim", "Ratio max_fuel_range over design range in MDO_plus mode"],
        "max_body_aspect_ratio": [13.3617, "no_dim", "Maximum ratio of fuselage length over fuselage height"],
        "take_off": {
            "disa": [15, "degK", "Temperature shift versus ISA conditions"],
            "altp": [0, "ft", "Target pressure altitude"],
            "kmtow": [1, "no_dim", "Ratio of MTOW defining the aircraft weight"],
            "kvs1g": [1.13, "no_dim", "Applicable ratio of stalling speed at 1g"],
            "s2_min_path": [2.4, "%", "Minimum trajectory slope at 35ft for take off"],
            "tofl_req": [2000, "m", "Maximum take off field length required in given conditions"]
        },
        "approach": {
            "disa": [0, "degK", "Temperature shift versus ISA conditions"],
            "altp": [0, "ft", "Target pressure altitude"],
            "kmlw": [1, "no_dim", "Ratio of MLW defining the aircraft weight"],
            "kvs1g": [1.23, "no_dim", "Applicable ratio of stalling speed at 1g"],
            "app_speed_req": [135, "kt", "Maximum approach speed required in given conditions"]
        },
        "oei_ceiling": {
            "disa": [15, "degK", "Temperature shift versus ISA conditions"],
            "altp": [14000, "ft", "Target pressure altitude"],
            "kmtow": [1, "no_dim", "Ratio of MTOW defining the aircraft weight"],
            "rating": ["MCN", "string", "Engine rating name ('MTO','MCN','MCL','MCR','FID'"],
            "speed_mode": ["cas", "string", "Constant CAS : 'cas' or constant Mach : 'mach'"],
            "path_req": [1.1, "%", "Minimum trajectory slope required in given conditions"]
        },
        "mcl_ceiling": {
            "disa": [15, "degK", "Temperature shift versus ISA conditions"],
            "altp": [35000, "ft", "Target pressure altitude"],
            "mach": [0.78, "mach", "Mach number"],
            "kmtow": [0.97, "no_dim", "Ratio of MTOW defining the aircraft weight"],
            "rating": ["MCL", "string", "Engine rating name ('MTO','MCN','MCL','MCR','FID'"],
            "speed_mode": ["cas", "string", "Constant CAS : 'cas' or constant Mach : 'mach'"],
            "vz_req": [300, "ft/min", "Minimum vertical speed required in given conditions"]
        },
        "mcr_ceiling": {
            "disa": [15, "degK", "Temperature shift versus ISA conditions"],
            "altp": [35000, "ft", "Target pressure altitude"],
            "mach": [0.78, "mach", "Mach number"],
            "kmtow": [0.97, "no_dim", "Ratio of MTOW defining the aircraft weight"],
            "rating": ["MCR", "string", "Engine rating name ('MTO','MCN','MCL','MCR','FID'"],
            "speed_mode": ["mach", "string", "Constant CAS : 'cas' or constant Mach : 'mach'"],
            "vz_req": [0, "ft/min", "Minimum vertical speed required in given conditions"]
        },
        "time_to_climb": {
            "disa": [15, "degK", "Temperature shift versus ISA conditions"],
            "altp": [35000, "ft", "Target pressure altitude"],
            "mach": [0.78, "mach", "Mach number"],
            "kmtow": [0.97, "no_dim", "Ratio of MTOW defining the aircraft weight"],
            "cas1": [180, "kt", "Calibrated Air Speed below altp1 during climb trajectory"],
            "altp1": [1500, "ft", "Starting pressure altitude for climb trajectory, typically 1500ft"],
            "cas2": [250, "kt", "Calibrated Air Speed above altp2"],
            "altp2": [10000, "ft", "Transtion pressure altitude from cas1 to cas2, typically 10000ft"],
            "ttc_req": [25, "min", "Maximum time to climb required in given conditions"]
        }
    },
    "airframe": {
        "engine_analysis_order": [["nacelle", "other_nacelle", "tail_nacelle", "other_tail_nacelle"], "string", "Gives the engine component list"],
        "mass_analysis_order": [["cabin", "body", "wing", "landing_gear", "cargo", "nacelle", "other_nacelle", "tail_nacelle", "other_tail_nacelle", "vertical_stab", "horizontal_stab", "tank", "system"], "string", "Gives the component order to perform the mass analysis"],
        "cabin": {
            "frame_origin": [[3.6828, 0, 0], "m", "Position of the reference point of the component in the assembly"],
            "mass": [5195.99, "kg", "Masse of the component"],
            "cg": [[19.7932, 0, 0], "m", "Position of the center of gravity of the component in the assembly"],
            "inertia_tensor": [[[null, null, null], [null, null, null], [null, null, null]], "kg.m2", "Inertia tensor of the component in its reference point"],
            "gross_wet_area": [0, "m2", "Gross wetted area of the component"],
            "net_wet_area": [0, "m2", "Net wetted area of the component"],
            "aero_length": [1, "m", "Characteristic length of the component for friction drag estimation"],
            "form_factor": [0, "no_dim", "Form factor of the conponent for form and friction drag estimation"],
            "n_pax_ref": [135, "int", "Reference number of passenger for design"],
            "n_pax_front": [5, "int", "Number of front seats in economy class"],
            "n_aisle": [1, "int", "Number of aisle in economy class"],
            "seat_width": [0.508, "m", "Seat width in economy class"],
            "seat_pitch": [0.8128, "m", "Seat pitch in economy class"],
            "aisle_width": [0.508, "m", "Aisle width in economy class"],
            "width": [3.148, "no_dim", "Tank front diameter for rear fuselage tank"],
            "length": [29.2917, "m", "Length of the component"],
            "co2_metric_area": [null, "m2", "Refernce cabin area for Fuel Efficiency Metric estimation"],
            "m_pax_nominal": [105, "int", "Reference mass allowance per passenger for design"],
            "m_pax_max": [120, "int", "Maximum mass allowance per passenger for design"],
            "m_pax_cabin": [80, "int", "Reference mass allowance per passenger inside the cabin, passenger + hand luggage"],
            "m_furnishing": [2465.77, "kg", "Furnishing mass (seats, monuments, toilets, ...)"],
            "m_op_item": [2730.22, "kg", "Operator items mass (crews, water, food, ...)"],
            "nominal_payload": [14175, "kg", "Reference payload for design"],
            "maximum_payload": [16200, "kg", "Maximum payload for design"],
            "cg_furnishing": [[19.7932, 0, 0], "m", "Position of the CG of furnishing in the assembly"],
            "cg_op_item": [[19.7932, 0, 0], "m", "Position of the CG of operator items in the assembly"],
            "pax_max_fwd_cg": [[10.8613, 0, 0], "m", "Maximum forward position of the passengers"],
            "pax_max_fwd_mass": [5293.5, "kg", "Mass corresponding to maximum forward position of the passengers"],
            "pax_max_bwd_cg": [[27.3485, 0, 0], "m", "Maximum backward position of the passengers"],
            "pax_max_bwd_mass": [6864.37, "kg", "Mass corresponding to maximum backward position of the passengers"],
            "projected_area": [87.5997, "m2", "Cabin efficiency parameter ~ cabin length times fuselage width"]
        },
        "body": {
            "frame_origin": [[0, 0, 0], "m", "Position of the reference point of the component in the assembly"],
            "mass": [6934.24, "kg", "Masse of the component"],
            "cg": [[18.9982, 0, 1.40616], "m", "Position of the center of gravity of the component in the assembly"],
            "inertia_tensor": [[[null, null, null], [null, null, null], [null, null, null]], "kg.m2", "Inertia tensor of the component in its reference point"],
            "gross_wet_area": [351.955, "m2", "Gross wetted area of the component"],
            "net_wet_area": [351.955, "m2", "Net wetted area of the component"],
            "aero_length": [37.9965, "m", "Characteristic length of the component for friction drag estimation"],
            "form_factor": [1.05, "no_dim", "Form factor of the conponent for form and friction drag estimation"],
            "forward_ratio": [1.1, "no_dim", "Distance from fuselage nose to cabinwall over fuselage diameter"],
            "wall_thickness": [0.2, "m", "Fuselage wall total tchickness"],
            "rear_bulkhead_ratio": [1.5, "no_dim", "Distance from rear pressure bulkhead to fuselage end over fuselage diameter"],
            "nose_cone_ratio": [2, "no_dim", "Fuselage nose cone length over fuselage diameter"],
            "tail_cone_ratio": [3.45, "no_dim", "Fuselage tail cone length over fuselage diameter"],
            "section_type": ["ellipse", "string", "Type body section shape, 'elipse', 'square'"],
            "width": [3.348, "no_dim", "Tank front diameter for rear fuselage tank"],
            "height": [3.5154, "m", "Height of the component"],
            "length": [37.9965, "m", "Length of the component"],
            "aspect_ratio": [10.8086, "no_dim", "Aspect ratio of the lifting surface"],
            "nose_cone_length": [6.696, "m", "Length of the tapered forward part of the main body"],
            "tail_cone_length": [11.5506, "m", "Length of the tapered rear part of the main body"],
            "mass_correction_factor": [1, "no_dim", "Factor on all component mass except engines and systems"]
        },
        "wing": {
            "frame_origin": [[13.438, 0, 0], "m", "Position of the reference point of the component in the assembly"],
            "mass": [12373, "kg", "Masse of the component"],
            "cg": [[18.3611, 7.39528, 0.500547], "m", "Position of the center of gravity of the component in the assembly"],
            "inertia_tensor": [[[null, null, null], [null, null, null], [null, null, null]], "kg.m2", "Inertia tensor of the component in its reference point"],
            "gross_wet_area": [278.12, "m2", "Gross wetted area of the component"],
            "net_wet_area": [278.12, "m2", "Net wetted area of the component"],
            "aero_length": [4.48452, "m", "Characteristic length of the component for friction drag estimation"],
            "form_factor": [1.4, "no_dim", "Form factor of the conponent for form and friction drag estimation"],
            "wing_morphing": ["aspect_ratio_driven", "string", "Design of the wings : 'aspect_ratio_driven' or 'span_driven'"],
            "area": [161.487, "m2", "Geometric reference area of the lifting surface"],
            "span": [42.1468, "m", "Spanwise dimension of the lifting surface"],
            "aspect_ratio": [11, "no_dim", "Aspect ratio of the lifting surface"],
            "taper_ratio": [0.2, "no_dim", "Taper ratio of the lifting surface"],
            "dihedral": [5, "deg", "Dihedral angle of the lifting surface"],
            "sweep0": [null, "deg", "Leading edge sweep angle of the lifting surface"],
            "sweep25": [25.6685, "deg", "Sweep angle at 25% of the chords of the lifting surface"],
            "sweep100": [null, "deg", "Trailing edge sweep angle of the lifting surface"],
            "setting": [1.09317, "deg", "Setting angle of the lifting surface"],
            "hld_type": [9, "int", "Type of high lift devices (0,1,2,....,10)"],
            "front_spar_ratio": [0.15, "no_dim", "Relative chord position of front spar"],
            "rear_spar_ratio": [0.7, "no_dim", "Relative chord position of rear spar"],
            "x_root": [13.438, "m", "X wise position of the root chord of the wing"],
            "root_loc": [[13.438, 1.674, 0], "m", "Position of the root chord of the lifting surface"],
            "root_toc": [0.14, "no_dim", "Thickness to chord ratio of the root chord of the lifting surface"],
            "root_c": [6.69856, "m", "Root chord length of the lifting surface"],
            "kink_loc": [[15.2329, 5.022, 0.292912], "m", "Position of the kink chord of the lifting surface"],
            "kink_toc": [0.11, "no_dim", "Thickness to chord ratio of the kink chord of the lifting surface"],
            "kink_c": [4.9037, "m", "Kink chord length of the lifting surface"],
            "tip_loc": [[23.8381, 21.0734, 1.69723], "m", "Position of the tip chord of the lifting surface"],
            "tip_toc": [0.1, "no_dim", "Thickness to chord ratio of the tip chord of the lifting surface"],
            "tip_c": [1.33971, "m", "Tip chord length of the lifting surface"],
            "mac_loc": [[16.9187, 8.05025, null], "m", "Position of the mean aerodynamic chord of the lifting surface"],
            "mac": [4.48452, "m", "Mean aerodynamic chord length of the lifting surface"],
            "mass_correction_factor": [1, "no_dim", "Factor on all component mass except engines and systems"]
        },
        "cargo": {
            "frame_origin": [[3.6828, 0, 0], "m", "Position of the reference point of the component in the assembly"],
            "mass": [0, "kg", "Masse of the component"],
            "cg": [[0, 0, 0], "m", "Position of the center of gravity of the component in the assembly"],
            "inertia_tensor": [[[null, null, null], [null, null, null], [null, null, null]], "kg.m2", "Inertia tensor of the component in its reference point"],
            "gross_wet_area": [0, "m2", "Gross wetted area of the component"],
            "net_wet_area": [0, "m2", "Net wetted area of the component"],
            "aero_length": [1, "m", "Characteristic length of the component for friction drag estimation"],
            "form_factor": [0, "no_dim", "Form factor of the conponent for form and friction drag estimation"],
            "container_pallet_mass": [null, "kg", "Container & pallet mass if any"],
            "freight_max_fwd_cg": [[0, 0, 0], "m", "Maximum forward position of the freight"],
            "freight_max_fwd_mass": [0, "kg", "Mass corresponding to maximum forward position of the freight"],
            "freight_max_bwd_cg": [[0, 0, 0], "m", "Maximum backward position of the freight"],
            "freight_max_bwd_mass": [0, "kg", "Mass corresponding to maximum backward position of the freight"]
        },
        "horizontal_stab": {
            "frame_origin": [[33.1991, 0, 2.81232], "m", "Position of the reference point of the component in the assembly"],
            "mass": [836.923, "kg", "Masse of the component"],
            "cg": [[35.7957, 3.32021, 0.814581], "m", "Position of the center of gravity of the component in the assembly"],
            "inertia_tensor": [[[null, null, null], [null, null, null], [null, null, null]], "kg.m2", "Inertia tensor of the component in its reference point"],
            "gross_wet_area": [62.0084, "m2", "Gross wetted area of the component"],
            "net_wet_area": [62.0084, "m2", "Net wetted area of the component"],
            "aero_length": [2.76968, "m", "Characteristic length of the component for friction drag estimation"],
            "form_factor": [1.4, "no_dim", "Form factor of the conponent for form and friction drag estimation"],
            "area": [38.0419, "m2", "Geometric reference area of the lifting surface"],
            "span": [13.7917, "m", "Spanwise dimension of the lifting surface"],
            "aspect_ratio": [5, "no_dim", "Aspect ratio of the lifting surface"],
            "taper_ratio": [0.8, "no_dim", "Taper ratio of the lifting surface"],
            "toc": [0.1, "no_dim", "Thickness to chord ratio of the lifting surface"],
            "sweep25": [30.6685, "deg", "Sweep angle at 25% of the chords of the lifting surface"],
            "dihedral": [5, "deg", "Dihedral angle of the lifting surface"],
            "volume_factor": [0.94, "no_dim", "Volume coefficient of the horizontal stabilizer"],
            "lever_arm": [17.8944, "m", "Lever arm of the stabilization surface, 25%cma wing to 25% cma surface"],
            "axe_loc": [[33.1991, 0, 2.81232], "m", "Position of the central chord of the lifting surface"],
            "axe_c": [3.06481, "m", "Central chord length of the lifting surface"],
            "tip_loc": [[37.4416, 6.89583, 3.41563], "m", "Position of the tip chord of the lifting surface"],
            "tip_c": [2.45185, "m", "Tip chord length of the lifting surface"],
            "mac_loc": [[35.2418, 3.32021, 0.814581], "m", "Position of the mean aerodynamic chord of the lifting surface"],
            "mac": [2.76968, "m", "Mean aerodynamic chord length of the lifting surface"],
            "mass_correction_factor": [1, "no_dim", "Factor on all component mass except engines and systems"]
        },
        "vertical_stab": {
            "frame_origin": [[37.4416, 6.89583, 3.41563], "m", "Position of the reference point of the component in the assembly"],
            "mass": [275.453, "kg", "Masse of the component"],
            "cg": [[39.5163, 6.89583, 5.89986], "m", "Position of the center of gravity of the component in the assembly"],
            "inertia_tensor": [[[null, null, null], [null, null, null], [null, null, null]], "kg.m2", "Inertia tensor of the component in its reference point"],
            "gross_wet_area": [22.1464, "m2", "Gross wetted area of the component"],
            "net_wet_area": [22.1464, "m2", "Net wetted area of the component"],
            "aero_length": [2.87617, "m", "Characteristic length of the component for friction drag estimation"],
            "form_factor": [1.4, "no_dim", "Form factor of the conponent for form and friction drag estimation"],
            "airplane_side": ["right", "string", "mounting side of the component, 'right' or 'left'"],
            "area": [11.0181, "m2", "Geometric reference area of the lifting surface"],
            "height": [4.06536, "m", "Height of the component"],
            "aspect_ratio": [1.5, "no_dim", "Aspect ratio of the lifting surface"],
            "taper_ratio": [0.4, "no_dim", "Taper ratio of the lifting surface"],
            "toc": [0.1, "no_dim", "Thickness to chord ratio of the lifting surface"],
            "sweep25": [35.6685, "deg", "Sweep angle at 25% of the chords of the lifting surface"],
            "thrust_volume_factor": [0.4, "no_dim", "Volume coefficient of the vertical stabilizer according to engine failure"],
            "wing_volume_factor": [0.07, "no_dim", "Volume coefficient of the vertical stabilizer according to wing"],
            "lever_arm": [21.6203, "m", "Lever arm of the stabilization surface, 25%cma wing to 25% cma surface"],
            "root_loc": [[37.4416, 6.89583, 3.41563], "m", "Position of the root chord of the lifting surface"],
            "root_c": [3.87177, "m", "Root chord length of the lifting surface"],
            "tip_loc": [[40.9403, 6.89583, 7.48099], "m", "Position of the tip chord of the lifting surface"],
            "tip_c": [1.54871, "m", "Tip chord length of the lifting surface"],
            "mac_loc": [[38.9411, 6.89583, 5.89986], "m", "Position of the mean aerodynamic chord of the lifting surface"],
            "mac": [2.87617, "m", "Mean aerodynamic chord length of the lifting surface"],
            "mass_correction_factor": [1, "no_dim", "Factor on all component mass except engines and systems"]
        },
        "other_vertical_stab": {
            "frame_origin": [[37.4416, 6.89583, 3.41563], "m", "Position of the reference point of the component in the assembly"],
            "mass": [null, "kg", "Masse of the component"],
            "cg": [[null, null, null], "m", "Position of the center of gravity of the component in the assembly"],
            "inertia_tensor": [[[null, null, null], [null, null, null], [null, null, null]], "kg.m2", "Inertia tensor of the component in its reference point"],
            "gross_wet_area": [22.1464, "m2", "Gross wetted area of the component"],
            "net_wet_area": [22.1464, "m2", "Net wetted area of the component"],
            "aero_length": [2.87617, "m", "Characteristic length of the component for friction drag estimation"],
            "form_factor": [1.4, "no_dim", "Form factor of the conponent for form and friction drag estimation"],
            "airplane_side": ["left", "string", "mounting side of the component, 'right' or 'left'"],
            "area": [11.0181, "m2", "Geometric reference area of the lifting surface"],
            "height": [4.06536, "m", "Height of the component"],
            "aspect_ratio": [1.5, "no_dim", "Aspect ratio of the lifting surface"],
            "taper_ratio": [0.4, "no_dim", "Taper ratio of the lifting surface"],
            "toc": [0.1, "no_dim", "Thickness to chord ratio of the lifting surface"],
            "sweep25": [35.6685, "deg", "Sweep angle at 25% of the chords of the lifting surface"],
            "thrust_volume_factor": [0.4, "no_dim", "Volume coefficient of the vertical stabilizer according to engine failure"],
            "wing_volume_factor": [0.07, "no_dim", "Volume coefficient of the vertical stabilizer according to wing"],
            "lever_arm": [21.6203, "m", "Lever arm of the stabilization surface, 25%cma wing to 25% cma surface"],
            "root_loc": [[37.4416, -6.89583, 3.41563], "m", "Position of the root chord of the lifting surface"],
            "root_c": [3.87177, "m", "Root chord length of the lifting surface"],
            "tip_loc": [[40.9403, -6.89583, 7.48099], "m", "Position of the tip chord of the lifting surface"],
            "tip_c": [1.54871, "m", "Tip chord length of the lifting surface"],
            "mac_loc": [[38.9411, -6.89583, 5.89986], "m", "Position of the mean aerodynamic chord of the lifting surface"],
            "mac": [2.87617, "m", "Mean aerodynamic chord length of the lifting surface"],
            "mass_correction_factor": [1, "no_dim", "Factor on all component mass except engines and systems"]
        },
        "tank": {
            "frame_origin": [[7.268, 0, 6.13236], "m", "Position of the reference point of the component in the assembly"],
            "mass": [18638.8, "kg", "Masse of the component"],
            "cg": [[18.125, 7.268, 7.268], "m", "Position of the center of gravity of the component in the assembly"],
            "inertia_tensor": [[[null, null, null], [null, null, null], [null, null, null]], "kg.m2", "Inertia tensor of the component in its reference point"],
            "gross_wet_area": [193.182, "m2", "Gross wetted area of the component"],
            "net_wet_area": [193.182, "m2", "Net wetted area of the component"],
            "aero_length": [24.1267, "m", "Characteristic length of the component for friction drag estimation"],
            "form_factor": [1.05, "no_dim", "Form factor of the conponent for form and friction drag estimation"],
            "mfw_factor": [1.72333, "no_dim", "Driver of MFW in MDA_plus mode"],
            "structure_shell_thickness": [0.08, "m", "Tank structural shell thickness"],
            "structure_shell_surface_mass": [15, "kg/m2", "Surface mass of the tank structural shell"],
            "gravimetric_index": [0.3, "no_dim", "Tank gravimetric index, kg-LH2 / kg-LH2+Tank"],
            "volumetric_index": [0.845, "no_dim", "Tank volumetric index, m3-LH2 / m3-LH2+Tank"],
            "dry_bay_length": [2, "m", "Length of the dry bay inside a tank"],
            "pod_tank_built_area": [180.265, "m2", "External built area of pod tank"],
            "pod_tank_overall_volume": [128.13, "m3", "Overall volume of pod tank"],
            "pod_tank_internal_volume": [114.151, "m3", "Internal volume of pod tank"],
            "pod_tank_shell_volume": [13.9784, "m3", "Volume of the structural shell of pod tank"],
            "pod_tank_shell_mass": [2703.97, "kg", "Mass of the structural shell of pod tank"],
            "shell_specific_volume": [17.6935, "m3", "Tank insulation volume"],
            "fuel_volume": [96.458, "m3", "Maximum fuel volume in the tank"],
            "shell_specific_mass": [15934.9, "kg", "Tank insulation mass"],
            "fuel_mass": [6829.22, "kg", "Maximum fuel mass in the tank"],
            "fuel_pressure": [10, "bar", "Maximum over pressure of the fuel in the tank"],
            "fuel_density": [70.8, "kg/m3", "Density of the used storage medium"],
            "width": [3, "no_dim", "Tank front diameter for rear fuselage tank"],
            "ref_length": [14, "m", "Reference length of the component"],
            "length": [24.1267, "m", "Length of the component"],
            "x_loc_ratio": [0.4, "no_dim", "Fraction of the component length behind the wing"],
            "z_loc_ratio": [0.85, "no_dim", "Fraction of the component width behind the wing"],
            "wing_axe_c": [6.69856, "m", "Wing chord length at component axis span wise position"],
            "wing_axe_x": [13.438, "m", "X wise position of the wing chord at component axis span wise position"],
            "wing_axe_z": [0, "m", "Z wise position of the wing chord at component axis span wise position"],
            "max_volume": [96.458, "m3", "Total available volume for fuel"],
            "mfw_volume_limited": [6829.22, "kg", "Maximum fuel mass according to available volume"],
            "fuel_max_fwd_cg": [[18.125, 7.268, 7.268], "m", "Maximum forward position of the fuel"],
            "fuel_max_fwd_mass": [6829.22, "kg", "Fuel mass corresponding to mximum forward position"],
            "fuel_max_bwd_cg": [[18.125, 7.268, 7.268], "m", "Maximum backward position of the fuel"],
            "fuel_max_bwd_mass": [6829.22, "kg", "Fuel mass corresponding to mximum backward position"]
        },
        "tank_analysis_order": [["tank"], "string", "Gives the tank component list"],
        "landing_gear": {
            "frame_origin": [19.1318, "m", "Position of the reference point of the component in the assembly"],
            "mass": [2711.41, "kg", "Masse of the component"],
            "cg": [19.1318, "m", "Position of the center of gravity of the component in the assembly"],
            "inertia_tensor": [[[null, null, null], [null, null, null], [null, null, null]], "kg.m2", "Inertia tensor of the component in its reference point"],
            "gross_wet_area": [0, "m2", "Gross wetted area of the component"],
            "net_wet_area": [0, "m2", "Net wetted area of the component"],
            "aero_length": [1, "m", "Characteristic length of the component for friction drag estimation"],
            "form_factor": [0, "no_dim", "Form factor of the conponent for form and friction drag estimation"],
            "mass_correction_factor": [1, "no_dim", "Factor on all component mass except engines and systems"]
        },
        "system": {
            "frame_origin": [[0, 0, 0], "m", "Position of the reference point of the component in the assembly"],
            "mass": [6454.35, "kg", "Masse of the component"],
            "cg": [[20.197, 4.91932, 2.85701], "m", "Position of the center of gravity of the component in the assembly"],
            "inertia_tensor": [[[null, null, null], [null, null, null], [null, null, null]], "kg.m2", "Inertia tensor of the component in its reference point"],
            "gross_wet_area": [0, "m2", "Gross wetted area of the component"],
            "net_wet_area": [0, "m2", "Net wetted area of the component"],
            "aero_length": [1, "m", "Characteristic length of the component for friction drag estimation"],
            "form_factor": [0, "no_dim", "Form factor of the conponent for form and friction drag estimation"],
            "chain_power": [3000, "kW", "Electric chain power"],
            "battery": ["no", "string", "Use of battery, 'yes', 'no'"],
            "battery_density": [2800, "kg/m3", "Battery density"],
            "battery_energy_density": [0.4, "kWh/kg", "Battery energy density"],
            "lto_power": [0, "kW", "Battery power reserve for take off and landing"],
            "lto_time": [0, "min", "Duration of availability of the power reserve"],
            "cruise_energy": [0, "kWh", "Stored energy dedicated to the cruise phase"],
            "generator_efficiency": [0.95, "no_dim", "Electric generator efficiency"],
            "generator_pw_density": [5, "kW/kg", "Electric generator power density"],
            "rectifier_efficiency": [0.99, "no_dim", "Electric rectifier efficiency"],
            "rectifier_pw_density": [15, "kW/kg", "Electric rectifier power density"],
            "wiring_efficiency": [0.995, "no_dim", "Electric wiring efficiency"],
            "wiring_pw_density": [20, "kW/kg", "Electric wiring power density"],
            "cooling_efficiency": [0.995, "no_dim", "Cooling efficiency, ex: 0.01 means that the required power to cool the system is 1% of the dissipated power"],
            "cooling_pw_density": [5, "kW/kg", "Cooling power density, the ratio of the dissipated power over the required system mass to dissipate it"],
            "power_chain_efficiency": [0.875717, "no_dim", "Global efficiency of the electric power chain"],
            "battery_mass": [0, "kg", "Required battery mass"],
            "power_chain_mass": [1769.98, "no_dim", "Mass of power electric sub system"],
            "chain_power_body": [1500, "kW", "Electric power of body mounted chain"],
            "chain_power_piggyback": [1500, "kW", "Electric power of the piggyback mounted chain"]
        },
        "nacelle": {
            "frame_origin": [[13.6616, 5.9781, -0.568542], "m", "Position of the reference point of the component in the assembly"],
            "mass": [4131.2, "kg", "Masse of the component"],
            "cg": [[15.7455, 5.9781, -0.568542], "m", "Position of the center of gravity of the component in the assembly"],
            "inertia_tensor": [[[null, null, null], [null, null, null], [null, null, null]], "kg.m2", "Inertia tensor of the component in its reference point"],
            "gross_wet_area": [18.5614, "m2", "Gross wetted area of the component"],
            "net_wet_area": [18.5614, "m2", "Net wetted area of the component"],
            "aero_length": [2.97698, "m", "Characteristic length of the component for friction drag estimation"],
            "form_factor": [1.15, "no_dim", "Form factor of the conponent for form and friction drag estimation"],
            "eis_date": [6.37464e+10, "int", "Entry into service date"],
            "rating_factor": {
                "MTO": [1, "no_dim", "Max Takeoff rating factor"],
                "MCN": [0.9, "no_dim", "Maxi Continuous rating factor"],
                "MCL": [0.85, "no_dim", "Max Climb rating factor"],
                "MCR": [0.57, "no_dim", "Max Cruise rating factor"],
                "FID": [0.05, "no_dim", "Flight idle rating factor"]
            },
            "reference_offtake": [1712.88, "kW", "Refrence power offtake for design"],
            "engine_bpr": [9, "no_dim", "Reference By Pass Ratio of the engine"],
            "engine_opr": [50, "no_dim", "Reference Overall Pressure Ratio of the engine"],
            "engine_fpr": [1.5, "no_dim", "Reference Fan Pressure Ratio of the engine"],
            "core_thrust_ratio": [0.13, "no_dim", "Reference ratio of the total thrust delivered by the core"],
            "propeller_efficiency": [0.82, "no_dim", "Propeller like fan efficiency Thrust.Speed/shaft_power"],
            "fan_efficiency": [0.9, "no_dim", "Fan efficiency, Kinetic power delivered to the air flow devided by shaft power"],
            "lateral_margin": [1, "no_dim", "Lateral margin as a fraction of nacelle width"],
            "vertical_margin": [1, "no_dim", "vertical margin as a fraction of nacelle width"],
            "hub_width": [0.4, "m", "Fan hub diameter"],
            "fan_width": [1.68465, "m", "Fan diameter"],
            "nozzle_width": [1.33845, "m", "Nozzle diameter"],
            "nozzle_area": [1.28133, "m2", "Nozzle area"],
            "sea_level_static_thrust": [9935.16, "daN", "Engine max thrust at sea level zero speed"],
            "width": [1.98465, "no_dim", "Tank front diameter for rear fuselage tank"],
            "length": [2.97698, "m", "Length of the component"],
            "propeller_mass": [0, "kg", "Propeller mass if any"],
            "engine_mass": [3733.79, "kg", "Engine mass"],
            "pylon_mass": [397.407, "kg", "Pylon mass if any"],
            "airplane_side": ["right", "string", "mounting side of the component, 'right' or 'left'"],
            "nacelle_wing_chord": [4.69141, "m", "Wing chord at nacelle Y wise position, wing engine only"],
            "nacelle_wing_chord_loc": [[15.7455, 5.9781, 0.376561], "m", "Wing chord position at nacelle Y wise position, wing engine only"]
        },
        "other_nacelle": {
            "frame_origin": [[13.6616, -5.9781, -0.568542], "m", "Position of the reference point of the component in the assembly"],
            "mass": [4131.2, "kg", "Masse of the component"],
            "cg": [[15.7455, -5.9781, -0.568542], "m", "Position of the center of gravity of the component in the assembly"],
            "inertia_tensor": [[[null, null, null], [null, null, null], [null, null, null]], "kg.m2", "Inertia tensor of the component in its reference point"],
            "gross_wet_area": [18.5614, "m2", "Gross wetted area of the component"],
            "net_wet_area": [18.5614, "m2", "Net wetted area of the component"],
            "aero_length": [2.97698, "m", "Characteristic length of the component for friction drag estimation"],
            "form_factor": [1.15, "no_dim", "Form factor of the conponent for form and friction drag estimation"],
            "eis_date": [6.37464e+10, "int", "Entry into service date"],
            "rating_factor": {
                "MTO": [1, "no_dim", "Max Takeoff rating factor"],
                "MCN": [0.9, "no_dim", "Maxi Continuous rating factor"],
                "MCL": [0.85, "no_dim", "Max Climb rating factor"],
                "MCR": [0.57, "no_dim", "Max Cruise rating factor"],
                "FID": [0.05, "no_dim", "Flight idle rating factor"]
            },
            "reference_offtake": [1712.88, "kW", "Refrence power offtake for design"],
            "engine_bpr": [9, "no_dim", "Reference By Pass Ratio of the engine"],
            "engine_opr": [50, "no_dim", "Reference Overall Pressure Ratio of the engine"],
            "engine_fpr": [1.5, "no_dim", "Reference Fan Pressure Ratio of the engine"],
            "core_thrust_ratio": [0.13, "no_dim", "Reference ratio of the total thrust delivered by the core"],
            "propeller_efficiency": [0.82, "no_dim", "Propeller like fan efficiency Thrust.Speed/shaft_power"],
            "fan_efficiency": [0.9, "no_dim", "Fan efficiency, Kinetic power delivered to the air flow devided by shaft power"],
            "lateral_margin": [1, "no_dim", "Lateral margin as a fraction of nacelle width"],
            "vertical_margin": [1, "no_dim", "vertical margin as a fraction of nacelle width"],
            "hub_width": [0.4, "m", "Fan hub diameter"],
            "fan_width": [1.68465, "m", "Fan diameter"],
            "nozzle_width": [1.33845, "m", "Nozzle diameter"],
            "nozzle_area": [1.28133, "m2", "Nozzle area"],
            "sea_level_static_thrust": [9935.16, "daN", "Engine max thrust at sea level zero speed"],
            "width": [1.98465, "no_dim", "Tank front diameter for rear fuselage tank"],
            "length": [2.97698, "m", "Length of the component"],
            "propeller_mass": [0, "kg", "Propeller mass if any"],
            "engine_mass": [3733.79, "kg", "Engine mass"],
            "pylon_mass": [397.407, "kg", "Pylon mass if any"],
            "airplane_side": ["left", "string", "mounting side of the component, 'right' or 'left'"],
            "nacelle_wing_chord": [4.69141, "m", "Wing chord at nacelle Y wise position, wing engine only"],
            "nacelle_wing_chord_loc": [[15.7455, 5.9781, 0.376561], "m", "Wing chord position at nacelle Y wise position, wing engine only"]
        },
        "tail_nacelle": {
            "frame_origin": [[37.9965, 0, 3.0584], "m", "Position of the reference point of the component in the assembly"],
            "mass": [593.697, "kg", "Masse of the component"],
            "cg": [[39.443, 0, 3.0584], "m", "Position of the center of gravity of the component in the assembly"],
            "inertia_tensor": [[[null, null, null], [null, null, null], [null, null, null]], "kg.m2", "Inertia tensor of the component in its reference point"],
            "gross_wet_area": [8.94368, "m2", "Gross wetted area of the component"],
            "net_wet_area": [8.94368, "m2", "Net wetted area of the component"],
            "aero_length": [2.06647, "m", "Characteristic length of the component for friction drag estimation"],
            "form_factor": [1.15, "no_dim", "Form factor of the conponent for form and friction drag estimation"],
            "tail_cone_height_ratio": [0.87, "no_dim", "Relative vertical position of the body tail cone"],
            "specific_nacelle_cost": [0.05, "$/kg", "Specific maintenance cost per trip for tail cone mounted nacelle"],
            "bli_effect": ["yes", "string", "Taking into account boundary layer ingestion, 'yes' or 'no'"],
            "hub_width": [0.2, "m", "Fan hub diameter"],
            "body_width": [3.348, "m", "Width of the component generating the boundary layer"],
            "body_length": [37.9965, "m", "Length of the component generating the boundary layer"],
            "bnd_layer": [[[0.001, 0.0160553], [0.0634583, 0.47397], [0.125917, 0.729808], [0.188375, 0.931949], [0.250833, 1.10582], [0.313292, 1.26164], [0.37575, 1.4047], [0.438208, 1.5382], [0.500667, 1.66419], [0.563125, 1.78412], [0.625583, 1.89903], [0.688042, 2.00971], [0.7505, 2.11677], [0.812958, 2.2207], [0.875417, 2.32187], [0.937875, 2.42062], [1.00033, 2.5172], [1.06279, 2.61185], [1.12525, 2.70475], [1.18771, 2.79606], [1.25017, 2.88593], [1.31262, 2.97448], [1.37508, 3.06182], [1.43754, 3.14804], [0, 0]], "m", "Thickness of the boundary layer in front of the engine"],
            "eis_date": [2020, "int", "Entry into service date"],
            "rating_factor": {
                "MTO": [1, "no_dim", "Max Takeoff rating factor"],
                "MCN": [0.9, "no_dim", "Maxi Continuous rating factor"],
                "MCL": [0.9, "no_dim", "Max Climb rating factor"],
                "MCR": [0.9, "no_dim", "Max Cruise rating factor"],
                "FID": [0.05, "no_dim", "Flight idle rating factor"]
            },
            "propeller_efficiency": [0.82, "no_dim", "Propeller like fan efficiency Thrust.Speed/shaft_power"],
            "fan_efficiency": [0.95, "no_dim", "Fan efficiency, Kinetic power delivered to the air flow devided by shaft power"],
            "engine_fpr": [1.3, "no_dim", "Reference Fan Pressure Ratio of the engine"],
            "controller_efficiency": [0.99, "no_dim", "Electric controller efficiency"],
            "controller_pw_density": [15, "kW/kg", "Electric controller power density"],
            "motor_efficiency": [0.95, "no_dim", "Electric motor efficiency"],
            "motor_pw_density": [5, "kW/kg", "Electric motor power density"],
            "nacelle_pw_density": [10, "kW/kg", "Electric nacelle power density"],
            "lateral_margin": [1, "no_dim", "Lateral margin as a fraction of nacelle width"],
            "vertical_margin": [1, "no_dim", "vertical margin as a fraction of nacelle width"],
            "fan_width": [1.07765, "m", "Fan diameter"],
            "nozzle_area": [0.58177, "m2", "Nozzle area"],
            "width": [1.37765, "no_dim", "Tank front diameter for rear fuselage tank"],
            "length": [2.06647, "m", "Length of the component"],
            "propeller_mass": [0, "kg", "Propeller mass if any"],
            "engine_mass": [550, "kg", "Engine mass"],
            "pylon_mass": [43.697, "kg", "Pylon mass if any"],
            "nozzle_width": [0.883591, "m", "Nozzle diameter"]
        },
        "other_tail_nacelle": {
            "frame_origin": [[31.3947, 0, 6.13236], "m", "Position of the reference point of the component in the assembly"],
            "mass": [593.697, "kg", "Masse of the component"],
            "cg": [[32.8412, 0, 6.13236], "m", "Position of the center of gravity of the component in the assembly"],
            "inertia_tensor": [[[null, null, null], [null, null, null], [null, null, null]], "kg.m2", "Inertia tensor of the component in its reference point"],
            "gross_wet_area": [8.94368, "m2", "Gross wetted area of the component"],
            "net_wet_area": [8.94368, "m2", "Net wetted area of the component"],
            "aero_length": [2.06647, "m", "Characteristic length of the component for friction drag estimation"],
            "form_factor": [1.15, "no_dim", "Form factor of the conponent for form and friction drag estimation"],
            "specific_nacelle_cost": [0.05, "$/kg", "Specific maintenance cost per trip for tail cone mounted nacelle"],
            "hub_width": [0.2, "m", "Fan hub diameter"],
            "bli_effect": ["yes", "string", "Taking into account boundary layer ingestion, 'yes' or 'no'"],
            "body_width": [3, "m", "Width of the component generating the boundary layer"],
            "body_length": [24.1267, "m", "Length of the component generating the boundary layer"],
            "bnd_layer": [[[0.001, 0.0144462], [0.0634583, 0.441894], [0.125917, 0.683874], [0.188375, 0.875633], [0.250833, 1.04092], [0.313292, 1.1893], [0.37575, 1.32575], [0.438208, 1.45326], [0.500667, 1.57377], [0.563125, 1.68862], [0.625583, 1.79881], [0.688042, 1.90506], [0.7505, 2.00794], [0.812958, 2.10792], [0.875417, 2.20535], [0.937875, 2.30053], [1.00033, 2.39372], [1.06279, 2.48512], [1.12525, 2.5749], [1.18771, 2.66323], [1.25017, 2.75023], [1.31262, 2.83602], [1.37508, 2.92069], [1.43754, 3.00434], [0, 0]], "m", "Thickness of the boundary layer in front of the engine"],
            "eis_date": [2020, "int", "Entry into service date"],
            "rating_factor": {
                "MTO": [1, "no_dim", "Max Takeoff rating factor"],
                "MCN": [0.9, "no_dim", "Maxi Continuous rating factor"],
                "MCL": [0.9, "no_dim", "Max Climb rating factor"],
                "MCR": [0.9, "no_dim", "Max Cruise rating factor"],
                "FID": [0.05, "no_dim", "Flight idle rating factor"]
            },
            "propeller_efficiency": [0.82, "no_dim", "Propeller like fan efficiency Thrust.Speed/shaft_power"],
            "fan_efficiency": [0.95, "no_dim", "Fan efficiency, Kinetic power delivered to the air flow devided by shaft power"],
            "engine_fpr": [1.3, "no_dim", "Reference Fan Pressure Ratio of the engine"],
            "controller_efficiency": [0.99, "no_dim", "Electric controller efficiency"],
            "controller_pw_density": [15, "kW/kg", "Electric controller power density"],
            "motor_efficiency": [0.95, "no_dim", "Electric motor efficiency"],
            "motor_pw_density": [5, "kW/kg", "Electric motor power density"],
            "nacelle_pw_density": [10, "kW/kg", "Electric nacelle power density"],
            "lateral_margin": [1, "no_dim", "Lateral margin as a fraction of nacelle width"],
            "vertical_margin": [1, "no_dim", "vertical margin as a fraction of nacelle width"],
            "fan_width": [1.07765, "m", "Fan diameter"],
            "nozzle_area": [0.58177, "m2", "Nozzle area"],
            "width": [1.37765, "no_dim", "Tank front diameter for rear fuselage tank"],
            "length": [2.06647, "m", "Length of the component"],
            "propeller_mass": [0, "kg", "Propeller mass if any"],
            "engine_mass": [550, "kg", "Engine mass"],
            "pylon_mass": [43.697, "kg", "Pylon mass if any"],
            "nozzle_width": [0.883591, "m", "Nozzle diameter"]
        }
    },
    "power_system": {
        "data": {
            "MTO": {
                "disa": [null, "degK", "Temperature shift versus ISA conditions"],
                "altp": [null, "ft", "Target pressure altitude"],
                "mach": [null, "mach", "Mach number"],
                "nei": [1, "int", "Number of engine inoperative, typically 0 or 1"],
                "kfn_opt": [null, "no_dim", "Ratio required thrust over effective engine thrust"],
                "thrust_opt": [null, "daN", "Required engine thrust"],
                "thrust": [null, "daN", "Engine thrust"],
                "fuel_flow": [null, "kg/s", "Fuel flow"],
                "tsfc": [null, "kg/daN/h", "Specific Fuel Consumption versus thrust"],
                "T41": [null, "Kelvin", "Temperature just after combustion chamber (turbine entry)"]
            },
            "MCN": {
                "disa": [null, "degK", "Temperature shift versus ISA conditions"],
                "altp": [null, "ft", "Target pressure altitude"],
                "mach": [null, "mach", "Mach number"],
                "nei": [1, "int", "Number of engine inoperative, typically 0 or 1"],
                "kfn_opt": [null, "no_dim", "Ratio required thrust over effective engine thrust"],
                "thrust_opt": [null, "daN", "Required engine thrust"],
                "thrust": [null, "daN", "Engine thrust"],
                "fuel_flow": [null, "kg/s", "Fuel flow"],
                "tsfc": [null, "kg/daN/h", "Specific Fuel Consumption versus thrust"],
                "T41": [null, "Kelvin", "Temperature just after combustion chamber (turbine entry)"]
            },
            "MCL": {
                "disa": [null, "degK", "Temperature shift versus ISA conditions"],
                "altp": [null, "ft", "Target pressure altitude"],
                "mach": [null, "mach", "Mach number"],
                "nei": [0, "int", "Number of engine inoperative, typically 0 or 1"],
                "kfn_opt": [null, "no_dim", "Ratio required thrust over effective engine thrust"],
                "thrust_opt": [null, "daN", "Required engine thrust"],
                "thrust": [null, "daN", "Engine thrust"],
                "fuel_flow": [null, "kg/s", "Fuel flow"],
                "tsfc": [null, "kg/daN/h", "Specific Fuel Consumption versus thrust"],
                "T41": [null, "Kelvin", "Temperature just after combustion chamber (turbine entry)"]
            },
            "MCR": {
                "disa": [null, "degK", "Temperature shift versus ISA conditions"],
                "altp": [null, "ft", "Target pressure altitude"],
                "mach": [null, "mach", "Mach number"],
                "nei": [0, "int", "Number of engine inoperative, typically 0 or 1"],
                "kfn_opt": [null, "no_dim", "Ratio required thrust over effective engine thrust"],
                "thrust_opt": [null, "daN", "Required engine thrust"],
                "thrust": [null, "daN", "Engine thrust"],
                "fuel_flow": [null, "kg/s", "Fuel flow"],
                "tsfc": [null, "kg/daN/h", "Specific Fuel Consumption versus thrust"],
                "T41": [null, "Kelvin", "Temperature just after combustion chamber (turbine entry)"]
            }
        },
        "sfc_correction": [1, "no_dim", "Factor on tsfc or psfc"],
        "n_engine": [2, "int", "Numeric number of engine"],
        "reference_thrust": [12573.3, "daN", "Engine reference thrust, thrust(sea level, ISA+15, Mach 0.25)/0.8"],
        "sfc_type": ["thrust", "string", "Type of Specific Fuel Consumption, 'thrust' or 'power'"]
    },
    "aerodynamics": {
        "kcx_correction": [1, "no_dim", "Factor on airplane total drag coefficient"],
        "dcx_correction": [0, "no_dim", "Additive correction on airplane total drag coefficient"],
        "cruise_lodmax": [19.7845, "no_dim", "Maximum lift over Drag ratio in cruise"],
        "cz_cruise_lodmax": [0.712828, "no_dim", "Lift coefficient for maximum lift over Drag ratio in cruise"],
        "hld_conf_clean": [0, "no_dim", "Deflection parameter corresponding to high lift devices retracted, typically 0"],
        "czmax_conf_clean": [1.25413, "no_dim", "Maximum lift coefficient with high lift devices retracted"],
        "hld_conf_to": [0.3, "no_dim", "Deflection parameter corresponding to high lift devices in take off configuration"],
        "czmax_conf_to": [1.96336, "no_dim", "Maximum lift coefficient with high lift devices in take off configuration"],
        "hld_conf_ld": [1, "no_dim", "Deflection parameter corresponding to high lift devices in landing configuration, typically 1"],
        "czmax_conf_ld": [2.50826, "no_dim", "Maximum lift coefficient with high lift devices in landing configuration"]
    },
    "weight_cg": {
        "mtow": [82759.6, "kg", "Maximum Take Off Weight"],
        "mzfw": [79070, "kg", "Maximum Zero Fuel Weight"],
        "mlw": [80651.4, "kg", "Maximum Landing Weight"],
        "owe": [62870, "kg", "Operational Weight Empty"],
        "mwe": [60139.7, "kg", "Manufacturer Weight Empty"],
        "mfw": [6829.22, "kg", "Maximum Fuel Weight"],
        "breakdown": {
            "owe": [62870, "kg", "Operational Weight Empty"],
            "op_item_mass": [2730.22, "kg", "Operator items mass (crews, water, food, ...)"],
            "container_pallet_mass": [0, "kg", "Container & pallet mass if any"],
            "mwe": [60139.7, "kg", "Manufacturer Weight Empty"],
            "furnishing_mass": [2465.77, "kg", "Furnishing mass (seats, monuments, toilets, ...)"],
            "wing_mass": [12373, "kg", "Wing mass"],
            "body_mass": [6934.24, "kg", "Main body mass"],
            "htp_mass": [836.923, "kg", "Horizontal stabilizer mass"],
            "vtp_mass": [275.453, "kg", "Vertical stabilizer mass"],
            "tank_mass": [18638.8, "kg", "Tank mass"],
            "ldg_mass": [2711.41, "kg", "Landing gear mass"],
            "system_mass": [6454.35, "kg", "System mass"],
            "propeller_mass": [0, "kg", "Propeller mass if any"],
            "engine_mass": [7467.58, "kg", "Engine mass"],
            "pylon_mass": [794.813, "kg", "Pylon mass if any"]
        },
        "owe_cg": [[19.0183, 5.01467, 3.57549], "m", "Center of gravity at Operational Weight Empty"]
    },
    "handling_quality": {
        "static_stab_margin": [0.05, "no_dim", "Minimal static margin in CMA ratio"],
        "forward_cg_mass": [74992.7, "kg", "Total mass corresponding to required max forward CG"],
        "forward_cg_req": [[18.3612, 4.8659, 3.65937], "m", "Required max forward CG position"],
        "forward_cg_stall": [16.6631, "m", "Allowable max forward CG position according to stall demonstration"],
        "backward_cg_mass": [76563.5, "kg", "Total mass corresponding to required max backward CG"],
        "backward_cg_req": [[19.6855, 4.76606, 3.58429], "m", "Required max backward CG position"],
        "backward_cg_stab": [20.6536, "m", "Allowable max backward CG position according to static stability"],
        "backward_cg_oei_trim": [27.7341, "m", "Allowable max backward CG position according to oei lateral trim demonstration"],
        "backward_cg_oei_mass": [71290.4, "kg", "Total mass corresponding to oei lateral trim demonstration"]
    },
    "performance": {
        "mission": {
            "max_payload": {
                "disa": [0, "degK", "Temperature shift versus ISA conditions"],
                "altp": [35000, "ft", "Target pressure altitude"],
                "mach": [0.78, "mach", "Mach number"],
                "range": [1164.07, "NM", "Mission range"],
                "tow": [82759.6, "kg", "Mission take off weight"],
                "payload": [16200, "kg", "Mission payload"],
                "time_block": [3.15889, "h", "Mission block time"],
                "fuel_block": [2568.55, "kg", "Mission block fuel"],
                "fuel_reserve": [1121.13, "kg", "Mission reserve fuel"],
                "fuel_total": [3689.68, "kg", "Mission total fuel"],
                "holding_time": [30, "min", "Holding duration for reserve fuel evaluation"],
                "reserve_fuel_ratio": [0.05, "no_dim", "Fraction of mission fuel for reserve fuel evaluation"],
                "diversion_range": [200, "NM", "Range of diversion mission for reserve fuel evaluation"]
            },
            "nominal": {
                "disa": [0, "degK", "Temperature shift versus ISA conditions"],
                "altp": [35000, "ft", "Target pressure altitude"],
                "mach": [0.78, "mach", "Mach number"],
                "range": [2100, "NM", "Mission range"],
                "tow": [82759.6, "kg", "Mission take off weight"],
                "payload": [14175, "kg", "Mission payload"],
                "time_block": [5.4279, "h", "Mission block time"],
                "fuel_block": [4506.85, "kg", "Mission block fuel"],
                "fuel_reserve": [1207.83, "kg", "Mission reserve fuel"],
                "fuel_total": [5714.68, "kg", "Mission total fuel"],
                "holding_time": [30, "min", "Holding duration for reserve fuel evaluation"],
                "reserve_fuel_ratio": [0.05, "no_dim", "Fraction of mission fuel for reserve fuel evaluation"],
                "diversion_range": [200, "NM", "Range of diversion mission for reserve fuel evaluation"]
            },
            "max_fuel": {
                "disa": [0, "degK", "Temperature shift versus ISA conditions"],
                "altp": [35000, "ft", "Target pressure altitude"],
                "mach": [0.78, "mach", "Mach number"],
                "range": [2625, "NM", "Mission range"],
                "tow": [82759.6, "kg", "Mission take off weight"],
                "payload": [13060.5, "kg", "Mission payload"],
                "time_block": [6.70067, "h", "Mission block time"],
                "fuel_block": [5573.56, "kg", "Mission block fuel"],
                "fuel_reserve": [1255.66, "kg", "Mission reserve fuel"],
                "fuel_total": [6829.22, "kg", "Mission total fuel"],
                "holding_time": [30, "min", "Holding duration for reserve fuel evaluation"],
                "reserve_fuel_ratio": [0.05, "no_dim", "Fraction of mission fuel for reserve fuel evaluation"],
                "diversion_range": [200, "NM", "Range of diversion mission for reserve fuel evaluation"]
            },
            "zero_payload": {
                "disa": [0, "degK", "Temperature shift versus ISA conditions"],
                "altp": [35000, "ft", "Target pressure altitude"],
                "mach": [0.78, "mach", "Mach number"],
                "range": [2922.42, "NM", "Mission range"],
                "tow": [69699.2, "kg", "Mission take off weight"],
                "payload": [0, "kg", "Mission payload"],
                "time_block": [7.41855, "h", "Mission block time"],
                "fuel_block": [5631.48, "kg", "Mission block fuel"],
                "fuel_reserve": [1197.75, "kg", "Mission reserve fuel"],
                "fuel_total": [6829.22, "kg", "Mission total fuel"],
                "holding_time": [30, "min", "Holding duration for reserve fuel evaluation"],
                "reserve_fuel_ratio": [0.05, "no_dim", "Fraction of mission fuel for reserve fuel evaluation"],
                "diversion_range": [200, "NM", "Range of diversion mission for reserve fuel evaluation"]
            },
            "cost": {
                "disa": [0, "degK", "Temperature shift versus ISA conditions"],
                "altp": [35000, "ft", "Target pressure altitude"],
                "mach": [0.78, "mach", "Mach number"],
                "range": [400, "NM", "Mission range"],
                "tow": [79000.3, "kg", "Mission take off weight"],
                "payload": [14175, "kg", "Mission payload"],
                "time_block": [1.3056, "h", "Mission block time"],
                "fuel_block": [927.393, "kg", "Mission block fuel"],
                "fuel_reserve": [1027.94, "kg", "Mission reserve fuel"],
                "fuel_total": [1955.34, "kg", "Mission total fuel"],
                "holding_time": [30, "min", "Holding duration for reserve fuel evaluation"],
                "reserve_fuel_ratio": [0.05, "no_dim", "Fraction of mission fuel for reserve fuel evaluation"],
                "diversion_range": [200, "NM", "Range of diversion mission for reserve fuel evaluation"]
            },
            "toy": {
                "disa": [0, "degK", "Temperature shift versus ISA conditions"],
                "altp": [35000, "ft", "Target pressure altitude"],
                "mach": [0.78, "mach", "Mach number"],
                "range": [140, "NM", "Mission range"],
                "tow": [71290.4, "kg", "Mission take off weight"],
                "payload": [7087.5, "kg", "Mission payload"],
                "time_block": [0.673399, "h", "Mission block time"],
                "fuel_block": [368.154, "kg", "Mission block fuel"],
                "fuel_reserve": [964.831, "kg", "Mission reserve fuel"],
                "fuel_total": [1332.98, "kg", "Mission total fuel"],
                "holding_time": [30, "min", "Holding duration for reserve fuel evaluation"],
                "reserve_fuel_ratio": [0.05, "no_dim", "Fraction of mission fuel for reserve fuel evaluation"],
                "diversion_range": [200, "NM", "Range of diversion mission for reserve fuel evaluation"]
            },
            "disa": [0, "degK", "Temperature shift versus ISA conditions"],
            "altp": [35000, "ft", "Target pressure altitude"],
            "mach": [0.78, "mach", "Mach number"],
            "mass": [74483.7, "kg", "Masse of the component"],
            "ktow": [0.9, "no_dim", "Ratio of TOW defining the aircraft weight for mission breguet range"],
            "crz_tas": [449.607, "kt", "Cruise true air speed"],
            "crz_sar": [0.514124, "NM/kg", "Cruise specific air range related to fuel"],
            "crz_cz": [0.445461, "no_dim", "Cruise lift coefficient"],
            "crz_wing_aoa": [3.50933, "deg", "Cruise wing angle of attack, pitch angle as well"],
            "crz_fuselage_aoa": [2.41616, "deg", "Cruise fuselage angle of attack, pitch angle as well"],
            "crz_lod": [17.5345, "no_dim", "Cruise lift to drag ratio"],
            "crz_thrust": [41.657, "kN", "Total cruise thrust"],
            "crz_throttle": [0.519078, "no_dim", "Cruise throttle versus MCR"],
            "crz_propulsive_power": [9.63516, "MW", "Total cruise propulsive power, total_thrust * true_air_speed"],
            "crz_tsfc": [0.209931, "kg/daN/h", "Cruise specific fuel consumption versus thrust"],
            "max_sar_altp": [41854.3, "ft", "Altitude of specific air range"],
            "max_sar": [0.542721, "NM/kg", "Maximum specific air range"],
            "max_sar_cz": [0.619115, "no_dim", "Lift coefficient for maximum specific air range"],
            "max_sar_lod": [19.0748, "no_dim", "Lift to drag ratio for maximum specific air range"],
            "max_sar_thrust": [38.2933, "kN", "Total thrust for maximum specific air range"],
            "max_sar_throttle": [0.92706, "no_dim", "Throttle versus MCR for maximum specific air range"],
            "max_sar_tsfc": [0.215269, "kg/daN/h", "Specific fuel consumption versus thrust for maximum specific air range"],
            "crz_sec": [2.56952, "kW/daN", "Cruise specific energy consumption"],
            "max_sar_tas": [447.384, "kt", "True air speed at specific air range"]
        },
        "take_off": {
            "disa": [15, "degK", "Temperature shift versus ISA conditions"],
            "altp": [0, "ft", "Target pressure altitude"],
            "kmtow": [1, "no_dim", "Ratio of MTOW defining the aircraft weight"],
            "kvs1g": [1.13, "no_dim", "Applicable ratio of stalling speed at 1g"],
            "s2_min_path": [2.4, "%", "Minimum trajectory slope at 35ft for take off"],
            "tofl_req": [2000, "m", "Maximum take off field length required in given conditions"],
            "tofl_eff": [1999.8, "m", "Effective take off field length in given conditions"],
            "hld_conf": [0.3, "no_dim", "Current deflection parameter corresponding to high lift devices configuration"],
            "kvs1g_eff": [1.13, "no_dim", "Effective ratio of stalling speed at 1g"],
            "v2": [141.998, "kt", "Airplane speed in CAS at 35ft during take off"],
            "mach2": [0.214671, "mach", "Airplane speed in Mach number at 35ft during take off"],
            "s2_path": [5.15718, "%", "Airplane trajectory slope at 35ft during take off"],
            "limit": ["fl", "string", "Active limit during take off, can be 'fl':field length, 's2':second segment path"],
            "aoa_wing": [15.7036, "deg", "Wing angle of attack"]
        },
        "approach": {
            "disa": [0, "degK", "Temperature shift versus ISA conditions"],
            "altp": [0, "ft", "Target pressure altitude"],
            "kmlw": [1, "no_dim", "Ratio of MLW defining the aircraft weight"],
            "kvs1g": [1.23, "no_dim", "Applicable ratio of stalling speed at 1g"],
            "app_speed_req": [135, "kt", "Maximum approach speed required in given conditions"],
            "app_speed_eff": [134.996, "kt", "Effective approach speed in given conditions"],
            "hld_conf": [1, "no_dim", "Current deflection parameter corresponding to high lift devices configuration"],
            "aoa_wing": [16.9588, "deg", "Wing angle of attack"]
        },
        "mcr_ceiling": {
            "disa": [15, "degK", "Temperature shift versus ISA conditions"],
            "altp": [35000, "ft", "Target pressure altitude"],
            "mach": [0.78, "mach", "Mach number"],
            "kmtow": [0.97, "no_dim", "Ratio of MTOW defining the aircraft weight"],
            "rating": ["MCR", "string", "Engine rating name ('MTO','MCN','MCL','MCR','FID'"],
            "speed_mode": ["mach", "string", "Constant CAS : 'cas' or constant Mach : 'mach'"],
            "vz_req": [0, "ft/min", "Minimum vertical speed required in given conditions"],
            "vz_eff": [389.769, "ft/min", "Effective vertical speed in given conditions"],
            "aoa_wing": [3.78228, "deg", "Wing angle of attack"]
        },
        "mcl_ceiling": {
            "disa": [15, "degK", "Temperature shift versus ISA conditions"],
            "altp": [35000, "ft", "Target pressure altitude"],
            "mach": [0.78, "mach", "Mach number"],
            "kmtow": [0.97, "no_dim", "Ratio of MTOW defining the aircraft weight"],
            "rating": ["MCL", "string", "Engine rating name ('MTO','MCN','MCL','MCR','FID'"],
            "speed_mode": ["cas", "string", "Constant CAS : 'cas' or constant Mach : 'mach'"],
            "vz_req": [300, "ft/min", "Minimum vertical speed required in given conditions"],
            "vz_eff": [1217.72, "ft/min", "Effective vertical speed in given conditions"],
            "aoa_wing": [3.78228, "deg", "Wing angle of attack"]
        },
        "oei_ceiling": {
            "disa": [15, "degK", "Temperature shift versus ISA conditions"],
            "altp": [14000, "ft", "Target pressure altitude"],
            "kmtow": [1, "no_dim", "Ratio of MTOW defining the aircraft weight"],
            "rating": ["MCN", "string", "Engine rating name ('MTO','MCN','MCL','MCR','FID'"],
            "speed_mode": ["cas", "string", "Constant CAS : 'cas' or constant Mach : 'mach'"],
            "path_req": [1.1, "%", "Minimum trajectory slope required in given conditions"],
            "path_eff": [2.66329, "%", "Effective trajectory slope in given conditions"],
            "mach_opt": [0.385874, "mach", "Optimal Mach number according to requirement"],
            "aoa_wing": [7.96688, "deg", "Wing angle of attack"]
        },
        "time_to_climb": {
            "disa": [15, "degK", "Temperature shift versus ISA conditions"],
            "altp": [35000, "ft", "Target pressure altitude"],
            "mach": [0.78, "mach", "Mach number"],
            "kmtow": [null, "no_dim", "Ratio of MTOW defining the aircraft weight"],
            "cas1": [180, "kt", "Calibrated Air Speed below altp1 during climb trajectory"],
            "altp1": [1500, "ft", "Starting pressure altitude for climb trajectory, typically 1500ft"],
            "cas2": [250, "kt", "Calibrated Air Speed above altp2"],
            "altp2": [10000, "ft", "Transtion pressure altitude from cas1 to cas2, typically 10000ft"],
            "ttc_req": [25, "min", "Maximum time to climb required in given conditions"],
            "ttc_eff": [16.6656, "min", "Effective time to climb in given conditions"]
        }
    },
    "economics": {
        "irp": [10, "year", "Interest recovery period"],
        "period": [15, "year", "Utilization period"],
        "interest_rate": [4, "%", "Interest rate"],
        "labor_cost": [120, "$/h", "Labor cost"],
        "utilization": [2300, "int", "Number of flights per year"],
        "fuel_price": [2, "$/gal", "Fuel price"],
        "energy_price": [0.1, "$/kWh", "Energy price"],
        "battery_price": [20, "$/kg", "Battery price"],
        "engine_price": [13.2576, "M$", "Price of one engine"],
        "gear_price": [1.95221, "M$", "Price of landing gears"],
        "frame_price": [86.7429, "M$", "Price of the airframe"],
        "frame_cost": [830.503, "$/trip", "Airframe maintenance cost"],
        "engine_cost": [363.553, "$/trip", "Engine maintenance cost"],
        "cockpit_crew_cost": [1033.96, "$/trip", "Cockpit crew cost"],
        "cabin_crew_cost": [470.017, "$/trip", "Cabin crew cost"],
        "landing_fees": [716.698, "$/trip", "Landing fees"],
        "navigation_fees": [293.332, "$/trip", "Navigation fees"],
        "catering_cost": [414.45, "$/trip", "Catering cost"],
        "pax_handling_cost": [270, "$/trip", "Passenger handling cost"],
        "ramp_handling_cost": [1174.5, "$/trip", "Ramp handling cost"],
        "std_op_cost": [3244.97, "$/trip", "Standard operating cost"],
        "cash_op_cost": [5573.94, "$/trip", "Cash operating cost"],
        "direct_op_cost": [9971.86, "$/trip", "Direct operating cost"],
        "fuel_cost": [6.92068, "$/trip", "Fuel cost"],
        "aircraft_price": [115.21, "M$", "Aircraft price"],
        "total_investment": [119.126, "M$", "Total investmenent"],
        "interest": [804.217, "$/trip", "Interest"],
        "insurance": [175.32, "$/trip", "Insurance"],
        "depreciation": [3418.39, "$/trip", "Depreciation"]
    },
    "environment": {
        "CO2_metric": [NaN, "kg/km/m0.48", "Fuel efficiency metric"],
        "CO2_index": [0, "g/kg", "Mass of carbon dioxide emitted per kg of fuel"],
        "H2O_index": [18, "g/kg", "Mass of water emitted per kg of fuel"],
        "SO2_index": [0, "g/kg", "Mass of sulfur dioxide emitted per kg of fuel"],
        "NOx_index": [0.014, "g/kg", "Mass of nitrogen oxide emitted per kg of fuel"],
        "CO_index": [0, "g/kg", "Mass of carbon monoxide emitted per kg of fuel"],
        "HC_index": [0, "g/kg", "Mass of unburnt hydrocarbon emitted per kg of fuel"],
        "sulfuric_acid_index": [0, "g/kg", "Mass of sulfuric acid emitted per kg of fuel"],
        "nitrous_acid_index": [0.0004, "g/kg", "Mass of nitrous acid emitted per kg of fuel"],
        "nitric_acid_index": [0.0002, "g/kg", "Mass of nitric acid emitted per kg of fuel"],
        "soot_index": [2e+12, "int", "Number of soot particles emitted per kg of fuel"]
    },
    "draw": {}
}