{
    "name": "A330-800",
    "arrangement": {
        "body_type": ["fuselage", "string", "Type of main body, 'fuselage' or 'blended'"],
        "wing_type": ["classic", "string", "Type of lifting body, 'classic' or 'blended'"],
        "wing_attachment": ["low", "string", "Position of wing attachment, 'low' or 'high'"],
        "stab_architecture": ["classic", "string", "Type of stabilizers, 'classic', 't_tail' or 'h_tail'"],
        "tank_architecture": ["rear", "string", "Type of tank, 'wing_box', 'piggy_back' or 'pods'"],
        "gear_architecture": ["retractable", "string", "Type of landing gears, 'retractable', 'bare_fixed'"],
        "number_of_engine": ["twin", "string", "Number of engine, 'twin' or 'quadri'"],
        "nacelle_attachment": ["wing", "string", "Position of nacelle attachment, 'wing', 'pod' or 'rear'"],
        "power_architecture": ["tf", "string", "Propulsive architecture, 'tf', 'extf', 'ef'"],
        "power_source": ["fuel", "string", "Type power source, 'fuel', 'battery' or 'fuel_cell"],
        "fuel_type": ["liquid_h2", "string", "Type energy source, 'kerosene', 'methane', 'liquid_h2' or 'battery'"]
    },
    "requirement": {
        "cruise_altp": [35000, "ft", "Mean cruise altitude for design"],
        "cruise_mach": [0.82, "mach", "Cruise Mach number for design"],
        "design_range": [5280, "NM", "Design range"],
        "n_pax_ref": [160, "int", "Reference number of passenger for design"],
        "model_config": {
            "model_config": {
                "Cabin": {
                    "n_pax_front": ["function", "int", "Number of front seats in economic class (function)"],
                    "n_aisle": ["function", "int", "Number of aisle in economic class (function)"],
                    "m_pax_nominal": ["function", "kg", "Reference mass allowance per passenger for design (function)"],
                    "m_pax_max": ["function", "kg", "Maximum mass allowance per passenger for design (function)"],
                    "m_pax_cabin": [80, "kg", "Mean passenger mass in the cabin including its hand luggage"],
                    "seat_width": [20, "inch", "Seat width in economic class"],
                    "seat_pitch": [32, "inch", "Seat pitch in economic class"],
                    "aisle_width": [20, "inch", "Aisle width"]
                },
                "Fuselage": {
                    "forward_ratio": [1.1, "no_dim", "Distance between fuselage nose and forward cabin wall over fuselage diameter"],
                    "wall_thickness": [0.2, "m", "Fuselage wall total tchickness"],
                    "nose_cone_ratio": [2, "no_dim", "Fuselage nose cone length (evolutive part) over fuselage diameter"],
                    "tail_cone_ratio": [3.45, "no_dim", "Fuselage tail cone length (evolutive part) over fuselage diameter"],
                    "section_type": ["ellipse", "string", "Fuselage cross section 'ellipse' or 'square'"],
                    "rear_bulkhead_ratio": [1.5, "no_dim", "Distance from rear pressure bulkhead to fuselage cone end over fuselage diameter"],
                    "mass_correction_factor": [1, "no_dim", "Correction factor on mass estimation"]
                },
                "Wing": {
                    "wing_morphing": ["aspect_ratio_driven", "no_dim", "Wing deformation mode, 'aspect_ratio_driven' or 'span_driven'"],
                    "aspect_ratio": ["function", "no_dim", "Wing aspect ratio (function)"],
                    "taper_ratio": ["function", "no_dim", "Wing taper ratio (function)"],
                    "sweep25": ["function", "deg", "Wing sweep angle at 25% of the chords of outboard trapezoid (function)"],
                    "dihedral": [5, "deg", "Wing dihedral"],
                    "front_spar_ratio": [0.15, "no_dim", "Relative chord position of front spar"],
                    "rear_spar_ratio": [0.7, "no_dim", "Relative chord position of rear spar"],
                    "hld_type": ["function", "int", "Type of high lift device, from 0 to 10, (function)"],
                    "mass_correction_factor": [1, "no_dim", "Correction factor on mass estimation"]
                },
                "VtpClassic": {
                    "aspect_ratio": [1.7, "no_dim", "Vertical tail aspect ratio"],
                    "taper_ratio": [0.4, "no_dim", "Vertical tail taper ratio"],
                    "sweep25": ["function", "deg", "Vertical tail sweep angle at 25% of the chords (function)"],
                    "toc": [0.1, "no_dim", "Thickness to chord ratio of the vertical tail"],
                    "thrust_volume_factor": [0.4, "no_dim", "Volume coefficient of the vertical stabilizer according to engine failure"],
                    "wing_volume_factor": [0.07, "no_dim", "Volume coefficient of the vertical stabilizer according to wing"],
                    "anchor_ratio": [0.85, "no_dim", "Relative position of the reference point of the stabilization surface"],
                    "mass_correction_factor": [1, "no_dim", "Correction factor on mass estimation"]
                },
                "VtpTtail": {
                    "aspect_ratio": [1.2, "no_dim", "Vertical tail aspect ratio"],
                    "taper_ratio": [0.8, "no_dim", "Vertical tail taper ratio"],
                    "sweep25": ["function", "deg", "Vertical tail sweep angle at 25% of the chords (function)"],
                    "toc": [0.1, "no_dim", "Thickness to chord ratio of the vertical tail"],
                    "thrust_volume_factor": [0.4, "no_dim", "Volume coefficient of the vertical stabilizer according to engine failure"],
                    "wing_volume_factor": [0.07, "no_dim", "Volume coefficient of the vertical stabilizer according to wing"],
                    "anchor_ratio": [0.85, "no_dim", "Relative position of the reference point of the stabilization surface"],
                    "mass_correction_factor": [1, "no_dim", "Correction factor on mass estimation"]
                },
                "VtpHtail": {
                    "aspect_ratio": [1.5, "no_dim", "Vertical tail aspect ratio"],
                    "taper_ratio": [0.4, "no_dim", "Vertical tail taper ratio"],
                    "sweep25": ["function", "deg", "Vertical tail sweep angle at 25% of the chords (function)"],
                    "toc": [0.1, "no_dim", "Thickness to chord ratio of the vertical tail"],
                    "thrust_volume_factor": [0.4, "no_dim", "Volume coefficient of the vertical stabilizer according to engine failure"],
                    "wing_volume_factor": [0.07, "no_dim", "Volume coefficient of the vertical stabilizer according to wing"],
                    "mass_correction_factor": [1, "no_dim", "Correction factor on mass estimation"]
                },
                "HtpClassic": {
                    "aspect_ratio": [5, "no_dim", "Horizontal tail aspect ratio"],
                    "taper_ratio": [0.35, "no_dim", "Horizontal tail taper ratio"],
                    "sweep25": ["function", "deg", "Horizontal tail sweep angle at 25% of the chords (function)"],
                    "toc": [0.1, "no_dim", "Thickness to chord ratio of the Horizontal tail"],
                    "dihedral": [5, "deg", "Dihedral angle of the horizontal tail"],
                    "volume_factor": [0.94, "no_dim", "Volume coefficient of the vertical stabilizer according to engine failure"],
                    "mass_correction_factor": [1, "no_dim", "Correction factor on mass estimation"]
                },
                "HtpTtail": {
                    "aspect_ratio": [5, "no_dim", "Horizontal tail aspect ratio"],
                    "taper_ratio": [0.35, "no_dim", "Horizontal tail taper ratio"],
                    "height_ratio": [1, "no_dim", "Horizontal tail height ratio versus vertical tail height"],
                    "sweep25": ["function", "deg", "Horizontal tail sweep angle at 25% of the chords (function)"],
                    "toc": [0.1, "no_dim", "Thickness to chord ratio of the Horizontal tail"],
                    "dihedral": [5, "deg", "Dihedral angle of the horizontal tail"],
                    "volume_factor": [0.94, "no_dim", "Volume coefficient of the vertical stabilizer according to engine failure"],
                    "mass_correction_factor": [1, "no_dim", "Correction factor on mass estimation"]
                },
                "HtpHtail": {
                    "aspect_ratio": [5, "no_dim", "Horizontal tail aspect ratio"],
                    "taper_ratio": [0.8, "no_dim", "Horizontal tail taper ratio"],
                    "sweep25": ["function", "deg", "Horizontal tail sweep angle at 25% of the chords (function)"],
                    "toc": [0.1, "no_dim", "Thickness to chord ratio of the Horizontal tail"],
                    "dihedral": [5, "deg", "Dihedral angle of the horizontal tail"],
                    "volume_factor": [0.94, "no_dim", "Volume coefficient of the vertical stabilizer according to engine failure"],
                    "mass_correction_factor": [1, "no_dim", "Correction factor on mass estimation"]
                },
                "TankWingBox": {
                    "gravimetric_index": [0.3, "no_dim", "Ratio Hydrogen_mass / (Hydrogen_mass + Tank_mass)"],
                    "volumetric_index": [0.85, "no_dim", "Ratio Hydrogen_volume / Total_tank_volume"],
                    "fuel_pressure": ["function", "bar", "Maximum over pressure of the fuel in the tank (function)"]
                },
                "TankRearFuselage": {
                    "ref_length": [10, "m", "Initial length of the tank"],
                    "width_rear_factor": [0.75, "m", "Diameter of the rear pressure bulkhead over fuselage diameter"],
                    "gravimetric_index": [0.3, "no_dim", "Ratio Hydrogen_mass / (Hydrogen_mass + Tank_mass)"],
                    "volumetric_index": [0.85, "no_dim", "Ratio Hydrogen_volume / Total_tank_volume"],
                    "fuel_pressure": ["function", "bar", "Maximum over pressure of the fuel in the tank (function)"]
                },
                "Pod": {
                    "structure_shell_surface_mass": [15, "kg/m2", "Surface mass of the surrounding support structure"],
                    "structure_shell_thickness": [0.08, "m", "Thickness of the support structure"],
                    "gravimetric_index": [0.3, "no_dim", "Ratio Hydrogen_mass / (Hydrogen_mass + Tank_mass)"],
                    "volumetric_index": [0.85, "no_dim", "Ratio Hydrogen_volume / Total_tank_volume"]
                },
                "TankWingPod": {
                    "width": [2.5, "m", "diameter of the pod"],
                    "ref_length": [8, "m", "length of the pod"],
                    "span_ratio": [0.65, "no_dim", "Relative span wise position of the tank"],
                    "x_loc_ratio": [0.45, "no_dim", "Fraction of the tank length before the wing"],
                    "z_loc_ratio": [0, "no_dim", "Fraction of the tank diameter between the wing and the tank"],
                    "dry_bay_length": [0, "m", "Length of an eventual dry bay"],
                    "fuel_pressure": ["function", "bar", "Maximum over pressure of the fuel in the tank (function)"]
                },
                "TankPiggyBack": {
                    "width": [3.5, "m", "diameter of the pod"],
                    "ref_length": [24, "m", "length of the pod"],
                    "x_loc_ratio": [0.4, "no_dim", "Fraction of the tank length behind the wing"],
                    "z_loc_ratio": [0.85, "no_dim", "Fraction of the tank diameter between the fuselage and the tank axis"],
                    "dry_bay_length": [2, "m", "Length of an eventual dry bay"],
                    "fuel_pressure": ["function", "bar", "Maximum over pressure of the fuel in the tank (function)"]
                },
                "RetractableLandingGear": {
                    "mass_correction_factor": [1, "no_dim", "Correction factor on mass estimation"]
                },
                "BareFixedLandingGear": {
                    "wheel_count": [2, "int", "Number of main landing gear"],
                    "wheel_drag_area_factor": [1, "no_dim", "Drag area over (dynamic pressure x frontal area"],
                    "mass_correction_factor": [0.5, "no_dim", "Correction factor on mass estimation"]
                },
                "InboardWingMountedNacelle": {},
                "OutboardWingMountedNacelle": {},
                "RearFuselageMountedNacelle": {},
                "PowerSystem": {
                    "sfc_correction": [1, "no_dim", "Factor on specific fuel consumption (fuel only)"]
                },
                "System": {},
                "SystemWithBattery": {
                    "wiring_efficiency": [0.995, "no_dim", "Electric wiring efficiency"],
                    "wiring_pw_density": [20, "kW/kg", "Electric wiring power density"],
                    "cooling_efficiency": [0.995, "no_dim", "Cooling efficiency, ex: 0.99 means that 1% of the power is used by cooling system"],
                    "cooling_pw_density": [5, "kW/kg", "Cooling power density"],
                    "battery_density": [2800, "kg/m3", "Battery density"],
                    "battery_energy_density": [0.4, "kWh/kg", "Battery energy density"]
                },
                "SystemWithFuelCell": {
                    "wiring_efficiency": [0.995, "no_dim", "Electric wiring efficiency"],
                    "wiring_pw_density": [10, "kW/kg", "Electric wiring power density"],
                    "compressor_over_pressure": [100, "kPa", "Compressor over pressure"],
                    "compressor_efficiency": [0.8, "no_dim", "Compressor efficiency, power delivered to the air flow over input power"],
                    "compressor_pw_density": [2, "kW/kg", "Compressor total power density"],
                    "cooling_power_index": [0.005, "no_dim", "Cooling efficiency, ex: 0.01 means that the required power to cool the system is 1% of the dissipated power"],
                    "cooling_gravimetric_index": [5, "kW/kg", "Cooling power density, the ratio of the dissipated power over the required system mass to dissipate it"],
                    "fuel_cell_pw_density": [2, "kW/kg", "Fuell cell power density"],
                    "fuel_cell_efficiency": [0.5, "no_dim", "Fuell cell conversion efficiency"]
                },
                "SystemWithLaplaceFuelCell": {
                    "over_power_factor": [2, "no_dim", "Electric wiring efficiency"],
                    "wiring_efficiency": [0.995, "no_dim", "Electric wiring efficiency"],
                    "wiring_pw_density": [10, "kW/kg", "Electric wiring power density"],
                    "max_power_time": [15, "min", "Max power endurance on battery"],
                    "battery_energy_density": [0.4, "kWh/kg", "Battery energy density"]
                },
                "SystemPartialTurboElectric": {
                    "chain_power_pod": ["function", "kW", "Electric shaft power of the wing tank tail electric fan"],
                    "chain_power_body": ["function", "kW", "Electric shaft power of the main body tail electric fan"],
                    "chain_power_piggyback": ["function", "kW", "Electric shaft power of piggyback body tail electric fan"],
                    "chain_power": ["function", "kW", "Total electric shaft power"],
                    "battery": ["no", "string", "Use of battery, 'yes', 'no'"],
                    "battery_density": [2800, "kg/m3", "Battery density"],
                    "battery_energy_density": [0.4, "kWh/kg", "Battery energy density"],
                    "lto_power": [0, "kW", "Battery power reserve for take off and landing"],
                    "lto_time": [0, "min", "Duration of availability of the power reserve"],
                    "cruise_energy": [0, "kWh", "Energy booked for cruise"],
                    "generator_efficiency": [0.95, "no_dim", "Electric generator efficiency"],
                    "generator_pw_density": [5, "kW/kg", "Electric generator power density"],
                    "rectifier_efficiency": [0.99, "no_dim", "Rectifier efficiency"],
                    "rectifier_pw_density": [15, "kW/kg", "Rectifier power density"],
                    "wiring_efficiency": [0.995, "no_dim", "Electric wiring efficiency"],
                    "wiring_pw_density": [20, "kW/kg", "Electric wiring power density"],
                    "cooling_efficiency": [0.995, "no_dim", "Cooling efficiency, ex: 0.99 means that 1% of the power is used by cooling system"],
                    "cooling_pw_density": [5, "kW/kg", "Cooling power density"]
                },
                "SemiEmpiricTf0Nacelle": {
                    "eis_date": [2020, "year", "Entry into service date"],
                    "lateral_margin": [1, "no_dim", "Lateral margin as a fraction of nacelle width"],
                    "vertical_margin": [1, "no_dim", "vertical margin as a fraction of nacelle width"],
                    "engine_bpr": ["function", "no_dim", "Reference By Pass Ratio of the engine (function)"],
                    "engine_opr": [50, "no_dim", "Reference Overall Pressure Ratio of the engine"],
                    "core_thrust_ratio": [0.13, "no_dim", "Reference ratio of the total thrust delivered by the core"],
                    "propeller_efficiency": [0.82, "no_dim", "Propeller like fan efficiency Thrust.Speed/shaft_power"]
                },
                "SemiEmpiricTfNacelle": {
                    "eis_date": [2020, "year", "Entry into service date"],
                    "lateral_margin": [1, "no_dim", "Lateral margin as a fraction of nacelle width"],
                    "vertical_margin": [1, "no_dim", "vertical margin as a fraction of nacelle width"],
                    "engine_bpr": ["function", "no_dim", "Reference By Pass Ratio of the engine (function)"],
                    "engine_opr": [50, "no_dim", "Reference Overall Pressure Ratio of the engine"],
                    "engine_fpr": [1.5, "no_dim", "Reference Fan Pressure Ratio of the engine"],
                    "core_thrust_ratio": [0.13, "no_dim", "Reference ratio of the total thrust delivered by the core"],
                    "hub_width": [0.4, "m", "Fan hub diameter"],
                    "propeller_efficiency": [0.82, "no_dim", "Propeller like fan efficiency Thrust.Speed/shaft_power"],
                    "fan_efficiency": [0.9, "no_dim", "Classical fan efficiency"]
                },
                "ExergeticTfNacelle": {
                    "eis_date": [2020, "year", "Entry into service date"],
                    "engine_bpr": [14, "no_dim", "Reference By Pass Ratio of the engine"],
                    "engine_fpr": [1.15, "no_dim", "Reference Fan Pressure Ratio of the engine"],
                    "engine_lpc_pr": [3, "no_dim", "Reference Low Pressure Compressor Ratio of the engine"],
                    "engine_hpc_pr": [14, "no_dim", "Reference High  Pressure Compressor Ratio of the engine"],
                    "engine_T4_max": [1700, "K", "Entry turbine maximum temperature"],
                    "cooling_flow": [0.1, "kg/s", "Reference cooling flow"],
                    "lateral_margin": [1, "no_dim", "Lateral margin as a fraction of nacelle width"],
                    "vertical_margin": [1, "no_dim", "vertical margin as a fraction of nacelle width"],
                    "hub_width": [0.4, "m", "Fan hub diameter"]
                },
                "SemiEmpiricTpNacelle": {
                    "eis_date": [2020, "year", "Entry into service date"],
                    "lateral_margin": [1, "no_dim", "Lateral margin as a fraction of nacelle width"],
                    "hub_width": [0.2, "m", "Propeller hub diameter"],
                    "propeller_efficiency": [0.82, "no_dim", "Propeller efficiency Thrust.Speed/shaft_power"],
                    "propeller_disk_load": [3000, "N/m2", "Propeller disk load"],
                    "psfc_reference": [0.4, "lb/shp/h", "Power related Spesific Fuel Consumption"]
                },
                "SemiEmpiricEpNacelle": {
                    "eis_date": [2020, "year", "Entry into service date"],
                    "lateral_margin": [1, "no_dim", "Lateral margin as a fraction of nacelle width"],
                    "propeller_efficiency": [0.82, "no_dim", "Propeller efficiency Thrust.Speed/shaft_power"],
                    "propeller_disk_load": [3000, "N/m2", "Propeller disk load"],
                    "hub_width": [0.2, "m", "Propeller hub diameter"],
                    "motor_efficiency": [0.95, "no_dim", "Electric motor efficiency"],
                    "motor_pw_density": [5, "kW/kg", "Electric motor power density"],
                    "nacelle_pw_density": [10, "kW/kg", "Electric nacelle power density"],
                    "controller_efficiency": [0.99, "no_dim", "Electric controller efficiency"],
                    "controller_pw_density": [15, "kW/kg", "Electric controller power density"]
                },
                "SemiEmpiricEfNacelle": {
                    "eis_date": [2020, "year", "Entry into service date"],
                    "lateral_margin": [1, "no_dim", "Lateral margin as a fraction of nacelle width"],
                    "vertical_margin": [1, "no_dim", "vertical margin as a fraction of nacelle width"],
                    "propeller_efficiency": [0.82, "no_dim", "Propeller like fan efficiency Thrust.Speed/shaft_power"],
                    "fan_efficiency": [0.95, "no_dim", "Classical fan efficiency"],
                    "engine_fpr": [1.3, "no_dim", "Reference Fan Pressure Ratio of the engine"],
                    "hub_width": [0.2, "m", "Fan hub diameter"],
                    "motor_efficiency": [0.95, "no_dim", "Electric motor efficiency"],
                    "motor_pw_density": [5, "kW/kg", "Electric motor power density"],
                    "controller_efficiency": [0.99, "no_dim", "Electric controller efficiency"],
                    "controller_pw_density": [15, "kW/kg", "Electric controller power density"],
                    "nacelle_pw_density": [10, "kW/kg", "Electric nacelle power density"]
                },
                "PodTailConeMountedNacelle": {
                    "bli_effect": ["yes", "string", "Taking into account boundary layer ingestion, 'yes' or 'no'"],
                    "hub_width": [0.4, "m", "Fan hub diameter"],
                    "lateral_margin": [1.5, "no_dim", "Lateral margin as a fraction of nacelle width"],
                    "x_loc_ratio": [0.35, "no_dim", "Fraction of the tank length behind the wing"],
                    "z_loc_ratio": [-0.2, "no_dim", "Fraction of the tank diameter under the wing"],
                    "specific_nacelle_cost": [0.05, "$/kg", "Specific maintenance cost per trip for tail cone mounted nacelle"]
                },
                "PiggyBackTailConeMountedNacelle": {
                    "bli_effect": ["yes", "string", "Taking into account boundary layer ingestion, 'yes' or 'no'"],
                    "hub_width": [0.4, "m", "Fan hub diameter"],
                    "specific_nacelle_cost": [0.05, "$/kg", "Specific maintenance cost per trip for tail cone mounted nacelle"]
                },
                "BodyTailConeMountedNacelle": {
                    "bli_effect": ["yes", "string", "Taking into account boundary layer ingestion, 'yes' or 'no'"],
                    "hub_width": [0.4, "m", "Fan hub diameter"],
                    "tail_cone_height_ratio": [0.87, "no_dim", "Relative vertical position of the body tail cone"],
                    "specific_nacelle_cost": [0.05, "$/kg", "Specific maintenance cost per trip for tail cone mounted nacelle"]
                },
                "AllMissionVarMass": {
                    "ktow": [0.9, "no_dim", "Ratio of TOW defining the aircraft weight for mission breguet range"]
                },
                "MissionVarMassGeneric": {
                    "holding_time": [30, "min", "Holding duration for reserve fuel evaluation"],
                    "reserve_fuel_ratio": ["function", "no_dim", "Fraction of mission fuel for reserve fuel evaluation (function)"],
                    "diversion_range": ["function", "NM", "Range of diversion mission for reserve fuel evaluation (function)"]
                },
                "AllMissionIsoMass": {},
                "MissionIsoMassGeneric": {
                    "holding_time": [30, "min", "Holding duration for reserve fuel evaluation"],
                    "reserve_enrg_ratio": ["function", "no_dim", "Fraction of mission fuel for reserve fuel evaluation (function)"],
                    "diversion_range": ["function", "NM", "Range of diversion mission for reserve fuel evaluation (function)"]
                },
                "Requirement": {
                    "cost_range": ["function", "NM", "Reference range for cost evaluation (function)"],
                    "max_fuel_range_factor": [1.25, "no_dim", "Ratio max_fuel_mission_range / nominal_mission_range, used only with mda_plus"],
                    "max_body_aspect_ratio": [13.3617, "no_dim", "Ratio body length / body height, maximum ratio comming from A340-600"]
                },
                "Aerodynamics": {
                    "kcx_correction": [1, "no_dim", "Drag FACTCOR on cx coefficient"],
                    "dcx_correction": [0, "no_dim", "Drag SHIFT on cx coefficient"],
                    "cruise_lodmax": [16, "no_dim", "Assumption on L/D max for some initializations"],
                    "hld_conf_clean": [0, "no_dim", "High lift device setting for clean wing, must be 0."],
                    "hld_conf_to": [0.3, "no_dim", "High lift device setting for take off, between 0. and 0.5"],
                    "hld_conf_ld": [1, "no_dim", "High lift device setting for landing, typically 1. for full deflection"]
                },
                "HandlingQuality": {
                    "static_stab_margin": [0.05, "no_dim", "CG margin to neutral point"]
                },
                "TakeOffReq": {
                    "disa": [15, "degK", "Temperature shift for take off evaluation"],
                    "altp": [0, "ft", "Altitude for take off evaluation"],
                    "kmtow": [1, "no_dim", "Ratio of MTOW defining the aircraft weight"],
                    "kvs1g": [1.13, "no_dim", "Ratio of MTOW defining the aircraft weight"],
                    "s2_min_path": ["function", "%", "Minimum trajectory slope at 35ft for take off (function)"],
                    "tofl_req": ["function", "m", "Maximum take off field length required in given conditions (function)"]
                },
                "ApproachReq": {
                    "disa": [15, "degK", "Temperature shift for approach speed evaluation"],
                    "altp": [0, "ft", "Altitude for approach speed evaluation"],
                    "kmlw": [1, "no_dim", "Ratio of MLW defining the aircraft weight"],
                    "kvs1g": [1.23, "no_dim", "Ratio of MTOW defining the aircraft weight"],
                    "app_speed_req": ["function", "kt", "Maximum approach speed required in given conditions (function)"]
                },
                "OeiCeilingReq": {
                    "disa": [15, "degK", "Temperature shift for one engine performance evaluation"],
                    "altp": ["function", "ft", "Altitude for one engine performance evaluation (function)"],
                    "kmtow": [1, "no_dim", "Ratio of MTOW defining the aircraft weight"],
                    "rating": ["MCN", "string", "Engine rating for one engine performance evaluation"],
                    "speed_mode": ["cas", "string", "Speed mode for one engine performance evaluation, 'cas':constant CAS or 'mach':constant Mach"],
                    "path_req": ["function", "%", "Minimum trajectory slope required in given conditions (function)"]
                },
                "MclCeilingReq": {
                    "disa": [15, "degK", "Temperature shift for approach speed evaluation"],
                    "altp": ["function", "ft", "Altitude for approach speed evaluation (function)"],
                    "mach": ["function", "ft", "Speed defined by a Mach number (function)"],
                    "kmtow": [0.97, "no_dim", "Ratio of MTOW defining the aircraft weight"],
                    "rating": ["MCL", "string", "Engine rating for one engine performance evaluation"],
                    "speed_mode": ["cas", "string", "Speed mode for one engine performance evaluation, 'cas':constant CAS or 'mach':constant Mach"],
                    "vz_req": ["function", "%", "Minimum vertical speed required in given conditions (function)"]
                },
                "McrCeilingReq": {
                    "disa": [15, "degK", "Temperature shift for approach speed evaluation"],
                    "altp": ["function", "ft", "Altitude for approach speed evaluation (function)"],
                    "mach": ["function", "ft", "Speed defined by a Mach number (function)"],
                    "kmtow": [0.97, "no_dim", "Ratio of MTOW defining the aircraft weight"],
                    "rating": ["MCR", "string", "Engine rating for one engine performance evaluation"],
                    "speed_mode": ["mach", "string", "Speed mode for one engine performance evaluation, 'cas':constant CAS or 'mach':constant Mach"],
                    "vz_req": ["function", "%", "Minimum vertical speed required in given conditions (function)"]
                },
                "TtcReq": {
                    "disa": [15, "degK", "Temperature shift for approach speed evaluation"],
                    "altp": ["function", "ft", "Targetted climb altitude (function)"],
                    "mach": ["function", "ft", "Speed defined by a Mach number (function)"],
                    "kmtow": [0.97, "no_dim", "Ratio of MTOW defining the aircraft weight"],
                    "altp1": [1500, "ft", "Starting pressure altitude for climb trajectory, typically 1500ft"],
                    "cas1": ["function", "kt", "Calibrated Air Speed below altp1 during climb trajectory (function)"],
                    "altp2": [10000, "ft", "Transtion pressure altitude from cas1 to cas2, typically 10000ft"],
                    "cas2": ["function", "kt", "Calibrated Air Speed above altp2 (function)"],
                    "ttc_req": [25, "min", "Maximum time to climb required in given conditions"]
                },
                "Economics": {
                    "irp": [10, "year", "Interest recovery period"],
                    "period": [15, "year", "Utilization period"],
                    "interest_rate": [4, "%", "Interest rate"],
                    "labor_cost": [120, "$/h", "Labor cost"],
                    "utilization": ["function", "int", "Number of flights per year (function)"],
                    "fuel_price": [2, "$/gal", "Fuel price"],
                    "energy_price": [0.1, "$/kWh", "Energy price"],
                    "battery_price": [20, "$/kg", "Battery price"]
                }
            }
        },
        "cruise_disa": [0, "degK", "Temperature shift versus ISA in cruise for design"],
        "cost_range": [2000, "NM", "Reference range for cost evaluation"],
        "max_fuel_range_factor": [1.25, "no_dim", "Ratio max_fuel_range over design range in MDO_plus mode"],
        "max_body_aspect_ratio": [13.3617, "no_dim", "Maximum ratio of fuselage length over fuselage height"],
        "take_off": {
            "disa": [15, "degK", "Temperature shift versus ISA conditions"],
            "altp": [0, "ft", "Target pressure altitude"],
            "kmtow": [1, "no_dim", "Ratio of MTOW defining the aircraft weight"],
            "kvs1g": [1.13, "no_dim", "Applicable ratio of stalling speed at 1g"],
            "s2_min_path": [2.4, "%", "Minimum trajectory slope at 35ft for take off"],
            "tofl_req": [3200, "m", "Maximum take off field length required in given conditions"]
        },
        "approach": {
            "disa": [0, "degK", "Temperature shift versus ISA conditions"],
            "altp": [0, "ft", "Target pressure altitude"],
            "kmlw": [1, "no_dim", "Ratio of MLW defining the aircraft weight"],
            "kvs1g": [1.23, "no_dim", "Applicable ratio of stalling speed at 1g"],
            "app_speed_req": [140, "kt", "Maximum approach speed required in given conditions"]
        },
        "oei_ceiling": {
            "disa": [15, "degK", "Temperature shift versus ISA conditions"],
            "altp": [14000, "ft", "Target pressure altitude"],
            "kmtow": [1, "no_dim", "Ratio of MTOW defining the aircraft weight"],
            "rating": ["MCN", "string", "Engine rating name ('MTO','MCN','MCL','MCR','FID'"],
            "speed_mode": ["cas", "string", "Constant CAS : 'cas' or constant Mach : 'mach'"],
            "path_req": [1.1, "%", "Minimum trajectory slope required in given conditions"]
        },
        "mcl_ceiling": {
            "disa": [15, "degK", "Temperature shift versus ISA conditions"],
            "altp": [35000, "ft", "Target pressure altitude"],
            "mach": [0.82, "mach", "Mach number"],
            "kmtow": [0.97, "no_dim", "Ratio of MTOW defining the aircraft weight"],
            "rating": ["MCL", "string", "Engine rating name ('MTO','MCN','MCL','MCR','FID'"],
            "speed_mode": ["cas", "string", "Constant CAS : 'cas' or constant Mach : 'mach'"],
            "vz_req": [300, "ft/min", "Minimum vertical speed required in given conditions"]
        },
        "mcr_ceiling": {
            "disa": [15, "degK", "Temperature shift versus ISA conditions"],
            "altp": [35000, "ft", "Target pressure altitude"],
            "mach": [0.82, "mach", "Mach number"],
            "kmtow": [0.97, "no_dim", "Ratio of MTOW defining the aircraft weight"],
            "rating": ["MCR", "string", "Engine rating name ('MTO','MCN','MCL','MCR','FID'"],
            "speed_mode": ["mach", "string", "Constant CAS : 'cas' or constant Mach : 'mach'"],
            "vz_req": [0, "ft/min", "Minimum vertical speed required in given conditions"]
        },
        "time_to_climb": {
            "disa": [15, "degK", "Temperature shift versus ISA conditions"],
            "altp": [35000, "ft", "Target pressure altitude"],
            "mach": [0.82, "mach", "Mach number"],
            "kmtow": [0.97, "no_dim", "Ratio of MTOW defining the aircraft weight"],
            "cas1": [180, "kt", "Calibrated Air Speed below altp1 during climb trajectory"],
            "altp1": [1500, "ft", "Starting pressure altitude for climb trajectory, typically 1500ft"],
            "cas2": [250, "kt", "Calibrated Air Speed above altp2"],
            "altp2": [10000, "ft", "Transtion pressure altitude from cas1 to cas2, typically 10000ft"],
            "ttc_req": [25, "min", "Maximum time to climb required in given conditions"]
        }
    },
    "airframe": {
        "engine_analysis_order": [["nacelle", "other_nacelle"], "string", "Gives the engine component list"],
        "mass_analysis_order": [["cabin", "body", "wing", "landing_gear", "cargo", "nacelle", "other_nacelle", "vertical_stab", "horizontal_stab", "tank", "system"], "string", "Gives the component order to perform the mass analysis"],
        "cabin": {
            "frame_origin": [[6.4768, 0, 0], "m", "Position of the reference point of the component in the assembly"],
            "mass": [11310.2, "kg", "Masse of the component"],
            "cg": [[21.6073, 0, 0], "m", "Position of the center of gravity of the component in the assembly"],
            "inertia_tensor": [[[null, null, null], [null, null, null], [null, null, null]], "kg.m2", "Inertia tensor of the component in its reference point"],
            "gross_wet_area": [0, "m2", "Gross wetted area of the component"],
            "net_wet_area": [0, "m2", "Net wetted area of the component"],
            "aero_length": [1, "m", "Characteristic length of the component for friction drag estimation"],
            "form_factor": [0, "no_dim", "Form factor of the conponent for form and friction drag estimation"],
            "n_pax_ref": [160, "int", "Reference number of passenger for design"],
            "n_pax_front": [10, "int", "Number of front seats in economy class"],
            "n_aisle": [1, "int", "Number of aisle in economy class"],
            "seat_width": [0.508, "m", "Seat width in economy class"],
            "seat_pitch": [0.8128, "m", "Seat pitch in economy class"],
            "aisle_width": [0.508, "m", "Aisle width in economy class"],
            "width": [5.688, "no_dim", "Tank front diameter for rear fuselage tank"],
            "length": [27.5099, "m", "Length of the component"],
            "co2_metric_area": [null, "m2", "Refernce cabin area for Fuel Efficiency Metric estimation"],
            "m_pax_nominal": [105, "int", "Reference mass allowance per passenger for design"],
            "m_pax_max": [135, "int", "Maximum mass allowance per passenger for design"],
            "m_pax_cabin": [80, "int", "Reference mass allowance per passenger inside the cabin, passenger + hand luggage"],
            "m_furnishing": [3174.4, "kg", "Furnishing mass (seats, monuments, toilets, ...)"],
            "m_op_item": [8135.76, "kg", "Operator items mass (crews, water, food, ...)"],
            "nominal_payload": [16800, "kg", "Reference payload for design"],
            "maximum_payload": [21600, "kg", "Maximum payload for design"],
            "cg_furnishing": [[21.6073, 0, 0], "m", "Position of the CG of furnishing in the assembly"],
            "cg_op_item": [[21.6073, 0, 0], "m", "Position of the CG of operator items in the assembly"],
            "pax_max_fwd_cg": [[26.6516, 0, 0], "m", "Maximum forward position of the passengers"],
            "pax_max_fwd_mass": [18774.1, "kg", "Mass corresponding to maximum forward position of the passengers"],
            "pax_max_bwd_cg": [[43.645, 0, 0], "m", "Maximum backward position of the passengers"],
            "pax_max_bwd_mass": [-2960.55, "kg", "Mass corresponding to maximum backward position of the passengers"],
            "projected_area": [148.653, "m2", "Cabin efficiency parameter ~ cabin length times fuselage width"]
        },
        "body": {
            "frame_origin": [[0, 0, 0], "m", "Position of the reference point of the component in the assembly"],
            "mass": [38099.5, "kg", "Masse of the component"],
            "cg": [[45.2181, 0, 2.47296], "m", "Position of the center of gravity of the component in the assembly"],
            "inertia_tensor": [[[null, null, null], [null, null, null], [null, null, null]], "kg.m2", "Inertia tensor of the component in its reference point"],
            "gross_wet_area": [1473.22, "m2", "Gross wetted area of the component"],
            "net_wet_area": [1473.22, "m2", "Net wetted area of the component"],
            "aero_length": [90.4363, "m", "Characteristic length of the component for friction drag estimation"],
            "form_factor": [1.05, "no_dim", "Form factor of the conponent for form and friction drag estimation"],
            "forward_ratio": [1.1, "no_dim", "Distance from fuselage nose to cabinwall over fuselage diameter"],
            "wall_thickness": [0.2, "m", "Fuselage wall total tchickness"],
            "rear_bulkhead_ratio": [1.5, "no_dim", "Distance from rear pressure bulkhead to fuselage end over fuselage diameter"],
            "nose_cone_ratio": [2, "no_dim", "Fuselage nose cone length over fuselage diameter"],
            "tail_cone_ratio": [3.45, "no_dim", "Fuselage tail cone length over fuselage diameter"],
            "section_type": ["ellipse", "string", "Type body section shape, 'elipse', 'square'"],
            "width": [5.888, "no_dim", "Tank front diameter for rear fuselage tank"],
            "height": [6.1824, "m", "Height of the component"],
            "length": [90.4363, "m", "Length of the component"],
            "aspect_ratio": [14.628, "no_dim", "Aspect ratio of the lifting surface"],
            "nose_cone_length": [11.776, "m", "Length of the tapered forward part of the main body"],
            "tail_cone_length": [20.3136, "m", "Length of the tapered rear part of the main body"],
            "mass_correction_factor": [1, "no_dim", "Factor on all component mass except engines and systems"]
        },
        "wing": {
            "frame_origin": [[36.2556, 0, 0], "m", "Position of the reference point of the component in the assembly"],
            "mass": [66765.8, "kg", "Masse of the component"],
            "cg": [[47.1579, 13.7404, 0.944561], "m", "Position of the center of gravity of the component in the assembly"],
            "inertia_tensor": [[[null, null, null], [null, null, null], [null, null, null]], "kg.m2", "Inertia tensor of the component in its reference point"],
            "gross_wet_area": [1157.81, "m2", "Gross wetted area of the component"],
            "net_wet_area": [1157.81, "m2", "Net wetted area of the component"],
            "aero_length": [9.52162, "m", "Characteristic length of the component for friction drag estimation"],
            "form_factor": [1.4, "no_dim", "Form factor of the conponent for form and friction drag estimation"],
            "wing_morphing": ["aspect_ratio_driven", "string", "Design of the wings : 'aspect_ratio_driven' or 'span_driven'"],
            "area": [663.7, "m2", "Geometric reference area of the lifting surface"],
            "span": [81.4678, "m", "Spanwise dimension of the lifting surface"],
            "aspect_ratio": [10, "no_dim", "Aspect ratio of the lifting surface"],
            "taper_ratio": [0.2, "no_dim", "Taper ratio of the lifting surface"],
            "dihedral": [5, "deg", "Dihedral angle of the lifting surface"],
            "sweep0": [null, "deg", "Leading edge sweep angle of the lifting surface"],
            "sweep25": [30, "deg", "Sweep angle at 25% of the chords of the lifting surface"],
            "sweep100": [null, "deg", "Trailing edge sweep angle of the lifting surface"],
            "setting": [1.28392, "deg", "Setting angle of the lifting surface"],
            "hld_type": [9, "int", "Type of high lift devices (0,1,2,....,10)"],
            "front_spar_ratio": [0.15, "no_dim", "Relative chord position of front spar"],
            "rear_spar_ratio": [0.7, "no_dim", "Relative chord position of rear spar"],
            "x_root": [36.2556, "m", "X wise position of the root chord of the wing"],
            "root_loc": [[36.2556, 2.944, 0], "m", "Position of the root chord of the lifting surface"],
            "root_toc": [0.14, "no_dim", "Thickness to chord ratio of the root chord of the lifting surface"],
            "root_c": [14.4013, "m", "Root chord length of the lifting surface"],
            "kink_loc": [[40.0133, 8.832, 0.515133], "m", "Position of the kink chord of the lifting surface"],
            "kink_toc": [0.11, "no_dim", "Thickness to chord ratio of the kink chord of the lifting surface"],
            "kink_c": [10.6437, "m", "Kink chord length of the lifting surface"],
            "tip_loc": [[60.3727, 40.7339, 3.30619], "m", "Position of the tip chord of the lifting surface"],
            "tip_toc": [0.1, "no_dim", "Thickness to chord ratio of the tip chord of the lifting surface"],
            "tip_c": [2.88027, "m", "Tip chord length of the lifting surface"],
            "mac_loc": [[44.446, 15.5897, null], "m", "Position of the mean aerodynamic chord of the lifting surface"],
            "mac": [9.52162, "m", "Mean aerodynamic chord length of the lifting surface"],
            "mass_correction_factor": [1, "no_dim", "Factor on all component mass except engines and systems"]
        },
        "cargo": {
            "frame_origin": [[6.4768, 0, 0], "m", "Position of the reference point of the component in the assembly"],
            "mass": [2321.65, "kg", "Masse of the component"],
            "cg": [[16.2695, 0, 0], "m", "Position of the center of gravity of the component in the assembly"],
            "inertia_tensor": [[[null, null, null], [null, null, null], [null, null, null]], "kg.m2", "Inertia tensor of the component in its reference point"],
            "gross_wet_area": [0, "m2", "Gross wetted area of the component"],
            "net_wet_area": [0, "m2", "Net wetted area of the component"],
            "aero_length": [1, "m", "Characteristic length of the component for friction drag estimation"],
            "form_factor": [0, "no_dim", "Form factor of the conponent for form and friction drag estimation"],
            "container_pallet_mass": [2321.65, "kg", "Container & pallet mass if any"],
            "freight_max_fwd_cg": [[26.6516, 0, 0], "m", "Maximum forward position of the freight"],
            "freight_max_fwd_mass": [27087.3, "kg", "Mass corresponding to maximum forward position of the freight"],
            "freight_max_bwd_cg": [[36.4443, 0, 0], "m", "Maximum backward position of the freight"],
            "freight_max_bwd_mass": [-13939.3, "kg", "Mass corresponding to maximum backward position of the freight"]
        },
        "vertical_stab": {
            "frame_origin": [[76.2891, 0, 6.1824], "m", "Position of the reference point of the component in the assembly"],
            "mass": [2565.9, "kg", "Masse of the component"],
            "cg": [[83.2912, 0, 12.2004], "m", "Position of the center of gravity of the component in the assembly"],
            "inertia_tensor": [[[null, null, null], [null, null, null], [null, null, null]], "kg.m2", "Inertia tensor of the component in its reference point"],
            "gross_wet_area": [206.298, "m2", "Gross wetted area of the component"],
            "net_wet_area": [206.298, "m2", "Net wetted area of the component"],
            "aero_length": [8.24579, "m", "Characteristic length of the component for friction drag estimation"],
            "form_factor": [1.4, "no_dim", "Form factor of the conponent for form and friction drag estimation"],
            "area": [102.636, "m2", "Geometric reference area of the lifting surface"],
            "height": [13.2091, "m", "Height of the component"],
            "aspect_ratio": [1.7, "no_dim", "Aspect ratio of the lifting surface"],
            "taper_ratio": [0.4, "no_dim", "Taper ratio of the lifting surface"],
            "toc": [0.1, "no_dim", "Thickness to chord ratio of the lifting surface"],
            "sweep25": [39.3354, "deg", "Sweep angle at 25% of the chords of the lifting surface"],
            "thrust_volume_factor": [0.4, "no_dim", "Volume coefficient of the vertical stabilizer according to engine failure"],
            "wing_volume_factor": [0.07, "no_dim", "Volume coefficient of the vertical stabilizer according to wing"],
            "anchor_ratio": [0.85, "no_dim", "Relative position of the reference point of the stabilization surface"],
            "lever_arm": [36.8771, "m", "Lever arm of the stabilization surface, 25%cma wing to 25% cma surface"],
            "root_loc": [[76.2891, 0, 6.1824], "m", "Position of the root chord of the lifting surface"],
            "root_c": [11.1001, "m", "Root chord length of the lifting surface"],
            "tip_loc": [[88.7793, 0, 19.3915], "m", "Position of the tip chord of the lifting surface"],
            "tip_c": [4.44004, "m", "Tip chord length of the lifting surface"],
            "mac_loc": [[81.6421, 0, 12.2004], "m", "Position of the mean aerodynamic chord of the lifting surface"],
            "mac": [8.24579, "m", "Mean aerodynamic chord length of the lifting surface"],
            "mass_correction_factor": [1, "no_dim", "Factor on all component mass except engines and systems"]
        },
        "horizontal_stab": {
            "frame_origin": [[80.2113, 0, 4.94592], "m", "Position of the reference point of the component in the assembly"],
            "mass": [3320.48, "kg", "Masse of the component"],
            "cg": [[85.8884, 5.76551, 1.15495], "m", "Position of the center of gravity of the component in the assembly"],
            "inertia_tensor": [[[null, null, null], [null, null, null], [null, null, null]], "kg.m2", "Inertia tensor of the component in its reference point"],
            "gross_wet_area": [246.017, "m2", "Gross wetted area of the component"],
            "net_wet_area": [246.017, "m2", "Net wetted area of the component"],
            "aero_length": [5.91876, "m", "Characteristic length of the component for friction drag estimation"],
            "form_factor": [1.4, "no_dim", "Form factor of the conponent for form and friction drag estimation"],
            "area": [150.931, "m2", "Geometric reference area of the lifting surface"],
            "span": [27.471, "m", "Spanwise dimension of the lifting surface"],
            "aspect_ratio": [5, "no_dim", "Aspect ratio of the lifting surface"],
            "taper_ratio": [0.35, "no_dim", "Taper ratio of the lifting surface"],
            "toc": [0.1, "no_dim", "Thickness to chord ratio of the lifting surface"],
            "sweep25": [34.3354, "deg", "Sweep angle at 25% of the chords of the lifting surface"],
            "dihedral": [5, "deg", "Dihedral angle of the lifting surface"],
            "volume_factor": [0.94, "no_dim", "Volume coefficient of the horizontal stabilizer"],
            "lever_arm": [39.3579, "m", "Lever arm of the stabilization surface, 25%cma wing to 25% cma surface"],
            "axe_loc": [[80.2113, 0, 4.94592], "m", "Position of the central chord of the lifting surface"],
            "axe_c": [8.13955, "m", "Central chord length of the lifting surface"],
            "tip_loc": [[90.9161, 13.7355, 6.14762], "m", "Position of the tip chord of the lifting surface"],
            "tip_c": [2.84884, "m", "Tip chord length of the lifting surface"],
            "mac_loc": [[84.7047, 5.76551, 1.15495], "m", "Position of the mean aerodynamic chord of the lifting surface"],
            "mac": [5.91876, "m", "Mean aerodynamic chord length of the lifting surface"],
            "mass_correction_factor": [1, "no_dim", "Factor on all component mass except engines and systems"]
        },
        "tank": {
            "frame_origin": [[22.5051, 0, 3.5328], "m", "Position of the reference point of the component in the assembly"],
            "mass": [133693, "kg", "Masse of the component"],
            "cg": [37.0719, "m", "Position of the center of gravity of the component in the assembly"],
            "inertia_tensor": [[[null, null, null], [null, null, null], [null, null, null]], "kg.m2", "Inertia tensor of the component in its reference point"],
            "gross_wet_area": [0, "m2", "Gross wetted area of the component"],
            "net_wet_area": [0, "m2", "Net wetted area of the component"],
            "aero_length": [1, "m", "Characteristic length of the component for friction drag estimation"],
            "form_factor": [0, "no_dim", "Form factor of the conponent for form and friction drag estimation"],
            "mfw_factor": [3.1745, "no_dim", "Driver of MFW in MDA_plus mode"],
            "gravimetric_index": [0.3, "no_dim", "Tank gravimetric index, kg-LH2 / kg-LH2+Tank"],
            "volumetric_index": [0.845, "no_dim", "Tank volumetric index, m3-LH2 / m3-LH2+Tank"],
            "ref_length": [15, "m", "Reference length of the component"],
            "length": [47.6175, "m", "Length of the component"],
            "width_rear_factor": [0.75, "no_dim", "Diameter of the rear pressure bulkhead over fuselage diameter"],
            "width_rear": [4.116, "m", "Tank rear diameter for rear fuselage tank"],
            "width": [5.488, "no_dim", "Tank front diameter for rear fuselage tank"],
            "fuel_pressure": [10, "bar", "Maximum over pressure of the fuel in the tank"],
            "fuel_density": [70.8, "kg/m3", "Density of the used storage medium"],
            "cylindric_gross_volume": null,
            "cone_gross_volume": null,
            "gross_volume": [957.726, "m3", "Gross volume of the component"],
            "cylindric_volume": [650.065, "m3", "Rear tank fuel volume in the cylindrical part"],
            "cone_volume": [159.214, "m3", "Rear tank fuel volume in the conic part"],
            "shell_specific_volume": [148.447, "m3", "Tank insulation volume"],
            "shell_specific_mass": [133693, "kg", "Tank insulation mass"],
            "max_volume": [809.278, "m3", "Total available volume for fuel"],
            "mfw_volume_limited": [57296.9, "kg", "Maximum fuel mass according to available volume"],
            "fuel_max_fwd_cg": [37.0719, "m", "Maximum forward position of the fuel"],
            "fuel_max_fwd_mass": [57296.9, "kg", "Fuel mass corresponding to mximum forward position"],
            "fuel_max_bwd_cg": [37.0719, "m", "Maximum backward position of the fuel"],
            "fuel_max_bwd_mass": [57296.9, "kg", "Fuel mass corresponding to mximum backward position"],
            "gross_cylindric_volume": [769.307, "m3", "Available volume for tank in the rear fuselage cylindrical part"],
            "gross_cone_volume": [188.418, "m3", "Available volume for tank in the rear fuselage conic part"]
        },
        "tank_analysis_order": [["tank"], "string", "Gives the tank component list"],
        "landing_gear": {
            "frame_origin": [48.4968, "m", "Position of the reference point of the component in the assembly"],
            "mass": [12383.7, "kg", "Masse of the component"],
            "cg": [48.4968, "m", "Position of the center of gravity of the component in the assembly"],
            "inertia_tensor": [[[null, null, null], [null, null, null], [null, null, null]], "kg.m2", "Inertia tensor of the component in its reference point"],
            "gross_wet_area": [0, "m2", "Gross wetted area of the component"],
            "net_wet_area": [0, "m2", "Net wetted area of the component"],
            "aero_length": [1, "m", "Characteristic length of the component for friction drag estimation"],
            "form_factor": [0, "no_dim", "Form factor of the conponent for form and friction drag estimation"],
            "mass_correction_factor": [1, "no_dim", "Factor on all component mass except engines and systems"]
        },
        "system": {
            "frame_origin": [[0, 0, 0], "m", "Position of the reference point of the component in the assembly"],
            "mass": [15734.6, "kg", "Masse of the component"],
            "cg": [[49.5183, 9.0319, 6.82513], "m", "Position of the center of gravity of the component in the assembly"],
            "inertia_tensor": [[[null, null, null], [null, null, null], [null, null, null]], "kg.m2", "Inertia tensor of the component in its reference point"],
            "gross_wet_area": [0, "m2", "Gross wetted area of the component"],
            "net_wet_area": [0, "m2", "Net wetted area of the component"],
            "aero_length": [1, "m", "Characteristic length of the component for friction drag estimation"],
            "form_factor": [0, "no_dim", "Form factor of the conponent for form and friction drag estimation"]
        },
        "nacelle": {
            "frame_origin": [[37.5285, 11.4587, -1.17711], "m", "Position of the reference point of the component in the assembly"],
            "mass": [13035.7, "kg", "Masse of the component"],
            "cg": [[41.6896, 11.4587, -1.17711], "m", "Position of the center of gravity of the component in the assembly"],
            "inertia_tensor": [[[null, null, null], [null, null, null], [null, null, null]], "kg.m2", "Inertia tensor of the component in its reference point"],
            "gross_wet_area": [74.0074, "m2", "Gross wetted area of the component"],
            "net_wet_area": [74.0074, "m2", "Net wetted area of the component"],
            "aero_length": [5.9444, "m", "Characteristic length of the component for friction drag estimation"],
            "form_factor": [1.15, "no_dim", "Form factor of the conponent for form and friction drag estimation"],
            "eis_date": [6.37464e+10, "int", "Entry into service date"],
            "rating_factor": {
                "MTO": [1, "no_dim", "Max Takeoff rating factor"],
                "MCN": [0.9, "no_dim", "Maxi Continuous rating factor"],
                "MCL": [0.85, "no_dim", "Max Climb rating factor"],
                "MCR": [0.57, "no_dim", "Max Cruise rating factor"],
                "FID": [0.05, "no_dim", "Flight idle rating factor"]
            },
            "reference_offtake": [0, "kW", "Refrence power offtake for design"],
            "engine_bpr": [9, "no_dim", "Reference By Pass Ratio of the engine"],
            "engine_opr": [50, "no_dim", "Reference Overall Pressure Ratio of the engine"],
            "engine_fpr": [1.5, "no_dim", "Reference Fan Pressure Ratio of the engine"],
            "core_thrust_ratio": [0.13, "no_dim", "Reference ratio of the total thrust delivered by the core"],
            "propeller_efficiency": [0.82, "no_dim", "Propeller like fan efficiency Thrust.Speed/shaft_power"],
            "fan_efficiency": [0.9, "no_dim", "Fan efficiency, Kinetic power delivered to the air flow devided by shaft power"],
            "lateral_margin": [1, "no_dim", "Lateral margin as a fraction of nacelle width"],
            "vertical_margin": [1, "no_dim", "vertical margin as a fraction of nacelle width"],
            "hub_width": [0.4, "m", "Fan hub diameter"],
            "fan_width": [3.66294, "m", "Fan diameter"],
            "nozzle_width": [2.81559, "m", "Nozzle diameter"],
            "nozzle_area": [6.10063, "m2", "Nozzle area"],
            "sea_level_static_thrust": [40640.3, "daN", "Engine max thrust at sea level zero speed"],
            "width": [3.96294, "no_dim", "Tank front diameter for rear fuselage tank"],
            "length": [5.9444, "m", "Length of the component"],
            "propeller_mass": [0, "kg", "Propeller mass if any"],
            "engine_mass": [11410.1, "kg", "Engine mass"],
            "pylon_mass": [1625.61, "kg", "Pylon mass if any"],
            "airplane_side": ["right", "string", "mounting side of the component, 'right' or 'left'"],
            "nacelle_wing_chord": [10.0045, "m", "Wing chord at nacelle Y wise position, wing engine only"],
            "nacelle_wing_chord_loc": [[41.6896, 11.4587, 0.744938], "m", "Wing chord position at nacelle Y wise position, wing engine only"]
        },
        "other_nacelle": {
            "frame_origin": [[37.5285, -11.4587, -1.17711], "m", "Position of the reference point of the component in the assembly"],
            "mass": [13035.7, "kg", "Masse of the component"],
            "cg": [[41.6896, -11.4587, -1.17711], "m", "Position of the center of gravity of the component in the assembly"],
            "inertia_tensor": [[[null, null, null], [null, null, null], [null, null, null]], "kg.m2", "Inertia tensor of the component in its reference point"],
            "gross_wet_area": [74.0074, "m2", "Gross wetted area of the component"],
            "net_wet_area": [74.0074, "m2", "Net wetted area of the component"],
            "aero_length": [5.9444, "m", "Characteristic length of the component for friction drag estimation"],
            "form_factor": [1.15, "no_dim", "Form factor of the conponent for form and friction drag estimation"],
            "eis_date": [6.37464e+10, "int", "Entry into service date"],
            "rating_factor": {
                "MTO": [1, "no_dim", "Max Takeoff rating factor"],
                "MCN": [0.9, "no_dim", "Maxi Continuous rating factor"],
                "MCL": [0.85, "no_dim", "Max Climb rating factor"],
                "MCR": [0.57, "no_dim", "Max Cruise rating factor"],
                "FID": [0.05, "no_dim", "Flight idle rating factor"]
            },
            "reference_offtake": [0, "kW", "Refrence power offtake for design"],
            "engine_bpr": [9, "no_dim", "Reference By Pass Ratio of the engine"],
            "engine_opr": [50, "no_dim", "Reference Overall Pressure Ratio of the engine"],
            "engine_fpr": [1.5, "no_dim", "Reference Fan Pressure Ratio of the engine"],
            "core_thrust_ratio": [0.13, "no_dim", "Reference ratio of the total thrust delivered by the core"],
            "propeller_efficiency": [0.82, "no_dim", "Propeller like fan efficiency Thrust.Speed/shaft_power"],
            "fan_efficiency": [0.9, "no_dim", "Fan efficiency, Kinetic power delivered to the air flow devided by shaft power"],
            "lateral_margin": [1, "no_dim", "Lateral margin as a fraction of nacelle width"],
            "vertical_margin": [1, "no_dim", "vertical margin as a fraction of nacelle width"],
            "hub_width": [0.4, "m", "Fan hub diameter"],
            "fan_width": [3.66294, "m", "Fan diameter"],
            "nozzle_width": [2.81559, "m", "Nozzle diameter"],
            "nozzle_area": [6.10063, "m2", "Nozzle area"],
            "sea_level_static_thrust": [40640.3, "daN", "Engine max thrust at sea level zero speed"],
            "width": [3.96294, "no_dim", "Tank front diameter for rear fuselage tank"],
            "length": [5.9444, "m", "Length of the component"],
            "propeller_mass": [0, "kg", "Propeller mass if any"],
            "engine_mass": [11410.1, "kg", "Engine mass"],
            "pylon_mass": [1625.61, "kg", "Pylon mass if any"],
            "airplane_side": ["left", "string", "mounting side of the component, 'right' or 'left'"],
            "nacelle_wing_chord": [10.0045, "m", "Wing chord at nacelle Y wise position, wing engine only"],
            "nacelle_wing_chord_loc": [[41.6896, 11.4587, 0.744938], "m", "Wing chord position at nacelle Y wise position, wing engine only"]
        }
    },
    "power_system": {
        "data": {
            "MTO": {
                "disa": [null, "degK", "Temperature shift versus ISA conditions"],
                "altp": [null, "ft", "Target pressure altitude"],
                "mach": [null, "mach", "Mach number"],
                "nei": [1, "int", "Number of engine inoperative, typically 0 or 1"],
                "kfn_opt": [null, "no_dim", "Ratio required thrust over effective engine thrust"],
                "thrust_opt": [null, "daN", "Required engine thrust"],
                "thrust": [null, "daN", "Engine thrust"],
                "fuel_flow": [null, "kg/s", "Fuel flow"],
                "tsfc": [null, "kg/daN/h", "Specific Fuel Consumption versus thrust"],
                "T41": [null, "Kelvin", "Temperature just after combustion chamber (turbine entry)"]
            },
            "MCN": {
                "disa": [null, "degK", "Temperature shift versus ISA conditions"],
                "altp": [null, "ft", "Target pressure altitude"],
                "mach": [null, "mach", "Mach number"],
                "nei": [1, "int", "Number of engine inoperative, typically 0 or 1"],
                "kfn_opt": [null, "no_dim", "Ratio required thrust over effective engine thrust"],
                "thrust_opt": [null, "daN", "Required engine thrust"],
                "thrust": [null, "daN", "Engine thrust"],
                "fuel_flow": [null, "kg/s", "Fuel flow"],
                "tsfc": [null, "kg/daN/h", "Specific Fuel Consumption versus thrust"],
                "T41": [null, "Kelvin", "Temperature just after combustion chamber (turbine entry)"]
            },
            "MCL": {
                "disa": [null, "degK", "Temperature shift versus ISA conditions"],
                "altp": [null, "ft", "Target pressure altitude"],
                "mach": [null, "mach", "Mach number"],
                "nei": [0, "int", "Number of engine inoperative, typically 0 or 1"],
                "kfn_opt": [null, "no_dim", "Ratio required thrust over effective engine thrust"],
                "thrust_opt": [null, "daN", "Required engine thrust"],
                "thrust": [null, "daN", "Engine thrust"],
                "fuel_flow": [null, "kg/s", "Fuel flow"],
                "tsfc": [null, "kg/daN/h", "Specific Fuel Consumption versus thrust"],
                "T41": [null, "Kelvin", "Temperature just after combustion chamber (turbine entry)"]
            },
            "MCR": {
                "disa": [null, "degK", "Temperature shift versus ISA conditions"],
                "altp": [null, "ft", "Target pressure altitude"],
                "mach": [null, "mach", "Mach number"],
                "nei": [0, "int", "Number of engine inoperative, typically 0 or 1"],
                "kfn_opt": [null, "no_dim", "Ratio required thrust over effective engine thrust"],
                "thrust_opt": [null, "daN", "Required engine thrust"],
                "thrust": [null, "daN", "Engine thrust"],
                "fuel_flow": [null, "kg/s", "Fuel flow"],
                "tsfc": [null, "kg/daN/h", "Specific Fuel Consumption versus thrust"],
                "T41": [null, "Kelvin", "Temperature just after combustion chamber (turbine entry)"]
            }
        },
        "sfc_correction": [1, "no_dim", "Factor on tsfc or psfc"],
        "n_engine": [2, "int", "Numeric number of engine"],
        "reference_thrust": [45400, "daN", "Engine reference thrust, thrust(sea level, ISA+15, Mach 0.25)/0.8"],
        "sfc_type": ["thrust", "string", "Type of Specific Fuel Consumption, 'thrust' or 'power'"]
    },
    "aerodynamics": {
        "kcx_correction": [1, "no_dim", "Factor on airplane total drag coefficient"],
        "dcx_correction": [0, "no_dim", "Additive correction on airplane total drag coefficient"],
        "cruise_lodmax": [21.907, "no_dim", "Maximum lift over Drag ratio in cruise"],
        "cz_cruise_lodmax": [0.611355, "no_dim", "Lift coefficient for maximum lift over Drag ratio in cruise"],
        "hld_conf_clean": [0, "no_dim", "Deflection parameter corresponding to high lift devices retracted, typically 0"],
        "czmax_conf_clean": [1.22361, "no_dim", "Maximum lift coefficient with high lift devices retracted"],
        "hld_conf_to": [0.3, "no_dim", "Deflection parameter corresponding to high lift devices in take off configuration"],
        "czmax_conf_to": [1.91559, "no_dim", "Maximum lift coefficient with high lift devices in take off configuration"],
        "hld_conf_ld": [1, "no_dim", "Deflection parameter corresponding to high lift devices in landing configuration, typically 1"],
        "czmax_conf_ld": [2.44722, "no_dim", "Maximum lift coefficient with high lift devices in landing configuration"]
    },
    "weight_cg": {
        "mtow": [376334, "kg", "Maximum Take Off Weight"],
        "mzfw": [333866, "kg", "Maximum Zero Fuel Weight"],
        "mlw": [340543, "kg", "Maximum Landing Weight"],
        "owe": [312266, "kg", "Operational Weight Empty"],
        "mwe": [301808, "kg", "Manufacturer Weight Empty"],
        "mfw": [57296.9, "kg", "Maximum Fuel Weight"],
        "breakdown": {
            "owe": [312266, "kg", "Operational Weight Empty"],
            "op_item_mass": [8135.76, "kg", "Operator items mass (crews, water, food, ...)"],
            "container_pallet_mass": [2321.65, "kg", "Container & pallet mass if any"],
            "mwe": [301808, "kg", "Manufacturer Weight Empty"],
            "furnishing_mass": [3174.4, "kg", "Furnishing mass (seats, monuments, toilets, ...)"],
            "wing_mass": [66765.8, "kg", "Wing mass"],
            "body_mass": [38099.5, "kg", "Main body mass"],
            "htp_mass": [3320.48, "kg", "Horizontal stabilizer mass"],
            "vtp_mass": [2565.9, "kg", "Vertical stabilizer mass"],
            "tank_mass": [133693, "kg", "Tank mass"],
            "ldg_mass": [12383.7, "kg", "Landing gear mass"],
            "system_mass": [15734.6, "kg", "System mass"],
            "propeller_mass": [0, "kg", "Propeller mass if any"],
            "engine_mass": [22820.1, "kg", "Engine mass"],
            "pylon_mass": [3251.22, "kg", "Pylon mass if any"]
        },
        "owe_cg": [[41.8722, 21.2494, 18.657], "m", "Center of gravity at Operational Weight Empty"]
    },
    "handling_quality": {
        "static_stab_margin": [0.05, "no_dim", "Minimal static margin in CMA ratio"],
        "forward_cg_mass": [415424, "kg", "Total mass corresponding to required max forward CG"],
        "forward_cg_req": [[39.5298, 21.0858, 19.1372], "m", "Required max forward CG position"],
        "forward_cg_stall": [44.4179, "m", "Allowable max forward CG position according to stall demonstration"],
        "backward_cg_mass": [352663, "kg", "Total mass corresponding to required max backward CG"],
        "backward_cg_req": [[41.2919, 24.8383, 22.5429], "m", "Required max backward CG position"],
        "backward_cg_stab": [51.7668, "m", "Allowable max backward CG position according to static stability"],
        "backward_cg_oei_trim": [72.9191, "m", "Allowable max backward CG position according to oei lateral trim demonstration"],
        "backward_cg_oei_mass": [327282, "kg", "Total mass corresponding to oei lateral trim demonstration"]
    },
    "performance": {
        "mission": {
            "max_payload": {
                "disa": [0, "degK", "Temperature shift versus ISA conditions"],
                "altp": [35000, "ft", "Target pressure altitude"],
                "mach": [0.82, "mach", "Mach number"],
                "range": [4661.46, "NM", "Mission range"],
                "tow": [376334, "kg", "Mission take off weight"],
                "payload": [21600, "kg", "Mission payload"],
                "time_block": [11.0917, "h", "Mission block time"],
                "fuel_block": [36937.6, "kg", "Mission block fuel"],
                "fuel_reserve": [5530.7, "kg", "Mission reserve fuel"],
                "fuel_total": [42468.3, "kg", "Mission total fuel"],
                "holding_time": [30, "min", "Holding duration for reserve fuel evaluation"],
                "reserve_fuel_ratio": [0.05, "no_dim", "Fraction of mission fuel for reserve fuel evaluation"],
                "diversion_range": [200, "NM", "Range of diversion mission for reserve fuel evaluation"]
            },
            "nominal": {
                "disa": [0, "degK", "Temperature shift versus ISA conditions"],
                "altp": [35000, "ft", "Target pressure altitude"],
                "mach": [0.82, "mach", "Mach number"],
                "range": [5280, "NM", "Mission range"],
                "tow": [376334, "kg", "Mission take off weight"],
                "payload": [16800, "kg", "Mission payload"],
                "time_block": [12.5181, "h", "Mission block time"],
                "fuel_block": [41531.9, "kg", "Mission block fuel"],
                "fuel_reserve": [5736.47, "kg", "Mission reserve fuel"],
                "fuel_total": [47268.3, "kg", "Mission total fuel"],
                "holding_time": [30, "min", "Holding duration for reserve fuel evaluation"],
                "reserve_fuel_ratio": [0.05, "no_dim", "Fraction of mission fuel for reserve fuel evaluation"],
                "diversion_range": [200, "NM", "Range of diversion mission for reserve fuel evaluation"]
            },
            "max_fuel": {
                "disa": [0, "degK", "Temperature shift versus ISA conditions"],
                "altp": [35000, "ft", "Target pressure altitude"],
                "mach": [0.82, "mach", "Mach number"],
                "range": [6600, "NM", "Mission range"],
                "tow": [376334, "kg", "Mission take off weight"],
                "payload": [6771.45, "kg", "Mission payload"],
                "time_block": [15.5621, "h", "Mission block time"],
                "fuel_block": [51129.4, "kg", "Mission block fuel"],
                "fuel_reserve": [6167.49, "kg", "Mission reserve fuel"],
                "fuel_total": [57296.9, "kg", "Mission total fuel"],
                "holding_time": [30, "min", "Holding duration for reserve fuel evaluation"],
                "reserve_fuel_ratio": [0.05, "no_dim", "Fraction of mission fuel for reserve fuel evaluation"],
                "diversion_range": [200, "NM", "Range of diversion mission for reserve fuel evaluation"]
            },
            "zero_payload": {
                "disa": [0, "degK", "Temperature shift versus ISA conditions"],
                "altp": [35000, "ft", "Target pressure altitude"],
                "mach": [0.82, "mach", "Mach number"],
                "range": [6701.95, "NM", "Mission range"],
                "tow": [369563, "kg", "Mission take off weight"],
                "payload": [0, "kg", "Mission payload"],
                "time_block": [15.7968, "h", "Mission block time"],
                "fuel_block": [51161.5, "kg", "Mission block fuel"],
                "fuel_reserve": [6135.43, "kg", "Mission reserve fuel"],
                "fuel_total": [57296.9, "kg", "Mission total fuel"],
                "holding_time": [30, "min", "Holding duration for reserve fuel evaluation"],
                "reserve_fuel_ratio": [0.05, "no_dim", "Fraction of mission fuel for reserve fuel evaluation"],
                "diversion_range": [200, "NM", "Range of diversion mission for reserve fuel evaluation"]
            },
            "cost": {
                "disa": [0, "degK", "Temperature shift versus ISA conditions"],
                "altp": [35000, "ft", "Target pressure altitude"],
                "mach": [0.82, "mach", "Mach number"],
                "range": [2000, "NM", "Mission range"],
                "tow": [349097, "kg", "Mission take off weight"],
                "payload": [16800, "kg", "Mission payload"],
                "time_block": [4.95232, "h", "Mission block time"],
                "fuel_block": [15598.2, "kg", "Mission block fuel"],
                "fuel_reserve": [4433.21, "kg", "Mission reserve fuel"],
                "fuel_total": [20031.4, "kg", "Mission total fuel"],
                "holding_time": [30, "min", "Holding duration for reserve fuel evaluation"],
                "reserve_fuel_ratio": [0.05, "no_dim", "Fraction of mission fuel for reserve fuel evaluation"],
                "diversion_range": [200, "NM", "Range of diversion mission for reserve fuel evaluation"]
            },
            "toy": {
                "disa": [0, "degK", "Temperature shift versus ISA conditions"],
                "altp": [35000, "ft", "Target pressure altitude"],
                "mach": [0.82, "mach", "Mach number"],
                "range": [352, "NM", "Mission range"],
                "tow": [327282, "kg", "Mission take off weight"],
                "payload": [8400, "kg", "Mission payload"],
                "time_block": [1.15043, "h", "Mission block time"],
                "fuel_block": [2865.98, "kg", "Mission block fuel"],
                "fuel_reserve": [3750.64, "kg", "Mission reserve fuel"],
                "fuel_total": [6616.62, "kg", "Mission total fuel"],
                "holding_time": [30, "min", "Holding duration for reserve fuel evaluation"],
                "reserve_fuel_ratio": [0.05, "no_dim", "Fraction of mission fuel for reserve fuel evaluation"],
                "diversion_range": [200, "NM", "Range of diversion mission for reserve fuel evaluation"]
            },
            "disa": [0, "degK", "Temperature shift versus ISA conditions"],
            "altp": [35000, "ft", "Target pressure altitude"],
            "mach": [0.82, "mach", "Mach number"],
            "mass": [338701, "kg", "Masse of the component"],
            "ktow": [0.9, "no_dim", "Ratio of TOW defining the aircraft weight for mission breguet range"],
            "crz_tas": [472.663, "kt", "Cruise true air speed"],
            "crz_sar": [0.134082, "NM/kg", "Cruise specific air range related to fuel"],
            "crz_cz": [0.445955, "no_dim", "Cruise lift coefficient"],
            "crz_wing_aoa": [3.69563, "deg", "Cruise wing angle of attack, pitch angle as well"],
            "crz_fuselage_aoa": [2.41171, "deg", "Cruise fuselage angle of attack, pitch angle as well"],
            "crz_lod": [20.777, "no_dim", "Cruise lift to drag ratio"],
            "crz_thrust": [159.865, "kN", "Total cruise thrust"],
            "crz_throttle": [0.869773, "no_dim", "Cruise throttle versus MCR"],
            "crz_propulsive_power": [38.8727, "MW", "Total cruise propulsive power, total_thrust * true_air_speed"],
            "crz_tsfc": [0.220509, "kg/daN/h", "Cruise specific fuel consumption versus thrust"],
            "max_sar_altp": [38575.9, "ft", "Altitude of specific air range"],
            "max_sar": [0.135632, "NM/kg", "Maximum specific air range"],
            "max_sar_cz": [0.529445, "no_dim", "Lift coefficient for maximum specific air range"],
            "max_sar_lod": [21.4231, "no_dim", "Lift to drag ratio for maximum specific air range"],
            "max_sar_thrust": [155.044, "kN", "Total thrust for maximum specific air range"],
            "max_sar_throttle": [0.965897, "no_dim", "Throttle versus MCR for maximum specific air range"],
            "max_sar_tsfc": [0.223657, "kg/daN/h", "Specific fuel consumption versus thrust for maximum specific air range"],
            "max_sar_tas": [470.327, "kt", "True air speed at specific air range"]
        },
        "take_off": {
            "disa": [15, "degK", "Temperature shift versus ISA conditions"],
            "altp": [0, "ft", "Target pressure altitude"],
            "kmtow": [1, "no_dim", "Ratio of MTOW defining the aircraft weight"],
            "kvs1g": [1.13, "no_dim", "Applicable ratio of stalling speed at 1g"],
            "s2_min_path": [2.4, "%", "Minimum trajectory slope at 35ft for take off"],
            "tofl_req": [3200, "m", "Maximum take off field length required in given conditions"],
            "tofl_eff": [2883.85, "m", "Effective take off field length in given conditions"],
            "hld_conf": [0.3, "no_dim", "Current deflection parameter corresponding to high lift devices configuration"],
            "kvs1g_eff": [1.14414, "no_dim", "Effective ratio of stalling speed at 1g"],
            "v2": [153.107, "kt", "Airplane speed in CAS at 35ft during take off"],
            "mach2": [0.231464, "mach", "Airplane speed in Mach number at 35ft during take off"],
            "s2_path": [2.4, "%", "Airplane trajectory slope at 35ft during take off"],
            "limit": ["s2", "string", "Active limit during take off, can be 'fl':field length, 's2':second segment path"],
            "aoa_wing": [15.7695, "deg", "Wing angle of attack"]
        },
        "approach": {
            "disa": [0, "degK", "Temperature shift versus ISA conditions"],
            "altp": [0, "ft", "Target pressure altitude"],
            "kmlw": [1, "no_dim", "Ratio of MLW defining the aircraft weight"],
            "kvs1g": [1.23, "no_dim", "Applicable ratio of stalling speed at 1g"],
            "app_speed_req": [140, "kt", "Maximum approach speed required in given conditions"],
            "app_speed_eff": [138.526, "kt", "Effective approach speed in given conditions"],
            "hld_conf": [1, "no_dim", "Current deflection parameter corresponding to high lift devices configuration"],
            "aoa_wing": [17.4863, "deg", "Wing angle of attack"]
        },
        "mcr_ceiling": {
            "disa": [15, "degK", "Temperature shift versus ISA conditions"],
            "altp": [35000, "ft", "Target pressure altitude"],
            "mach": [0.82, "mach", "Mach number"],
            "kmtow": [0.97, "no_dim", "Ratio of MTOW defining the aircraft weight"],
            "rating": ["MCR", "string", "Engine rating name ('MTO','MCN','MCL','MCR','FID'"],
            "speed_mode": ["mach", "string", "Constant CAS : 'cas' or constant Mach : 'mach'"],
            "vz_req": [0, "ft/min", "Minimum vertical speed required in given conditions"],
            "vz_eff": [56.8684, "ft/min", "Effective vertical speed in given conditions"],
            "aoa_wing": [3.98307, "deg", "Wing angle of attack"]
        },
        "mcl_ceiling": {
            "disa": [15, "degK", "Temperature shift versus ISA conditions"],
            "altp": [35000, "ft", "Target pressure altitude"],
            "mach": [0.82, "mach", "Mach number"],
            "kmtow": [0.97, "no_dim", "Ratio of MTOW defining the aircraft weight"],
            "rating": ["MCL", "string", "Engine rating name ('MTO','MCN','MCL','MCR','FID'"],
            "speed_mode": ["cas", "string", "Constant CAS : 'cas' or constant Mach : 'mach'"],
            "vz_req": [300, "ft/min", "Minimum vertical speed required in given conditions"],
            "vz_eff": [825.724, "ft/min", "Effective vertical speed in given conditions"],
            "aoa_wing": [3.98307, "deg", "Wing angle of attack"]
        },
        "oei_ceiling": {
            "disa": [15, "degK", "Temperature shift versus ISA conditions"],
            "altp": [14000, "ft", "Target pressure altitude"],
            "kmtow": [1, "no_dim", "Ratio of MTOW defining the aircraft weight"],
            "rating": ["MCN", "string", "Engine rating name ('MTO','MCN','MCL','MCR','FID'"],
            "speed_mode": ["cas", "string", "Constant CAS : 'cas' or constant Mach : 'mach'"],
            "path_req": [1.1, "%", "Minimum trajectory slope required in given conditions"],
            "path_eff": [1.14948, "%", "Effective trajectory slope in given conditions"],
            "mach_opt": [0.44519, "mach", "Optimal Mach number according to requirement"],
            "aoa_wing": [6.90794, "deg", "Wing angle of attack"]
        },
        "time_to_climb": {
            "disa": [15, "degK", "Temperature shift versus ISA conditions"],
            "altp": [35000, "ft", "Target pressure altitude"],
            "mach": [0.82, "mach", "Mach number"],
            "kmtow": [null, "no_dim", "Ratio of MTOW defining the aircraft weight"],
            "cas1": [180, "kt", "Calibrated Air Speed below altp1 during climb trajectory"],
            "altp1": [1500, "ft", "Starting pressure altitude for climb trajectory, typically 1500ft"],
            "cas2": [250, "kt", "Calibrated Air Speed above altp2"],
            "altp2": [10000, "ft", "Transtion pressure altitude from cas1 to cas2, typically 10000ft"],
            "ttc_req": [25, "min", "Maximum time to climb required in given conditions"],
            "ttc_eff": [23.6854, "min", "Effective time to climb in given conditions"]
        }
    },
    "economics": {
        "irp": [10, "year", "Interest recovery period"],
        "period": [15, "year", "Utilization period"],
        "interest_rate": [4, "%", "Interest rate"],
        "labor_cost": [120, "$/h", "Labor cost"],
        "utilization": [900, "int", "Number of flights per year"],
        "fuel_price": [2, "$/gal", "Fuel price"],
        "energy_price": [0.1, "$/kWh", "Energy price"],
        "battery_price": [20, "$/kg", "Battery price"],
        "engine_price": [79.3914, "M$", "Price of one engine"],
        "gear_price": [8.91629, "M$", "Price of landing gears"],
        "frame_price": [298.157, "M$", "Price of the airframe"],
        "frame_cost": [4896.82, "$/trip", "Airframe maintenance cost"],
        "engine_cost": [1482.9, "$/trip", "Engine maintenance cost"],
        "cockpit_crew_cost": [2375.04, "$/trip", "Cockpit crew cost"],
        "cabin_crew_cost": [2377.12, "$/trip", "Cabin crew cost"],
        "landing_fees": [3259.05, "$/trip", "Landing fees"],
        "navigation_fees": [3127.57, "$/trip", "Navigation fees"],
        "catering_cost": [491.2, "$/trip", "Catering cost"],
        "pax_handling_cost": [320, "$/trip", "Passenger handling cost"],
        "ramp_handling_cost": [1392, "$/trip", "Ramp handling cost"],
        "std_op_cost": [15257.8, "$/trip", "Standard operating cost"],
        "cash_op_cost": [19838.1, "$/trip", "Cash operating cost"],
        "direct_op_cost": [65022.2, "$/trip", "Direct operating cost"],
        "fuel_cost": [116.402, "$/trip", "Fuel cost"],
        "aircraft_price": [465.856, "M$", "Aircraft price"],
        "total_investment": [478.799, "M$", "Total investmenent"],
        "interest": [8260.5, "$/trip", "Interest"],
        "insurance": [1811.66, "$/trip", "Insurance"],
        "depreciation": [35111.9, "$/trip", "Depreciation"]
    },
    "environment": {
        "CO2_metric": [NaN, "kg/km/m0.48", "Fuel efficiency metric"],
        "CO2_index": [0, "g/kg", "Mass of carbon dioxide emitted per kg of fuel"],
        "H2O_index": [18, "g/kg", "Mass of water emitted per kg of fuel"],
        "SO2_index": [0, "g/kg", "Mass of sulfur dioxide emitted per kg of fuel"],
        "NOx_index": [0.014, "g/kg", "Mass of nitrogen oxide emitted per kg of fuel"],
        "CO_index": [0, "g/kg", "Mass of carbon monoxide emitted per kg of fuel"],
        "HC_index": [0, "g/kg", "Mass of unburnt hydrocarbon emitted per kg of fuel"],
        "sulfuric_acid_index": [0, "g/kg", "Mass of sulfuric acid emitted per kg of fuel"],
        "nitrous_acid_index": [0.0004, "g/kg", "Mass of nitrous acid emitted per kg of fuel"],
        "nitric_acid_index": [0.0002, "g/kg", "Mass of nitric acid emitted per kg of fuel"],
        "soot_index": [2e+12, "int", "Number of soot particles emitted per kg of fuel"]
    },
    "draw": {}
}